#Fully Clothed

0-calm=54**aa38.72.0.16.36.38.72.0.16.36_ab_ac_ba50_bb7.1_bc500.500.8.0.1.10_bd7_be180_ca90.3.30.64.34.65.40.20.0.0.60.80_da2.0.0.100_db_dd9.3.40.50.50.50_dh2.35.67.35.0_di5_qa_qb_dc0.3.2.2.2_eh7.F0D17C.100_ea33.F0D17C.F0D17C.56.1.0_ec15.19.F0D17C.F0D17C.56.35.49.1_ed23.48.1.1.F0D17C.56_ef4.2.53.F0D17C.F0D17C.56.0_eg4.2.53.F0D17C.F0D17C.56.0_r00_fa7.50.70.50.50.65.56_fb_fh3_fc0.18.55.0.18.55.50.61.61.50.50.50_fj0.0.0_fd2.1.55.F0D17C.56_fe50.70_ff0000000000_fg1.70.56.0.0.1.0.0_fi_pa0.0.0.0.40.50.85.85.0.0_t00_pb_pc_pd_pe_ga0_gb1_gc2.0_ge0000000000_gh_gf_gg_gd00000000_ha89.89_hb49.1.44.99_hc0.63.60.0.63.60_hd34.1.49.49_ia_if_ib_id_ic_jc_ie_ja31.53.55.55_jb31.53.55.55_jd3.53.53.53_je3.53.53.53_jf_jg_ka13.2F78CA.2F78CA.55.0_kb0.19.19.0_kc_kd_ke_kf_la_lb_oa_os_ob_oc_od_oe_of_lc_m00_n00_s0016.20.20.20.0.100.147.671.690.0.5.0.100.1.61_s018.20.20.20.0.100.166.322.845.1.9.1.100.1.61_og_oh_oo_op_oq_or_om_on_ok_ol_oi_oj_ad0.0.0.0.0.0.0.0.0.0

0-happy=54**aa38.72.0.16.36.38.72.0.16.36_ab_ac_ba40_bb6.1_bc500.500.8.0.1.10_bd8_be177_ca90.3.30.64.34.65.40.20.0.0.60.80_da2.0.0.100_db_dd9.3.40.50.50.50_dh2.35.67.35.0_di5_qa_qb_dc0.3.2.2.2_eh7.F0D17C.100_ea33.F0D17C.F0D17C.56.1.0_ec15.19.F0D17C.F0D17C.56.35.49.0_ed23.48.1.1.F0D17C.56_ef4.2.53.F0D17C.F0D17C.56.0_eg4.2.53.F0D17C.F0D17C.56.0_r00_fa7.50.70.50.50.65.56_fb_fh3_fc0.18.55.0.18.55.50.61.61.50.50.50_fj0.0.0_fd2.1.55.F0D17C.56_fe50.70_ff0000000000_fg1.70.56.0.0.1.0.0_fi_pa0.0.0.0.40.50.85.85.0.0_t00_pb_pc_pd_pe_ga0_gb1_gc1.0_ge0000000000_gh_gf_gg_gd00000000_ha0.0_hb49.1.44.99_hc0.85.60.0.85.60_hd24.1.49.49_ia_if_ib_id_ic_jc_ie_ja31.53.55.55_jb31.53.55.55_jd3.53.53.53_je3.53.53.53_jf_jg_ka13.2F78CA.2F78CA.55.0_kb0.19.19.0_kc_kd_ke_kf_la_lb_oa_os_ob_oc_od_oe_of_lc_m00_n00_s0016.20.20.20.0.100.147.671.690.0.5.0.100.1.61_s018.20.20.20.0.100.166.322.845.1.9.1.100.1.61_og_oh_oo_op_oq_or_om_on_ok_ol_oi_oj_ad0.0.0.0.0.0.0.0.0.0

0-sad=54**aa7.69.1.8.66.7.69.1.8.66_ab_ac_ba60_bb6.1_bc500.500.8.0.1.10_bd6_be180_ca90.3.30.64.34.65.40.20.0.0.60.80_da2.0.0.100_db_dd9.3.40.50.50.50_dh2.35.67.35.0_di5_qa_qb_dc0.3.2.2.2_eh7.F0D17C.100_ea33.F0D17C.F0D17C.56.1.0_ec15.19.F0D17C.F0D17C.56.35.49.1_ed23.48.1.1.F0D17C.56_ef4.2.53.F0D17C.F0D17C.56.0_eg4.2.53.F0D17C.F0D17C.56.0_r00_fa7.50.70.50.50.65.56_fb_fh3_fc0.18.55.0.18.55.50.61.61.50.50.50_fj0.0.0_fd2.1.55.F0D17C.56_fe50.70_ff0000000000_fg1.70.56.0.0.1.0.0_fi_pa0.0.0.0.40.50.85.85.0.0_t00_pb_pc_pd_pe_ga0_gb1_gc1.0_ge0000000000_gh_gf_gg_gd00000000_ha75.75_hb49.1.44.99_hc3.70.12.3.70.12_hd6.1.100.49_ia_if_ib_id_ic_jc_ie_ja31.53.55.55_jb31.53.55.55_jd3.53.53.53_je3.53.53.53_jf_jg_ka13.2F78CA.2F78CA.55.0_kb0.19.19.0_kc_kd_ke_kf_la_lb_oa_os_ob_oc_od_oe_of_lc_m00_n00_s0016.20.20.20.0.100.147.671.690.0.5.0.100.1.61_s018.20.20.20.0.100.166.322.845.1.9.1.100.1.61_og_oh_oo_op_oq_or_om_on_ok_ol_oi_oj_ad0.0.0.0.0.0.0.0.0.0

0-angry=54**aa38.40.0.16.36.38.72.0.16.36_ab_ac_ba50_bb6.1_bc500.500.8.0.1.10_bd8_be177_ca90.3.30.64.34.65.40.20.0.0.60.80_da2.0.0.100_db_dd9.3.40.50.50.50_dh2.35.67.35.0_di5_qa_qb_dc0.3.2.2.2_eh7.F0D17C.100_ea33.F0D17C.F0D17C.56.1.0_ec15.19.F0D17C.F0D17C.56.35.49.0_ed23.48.1.1.F0D17C.56_ef4.2.53.F0D17C.F0D17C.56.0_eg4.2.53.F0D17C.F0D17C.56.0_r00_fa7.50.70.50.50.65.56_fb_fh3_fc0.18.55.0.18.55.50.61.61.50.50.50_fj0.0.0_fd2.1.55.F0D17C.56_fe50.70_ff0000000000_fg1.70.56.0.0.1.0.0_fi_pa0.0.0.0.40.50.85.85.0.0_t00_pb_pc_pd_pe_ga0_gb1_gc1.0_ge0000000000_gh_gf_gg_gd00000000_ha89.89_hb49.1.44.99_hc1.34.31.1.34.31_hd42.1.49.49_ia_if_ib_id_ic_jc_ie_ja31.53.55.55_jb31.53.55.55_jd3.53.53.53_je3.53.53.53_jf_jg_ka13.2F78CA.2F78CA.55.0_kb0.19.19.0_kc_kd_ke_kf_la_lb_oa_os_ob_oc_od_oe_of_lc_m00_n00_s0016.20.20.20.0.100.147.671.690.0.5.0.100.1.61_s018.20.20.20.0.100.166.322.845.1.9.1.100.1.61_og_oh_oo_op_oq_or_om_on_ok_ol_oi_oj_ad0.0.0.0.0.0.0.0.0.0

0-shocked=54**aa26.43.0.8.36.26.43.0.8.36_ab_ac_ba50_bb7.1_bc500.500.8.0.1.10_bd7_be180_ca90.3.30.64.34.65.40.20.0.0.60.80_da2.0.0.100_db_dd9.3.40.50.50.50_dh2.35.67.35.0_di5_qa_qb_dc0.3.2.2.2_eh7.F0D17C.100_ea33.F0D17C.F0D17C.56.1.0_ec15.19.F0D17C.F0D17C.56.35.49.1_ed23.48.1.1.F0D17C.56_ef4.2.53.F0D17C.F0D17C.56.0_eg4.2.53.F0D17C.F0D17C.56.0_r00_fa7.50.70.50.50.65.56_fb_fh3_fc0.18.55.0.18.55.50.61.61.50.50.50_fj0.0.0_fd2.1.55.F0D17C.56_fe50.70_ff0000000000_fg1.70.56.0.0.1.0.0_fi_pa0.0.0.0.40.50.85.85.0.1_t00_pb_pc_pd_pe_ga0_gb1_gc1.0_ge0000000000_gh_gf_gg_gd10000000_ha95.95_hb49.1.44.50_hc0.63.100.0.63.100_hd36.1.49.49_ia_if_ib_id_ic_jc_ie_ja31.53.55.55_jb31.53.55.55_jd3.53.53.53_je3.53.53.53_jf_jg_ka13.2F78CA.2F78CA.55.0_kb0.19.19.0_kc_kd_ke_kf_la_lb_oa_os_ob_oc_od_oe_of_lc_m00_n00_s0016.20.20.20.0.100.147.671.690.0.5.0.100.1.61_s018.20.20.20.0.100.166.322.845.1.9.1.100.1.61_og_oh_oo_op_oq_or_om_on_ok_ol_oi_oj_ad0.0.0.0.0.0.0.0.0.0

0-interested=54**aa12.57.1.16.36.38.72.0.16.36_ab_ac_ba50_bb7.1_bc500.500.8.0.1.10_bd7_be180_ca90.3.30.64.34.65.40.20.0.0.60.80_da2.0.0.100_db_dd9.3.40.50.50.50_dh2.35.67.35.0_di5_qa_qb_dc0.3.2.2.2_eh7.F0D17C.100_ea33.F0D17C.F0D17C.56.1.0_ec15.19.F0D17C.F0D17C.56.35.49.1_ed23.48.1.1.F0D17C.56_ef4.2.53.F0D17C.F0D17C.56.0_eg4.2.53.F0D17C.F0D17C.56.0_r00_fa7.50.70.50.50.65.56_fb_fh3_fc0.18.55.0.18.55.50.61.61.50.50.50_fj0.0.0_fd2.1.55.F0D17C.56_fe50.70_ff0000000000_fg1.70.56.0.0.1.0.0_fi_pa0.0.0.0.40.50.85.85.0.1_t00_pb_pc_pd_pe_ga0_gb1_gc1.0_ge0000000000_gh_gf_gg_gd10000000_ha89.89_hb49.1.44.99_hc1.58.12.1.94.70_hd22.0.49.49_ia_if_ib_id_ic_jc_ie_ja31.53.55.55_jb31.53.55.55_jd3.53.53.53_je3.53.53.53_jf_jg_ka13.2F78CA.2F78CA.55.0_kb0.19.19.0_kc_kd_ke_kf_la_lb_oa_os_ob_oc_od_oe_of_lc_m00_n00_s0016.20.20.20.0.100.147.671.690.0.5.0.100.1.61_s018.20.20.20.0.100.166.322.845.1.9.1.100.1.61_og_oh_oo_op_oq_or_om_on_ok_ol_oi_oj_ad0.0.0.0.0.0.0.0.0.0

0-embarrassed=54**aa7.69.1.8.66.7.69.1.8.66_ab_ac_ba50_bb44.1_bc500.500.8.0.1.10_bd44_be180_ca90.3.30.64.34.65.40.20.0.0.60.80_da2.0.0.100_db_dd10.3.40.50.50.50_dh2.35.67.35.0_di5_qa_qb_dc0.3.2.2.2_eh7.F0D17C.100_ea33.F0D17C.F0D17C.56.1.0_ec15.19.F0D17C.F0D17C.56.35.49.1_ed23.48.1.1.F0D17C.56_ef4.2.53.F0D17C.F0D17C.56.0_eg4.2.53.F0D17C.F0D17C.56.0_r00_fa7.50.70.50.50.65.56_fb_fh3_fc0.18.55.0.18.55.50.61.61.50.50.50_fj0.0.0_fd2.1.55.F0D17C.56_fe50.70_ff0000000000_fg1.70.56.0.0.1.0.0_fi_pa0.0.0.0.40.50.85.85.0.1_t00_pb_pc_pd_pe_ga0_gb1_gc15.0_ge0000000000_gh_gf_gg_gd10000000_ha80.80_hb0.1.44.50_hc3.85.27.3.85.27_hd8.0.49.49_ia_if_ib_id_ic_jc_ie_ja31.53.55.55_jb31.53.55.55_jd3.53.53.53_je3.53.53.53_jf_jg_ka13.2F78CA.2F78CA.55.0_kb0.19.19.0_kc_kd_ke_kf_la_lb_oa_os_ob_oc_od_oe_of_lc_m00_n00_s0016.20.20.20.0.100.147.671.690.0.5.0.100.1.61_s018.20.20.20.0.100.166.322.845.1.9.1.100.1.61_og_oh_oo_op_oq_or_om_on_ok_ol_oi_oj_ad0.0.0.0.0.0.0.0.0.0

0-stripping=54**aa34.79.1.16.50.9.84.1.16.48_ab_ac_ba50_bb7.1_bc500.500.8.0.1.10_bd7_be180_ca90.3.30.64.34.65.40.20.0.0.60.80_da2.0.0.100_db_dd9.3.40.50.50.50_dh2.35.67.35.0_di5_qa_qb_dc0.3.2.2.2_eh7.F0D17C.100_ea33.F0D17C.F0D17C.56.1.0_ec15.19.F0D17C.F0D17C.56.35.49.1_ed23.48.1.1.F0D17C.56_ef4.2.53.F0D17C.F0D17C.56.0_eg4.2.53.F0D17C.F0D17C.56.0_r00_fa7.50.70.50.50.65.56_fb_fh3_fc0.18.55.0.18.55.50.61.61.50.50.50_fj0.0.0_fd2.1.55.F0D17C.56_fe50.70_ff0000000000_fg1.70.56.0.0.1.0.0_fi_pa0.0.0.0.40.50.85.85.0.1_t00_pb_pc_pd_pe_ga0_gb1_gc0.0_ge0000000000_gh_gf_gg_gd00000000_ha89.89_hb12.1.0.99_hc0.63.60.0.63.60_hd22.1.49.49_ia_if_ib_id_ic_jc_ie_ja31.53.55.55_jb31.53.55.55_jd3.53.53.53_je3.53.53.53_jf_jg_ka13.2F78CA.2F78CA.55.0_kb0.19.19.0_kc_kd_ke_kf_la_lb_oa_os_ob_oc_od_oe_of_lc_m00_n00_s0016.20.20.20.0.100.147.671.690.0.5.0.100.1.61_s018.20.20.20.0.100.166.322.845.1.9.1.100.1.61_og_oh_oo_op_oq_or_om_on_ok_ol_oi_oj_ad0.0.0.0.0.0.0.0.0.0


#Lost Sarong

1-stripped=54**aa38.72.0.16.36.38.72.0.16.36_ab_ac_ba50_bb7.1_bc500.500.8.0.1.10_bd7_be180_ca90.3.30.64.34.65.40.20.0.0.60.80_da2.0.0.100_db_dd9.3.40.50.50.50_dh2.35.67.35.0_di5_qa_qb_dc0.3.2.2.2_eh7.F0D17C.100_ea33.F0D17C.F0D17C.56.1.0_ec15.19.F0D17C.F0D17C.56.35.49.1_ed23.48.1.1.F0D17C.56_ef4.2.53.F0D17C.F0D17C.56.0_eg4.2.53.F0D17C.F0D17C.56.0_r00_fa7.50.70.50.50.65.56_fb_fh3_fc0.18.55.0.18.55.50.61.61.50.50.50_fj0.0.0_fd2.1.55.F0D17C.56_fe50.70_ff0000000000_fg1.70.56.0.0.1.0.0_fi_pa0.0.0.0.40.50.85.85.0.1_t00_pb_pc_pd_pe_ga0_gb1_gc1.0_ge0000000000_gh_gf_gg_gd10000000_ha89.89_hb49.1.44.99_hc0.63.60.0.63.60_hd23.1.49.49_ia_if_ib_id_ic_jc_ie_ja31.53.55.55_jb31.53.55.55_jd3.53.53.53_je3.53.53.53_jf_jg_ka13.2F78CA.2F78CA.55.0_kb0.19.19.0_kc_kd_ke_kf_la_lb_oa_os_ob_oc_od_oe_of_lc_m00_n00_s00_og_oh_oo_op_oq_or_om_on_ok_ol_oi_oj_ad0.0.0.0.0.0.0.0.0.0

1-calm=54**aa38.72.0.16.36.38.72.0.16.36_ab_ac_ba50_bb7.1_bc500.500.8.0.1.10_bd7_be180_ca90.3.30.64.34.65.40.20.0.0.60.80_da2.0.0.100_db_dd9.3.40.50.50.50_dh2.35.67.35.0_di5_qa_qb_dc0.3.2.2.2_eh7.F0D17C.100_ea33.F0D17C.F0D17C.56.1.0_ec15.19.F0D17C.F0D17C.56.35.49.0_ed23.50.1.1.F0D17C.56_ef4.2.57.F0D17C.F0D17C.56.50_eg4.2.57.F0D17C.F0D17C.56.50_r00_fa7.50.70.50.50.65.56_fb_fh3_fc0.18.55.0.18.55.50.61.61.50.50.50_fj0.0.0_fd2.1.55.F0D17C.56_fe50.70_ff0000000000_fg1.70.56.0.0.1.0.0_fi_pa0.0.0.0.40.50.85.85.0.1_t00_pb_pc_pd_pe_ga0_gb1_gc1.0_ge0000000000_gh_gf_gg_gd10000000_ha89.89_hb49.1.44.99_hc0.63.60.0.63.60_hd34.1.49.49_ia_if_ib_id_ic_jc_ie_ja31.53.55.55_jb31.53.55.55_jd3.53.53.53_je3.53.53.53_jf_jg_ka13.2F78CA.2F78CA.55.0_kb0.19.19.0_kc_kd_ke_kf_la_lb_oa_os_ob_oc_od_oe_of_lc_m00_n00_s00_og_oh_oo_op_oq_or_om_on_ok_ol_oi_oj_ad0.0.0.0.0.0.0.0.0.0

1-happy=54**aa38.72.0.16.36.38.72.0.16.36_ab_ac_ba40_bb6.1_bc500.500.8.0.1.10_bd8_be177_ca90.3.30.64.34.65.40.20.0.0.60.80_da2.0.0.100_db_dd9.3.40.50.50.50_dh2.35.67.35.0_di5_qa_qb_dc0.3.2.2.2_eh7.F0D17C.100_ea33.F0D17C.F0D17C.56.1.0_ec15.19.F0D17C.F0D17C.56.35.49.0_ed23.48.1.1.F0D17C.56_ef4.2.53.F0D17C.F0D17C.56.0_eg4.2.53.F0D17C.F0D17C.56.0_r00_fa7.50.70.50.50.65.56_fb_fh3_fc0.18.55.0.18.55.50.61.61.50.50.50_fj0.0.0_fd2.1.55.F0D17C.56_fe50.70_ff0000000000_fg1.70.56.0.0.1.0.0_fi_pa0.0.0.0.40.50.85.85.0.1_t00_pb_pc_pd_pe_ga0_gb1_gc1.0_ge0000000000_gh_gf_gg_gd00000000_ha0.0_hb49.1.44.99_hc0.85.60.0.85.60_hd24.1.49.49_ia_if_ib_id_ic_jc_ie_ja31.53.55.55_jb31.53.55.55_jd3.53.53.53_je3.53.53.53_jf_jg_ka13.2F78CA.2F78CA.55.0_kb0.19.19.0_kc_kd_ke_kf_la_lb_oa_os_ob_oc_od_oe_of_lc_m00_n00_s00_og_oh_oo_op_oq_or_om_on_ok_ol_oi_oj_ad0.0.0.0.0.0.0.0.0.0

1-sad=54**aa7.69.1.8.66.7.69.1.8.66_ab_ac_ba60_bb6.1_bc500.500.8.0.1.10_bd6_be180_ca90.3.30.64.34.65.40.20.0.0.60.80_da2.0.0.100_db_dd9.3.40.50.50.50_dh2.35.67.35.0_di5_qa_qb_dc0.3.2.2.2_eh7.F0D17C.100_ea33.F0D17C.F0D17C.56.1.0_ec15.19.F0D17C.F0D17C.56.35.49.1_ed23.48.1.1.F0D17C.56_ef4.2.53.F0D17C.F0D17C.56.0_eg4.2.53.F0D17C.F0D17C.56.0_r00_fa7.50.70.50.50.65.56_fb_fh3_fc0.18.55.0.18.55.50.61.61.50.50.50_fj0.0.0_fd2.1.55.F0D17C.56_fe50.70_ff0000000000_fg1.70.56.0.0.1.0.0_fi_pa0.0.0.0.40.50.85.85.0.1_t00_pb_pc_pd_pe_ga0_gb1_gc1.0_ge0000000000_gh_gf_gg_gd00000000_ha75.75_hb49.1.44.99_hc3.70.12.3.70.12_hd6.1.100.49_ia_if_ib_id_ic_jc_ie_ja31.53.55.55_jb31.53.55.55_jd3.53.53.53_je3.53.53.53_jf_jg_ka13.2F78CA.2F78CA.55.0_kb0.19.19.0_kc_kd_ke_kf_la_lb_oa_os_ob_oc_od_oe_of_lc_m00_n00_s00_og_oh_oo_op_oq_or_om_on_ok_ol_oi_oj_ad0.0.0.0.0.0.0.0.0.0

1-angry=54**aa38.40.0.16.36.38.72.0.16.36_ab_ac_ba50_bb6.1_bc500.500.8.0.1.10_bd8_be177_ca90.3.30.64.34.65.40.20.0.0.60.80_da2.0.0.100_db_dd9.3.40.50.50.50_dh2.35.67.35.0_di5_qa_qb_dc0.3.2.2.2_eh7.F0D17C.100_ea33.F0D17C.F0D17C.56.1.0_ec15.19.F0D17C.F0D17C.56.35.49.0_ed23.48.1.1.F0D17C.56_ef4.2.53.F0D17C.F0D17C.56.0_eg4.2.53.F0D17C.F0D17C.56.0_r00_fa7.50.70.50.50.65.56_fb_fh3_fc0.18.55.0.18.55.50.61.61.50.50.50_fj0.0.0_fd2.1.55.F0D17C.56_fe50.70_ff0000000000_fg1.70.56.0.0.1.0.0_fi_pa0.0.0.0.40.50.85.85.0.1_t00_pb_pc_pd_pe_ga0_gb1_gc1.0_ge0000000000_gh_gf_gg_gd00000000_ha89.89_hb49.1.44.99_hc1.34.31.1.34.31_hd42.1.49.49_ia_if_ib_id_ic_jc_ie_ja31.53.55.55_jb31.53.55.55_jd3.53.53.53_je3.53.53.53_jf_jg_ka13.2F78CA.2F78CA.55.0_kb0.19.19.0_kc_kd_ke_kf_la_lb_oa_os_ob_oc_od_oe_of_lc_m00_n00_s00_og_oh_oo_op_oq_or_om_on_ok_ol_oi_oj_ad0.0.0.0.0.0.0.0.0.0

1-shocked=54**aa26.43.0.8.36.26.43.0.8.36_ab_ac_ba50_bb7.1_bc500.500.8.0.1.10_bd7_be180_ca90.3.30.64.34.65.40.20.0.0.60.80_da2.0.0.100_db_dd9.3.40.50.50.50_dh2.35.67.35.0_di5_qa_qb_dc0.3.2.2.2_eh7.F0D17C.100_ea33.F0D17C.F0D17C.56.1.0_ec15.19.F0D17C.F0D17C.56.35.49.1_ed23.48.1.1.F0D17C.56_ef4.2.53.F0D17C.F0D17C.56.0_eg4.2.53.F0D17C.F0D17C.56.0_r00_fa7.50.70.50.50.65.56_fb_fh3_fc0.18.55.0.18.55.50.61.61.50.50.50_fj0.0.0_fd2.1.55.F0D17C.56_fe50.70_ff0000000000_fg1.70.56.0.0.1.0.0_fi_pa0.0.0.0.40.50.85.85.0.1_t00_pb_pc_pd_pe_ga0_gb1_gc1.0_ge0000000000_gh_gf_gg_gd10000000_ha95.95_hb49.1.44.50_hc0.63.100.0.63.100_hd36.1.49.49_ia_if_ib_id_ic_jc_ie_ja31.53.55.55_jb31.53.55.55_jd3.53.53.53_je3.53.53.53_jf_jg_ka13.2F78CA.2F78CA.55.0_kb0.19.19.0_kc_kd_ke_kf_la_lb_oa_os_ob_oc_od_oe_of_lc_m00_n00_s00_og_oh_oo_op_oq_or_om_on_ok_ol_oi_oj_ad0.0.0.0.0.0.0.0.0.0

1-interested=54**aa26.43.0.8.36.26.43.0.8.36_ab_ac_ba50_bb7.1_bc500.500.8.0.1.10_bd7_be180_ca90.3.30.64.34.65.40.20.0.0.60.80_da2.0.0.100_db_dd9.3.40.50.50.50_dh2.35.67.35.0_di5_qa_qb_dc0.3.2.2.2_eh7.F0D17C.100_ea33.F0D17C.F0D17C.56.1.0_ec15.19.F0D17C.F0D17C.56.35.49.1_ed23.48.1.1.F0D17C.56_ef4.2.53.F0D17C.F0D17C.56.0_eg4.2.53.F0D17C.F0D17C.56.0_r00_fa7.50.70.50.50.65.56_fb_fh3_fc0.18.55.0.18.55.50.61.61.50.50.50_fj0.0.0_fd2.1.55.F0D17C.56_fe50.70_ff0000000000_fg1.70.56.0.0.1.0.0_fi_pa0.0.0.0.40.50.85.85.0.1_t00_pb_pc_pd_pe_ga0_gb1_gc1.0_ge0000000000_gh_gf_gg_gd10000000_ha95.95_hb49.1.44.50_hc0.63.100.0.63.100_hd36.1.49.49_ia_if_ib_id_ic_jc_ie_ja31.53.55.55_jb31.53.55.55_jd3.53.53.53_je3.53.53.53_jf_jg_ka13.2F78CA.2F78CA.55.0_kb0.19.19.0_kc_kd_ke_kf_la_lb_oa_os_ob_oc_od_oe_of_lc_m00_n00_s00_og_oh_oo_op_oq_or_om_on_ok_ol_oi_oj_ad0.0.0.0.0.0.0.0.0.0

1-embarrassed=54**aa7.69.1.8.66.7.69.1.8.66_ab_ac_ba50_bb44.1_bc500.500.8.0.1.10_bd44_be180_ca90.3.30.64.34.65.40.20.0.0.60.80_da2.0.0.100_db_dd10.3.40.50.50.50_dh2.35.67.35.0_di5_qa_qb_dc0.3.2.2.2_eh7.F0D17C.100_ea33.F0D17C.F0D17C.56.1.0_ec15.19.F0D17C.F0D17C.56.35.49.1_ed23.48.1.1.F0D17C.56_ef4.2.53.F0D17C.F0D17C.56.0_eg4.2.53.F0D17C.F0D17C.56.0_r00_fa7.50.70.50.50.65.56_fb_fh3_fc0.18.55.0.18.55.50.61.61.50.50.50_fj0.0.0_fd2.1.55.F0D17C.56_fe50.70_ff0000000000_fg1.70.56.0.0.1.0.0_fi_pa0.0.0.0.40.50.85.85.0.1_t00_pb_pc_pd_pe_ga0_gb1_gc15.0_ge0000000000_gh_gf_gg_gd10000000_ha80.80_hb0.1.44.50_hc3.85.27.3.85.27_hd8.0.49.49_ia_if_ib_id_ic_jc_ie_ja31.53.55.55_jb31.53.55.55_jd3.53.53.53_je3.53.53.53_jf_jg_ka13.2F78CA.2F78CA.55.0_kb0.19.19.0_kc_kd_ke_kf_la_lb_oa_os_ob_oc_od_oe_of_lc_m00_n00_s00_og_oh_oo_op_oq_or_om_on_ok_ol_oi_oj_ad0.0.0.0.0.0.0.0.0.0

1-stripping=54**aa12.98.1.16.36.10.92.1.16.36_ab_ac_ba50_bb91.1_bc500.500.8.0.1.10_bd52_be180_ca90.3.30.64.34.65.40.20.0.0.60.80_da2.0.0.100_db_dd9.3.40.50.50.50_dh2.35.67.35.0_di5_qa_qb_dc0.3.2.2.2_eh7.F0D17C.100_ea33.F0D17C.F0D17C.56.1.0_ec15.19.F0D17C.F0D17C.56.35.49.1_ed23.48.1.1.F0D17C.56_ef4.2.53.F0D17C.F0D17C.56.0_eg4.2.53.F0D17C.F0D17C.56.0_r00_fa7.50.70.50.50.65.56_fb_fh3_fc0.18.55.0.18.55.50.61.61.50.50.50_fj0.0.0_fd2.1.55.F0D17C.56_fe50.70_ff0000000000_fg1.70.56.0.0.1.0.0_fi_pa0.0.0.0.40.50.85.85.0.1_t00_pb_pc_pd_pe_ga0_gb1_gc1.0_ge0000000000_gh_gf_gg_gd10000000_ha89.89_hb49.1.0.99_hc0.63.60.0.63.60_hd22.1.49.49_ia_if_ib_id_ic_jc_ie_ja31.53.55.55_jb31.53.55.55_jd3.53.53.53_je3.53.53.53_jf_jg_ka13.2F78CA.2F78CA.55.0_kb0.19.19.0_kc_kd_ke_kf_la_lb_oa_os_ob_oc_od_oe_of_lc_m00_n00_s00_og_oh_oo_op_oq_or_om_on_ok_ol_oi_oj_ad0.0.0.0.0.0.0.0.0.0


#Lost Sandals

2-stripped=54**aa9.98.0.16.36.9.98.0.16.36_ab_ac_ba50_bb6.1_bc500.500.8.0.1.10_bd6_be180_ca90.3.30.64.34.65.40.20.0.0.60.80_da2.0.0.100_db_dd9.3.40.50.50.50_dh2.35.67.35.0_di5_qa_qb_dc0.3.2.2.2_eh7.F0D17C.100_ea33.F0D17C.F0D17C.56.1.0_ec15.19.F0D17C.F0D17C.56.35.49.1_ed23.48.1.1.F0D17C.56_ef4.2.53.F0D17C.F0D17C.56.0_eg4.2.53.F0D17C.F0D17C.56.0_r00_fa7.50.70.50.50.65.56_fb_fh3_fc0.18.55.0.18.55.50.61.61.50.50.50_fj0.0.0_fd2.1.55.F0D17C.56_fe50.70_ff0000000000_fg1.70.56.0.0.1.0.0_fi_pa0.0.0.0.40.50.85.85.0.1_t00_pb_pc_pd_pe_ga0_gb1_gc1.0_ge0000000000_gh_gf_gg_gd10000000_ha89.89_hb49.1.0.99_hc1.81.10.1.81.10_hd22.1.49.49_ia_if_ib_id_ic_jc_ie_ja_jb_jd_je_jf_jg_ka13.2F78CA.2F78CA.55.0_kb0.19.19.0_kc_kd_ke_kf_la_lb_oa_os_ob_oc_od_oe_of_lc_m00_n00_s00_og_oh_oo_op_oq_or_om_on_ok_ol_oi_oj_ad0.0.0.0.0.0.0.0.0.0

2-calm=54**aa38.72.0.16.36.38.72.0.16.36_ab_ac_ba50_bb7.1_bc500.500.8.0.1.10_bd7_be180_ca90.3.30.64.34.65.40.20.0.0.60.80_da2.0.0.100_db_dd9.3.40.50.50.50_dh2.35.67.35.0_di5_qa_qb_dc0.3.2.2.2_eh7.F0D17C.100_ea33.F0D17C.F0D17C.56.1.0_ec15.19.F0D17C.F0D17C.56.35.49.1_ed23.48.1.1.F0D17C.56_ef4.2.53.F0D17C.F0D17C.56.0_eg4.2.53.F0D17C.F0D17C.56.0_r00_fa7.50.70.50.50.65.56_fb_fh3_fc0.18.55.0.18.55.50.61.61.50.50.50_fj0.0.0_fd2.1.55.F0D17C.56_fe50.70_ff0000000000_fg1.70.56.0.0.1.0.0_fi_pa0.0.0.0.40.50.85.85.0.1_t00_pb_pc_pd_pe_ga0_gb1_gc1.0_ge0000000000_gh_gf_gg_gd10000000_ha89.89_hb49.1.44.99_hc0.63.60.0.63.60_hd34.1.49.49_ia_if_ib_id_ic_jc_ie_ja_jb_jd_je_jf_jg_ka13.2F78CA.2F78CA.55.0_kb0.19.19.0_kc_kd_ke_kf_la_lb_oa_os_ob_oc_od_oe_of_lc_m00_n00_s00_og_oh_oo_op_oq_or_om_on_ok_ol_oi_oj_ad0.0.0.0.0.0.0.0.0.0

2-happy=54**aa38.72.0.16.36.38.72.0.16.36_ab_ac_ba40_bb6.1_bc500.500.8.0.1.10_bd8_be177_ca90.3.30.64.34.65.40.20.0.0.60.80_da2.0.0.100_db_dd9.3.40.50.50.50_dh2.35.67.35.0_di5_qa_qb_dc0.3.2.2.2_eh7.F0D17C.100_ea33.F0D17C.F0D17C.56.1.0_ec15.19.F0D17C.F0D17C.56.35.49.0_ed23.48.1.1.F0D17C.56_ef4.2.53.F0D17C.F0D17C.56.0_eg4.2.53.F0D17C.F0D17C.56.0_r00_fa7.50.70.50.50.65.56_fb_fh3_fc0.18.55.0.18.55.50.61.61.50.50.50_fj0.0.0_fd2.1.55.F0D17C.56_fe50.70_ff0000000000_fg1.70.56.0.0.1.0.0_fi_pa0.0.0.0.40.50.85.85.0.1_t00_pb_pc_pd_pe_ga0_gb1_gc1.0_ge0000000000_gh_gf_gg_gd00000000_ha0.0_hb49.1.44.99_hc0.85.60.0.85.60_hd24.1.49.49_ia_if_ib_id_ic_jc_ie_ja_jb_jd_je_jf_jg_ka13.2F78CA.2F78CA.55.0_kb0.19.19.0_kc_kd_ke_kf_la_lb_oa_os_ob_oc_od_oe_of_lc_m00_n00_s00_og_oh_oo_op_oq_or_om_on_ok_ol_oi_oj_ad0.0.0.0.0.0.0.0.0.0

2-sad=54**aa7.69.1.8.66.7.69.1.8.66_ab_ac_ba60_bb6.1_bc500.500.8.0.1.10_bd6_be180_ca90.3.30.64.34.65.40.20.0.0.60.80_da2.0.0.100_db_dd9.3.40.50.50.50_dh2.35.67.35.0_di5_qa_qb_dc0.3.2.2.2_eh7.F0D17C.100_ea33.F0D17C.F0D17C.56.1.0_ec15.19.F0D17C.F0D17C.56.35.49.1_ed23.48.1.1.F0D17C.56_ef4.2.53.F0D17C.F0D17C.56.0_eg4.2.53.F0D17C.F0D17C.56.0_r00_fa7.50.70.50.50.65.56_fb_fh3_fc0.18.55.0.18.55.50.61.61.50.50.50_fj0.0.0_fd2.1.55.F0D17C.56_fe50.70_ff0000000000_fg1.70.56.0.0.1.0.0_fi_pa0.0.0.0.40.50.85.85.0.1_t00_pb_pc_pd_pe_ga0_gb1_gc1.0_ge0000000000_gh_gf_gg_gd00000000_ha75.75_hb49.1.44.99_hc3.70.12.3.70.12_hd6.1.100.49_ia_if_ib_id_ic_jc_ie_ja_jb_jd_je_jf_jg_ka13.2F78CA.2F78CA.55.0_kb0.19.19.0_kc_kd_ke_kf_la_lb_oa_os_ob_oc_od_oe_of_lc_m00_n00_s00_og_oh_oo_op_oq_or_om_on_ok_ol_oi_oj_ad0.0.0.0.0.0.0.0.0.0

2-angry=54**aa38.40.0.16.36.38.72.0.16.36_ab_ac_ba50_bb6.1_bc500.500.8.0.1.10_bd8_be177_ca90.3.30.64.34.65.40.20.0.0.60.80_da2.0.0.100_db_dd9.3.40.50.50.50_dh2.35.67.35.0_di5_qa_qb_dc0.3.2.2.2_eh7.F0D17C.100_ea33.F0D17C.F0D17C.56.1.0_ec15.19.F0D17C.F0D17C.56.35.49.1_ed23.48.1.1.F0D17C.56_ef4.2.53.F0D17C.F0D17C.56.0_eg4.2.53.F0D17C.F0D17C.56.0_r00_fa7.50.70.50.50.65.56_fb_fh3_fc0.18.55.0.18.55.50.61.61.50.50.50_fj0.0.0_fd2.1.55.F0D17C.56_fe50.70_ff0000000000_fg1.70.56.0.0.1.0.0_fi_pa0.0.0.0.40.50.85.85.0.1_t00_pb_pc_pd_pe_ga0_gb1_gc1.0_ge0000000000_gh_gf_gg_gd00000000_ha89.89_hb49.1.44.99_hc1.34.31.1.34.31_hd42.1.49.49_ia_if_ib_id_ic_jc_ie_ja_jb_jd_je_jf_jg_ka13.2F78CA.2F78CA.55.0_kb0.19.19.0_kc_kd_ke_kf_la_lb_oa_os_ob_oc_od_oe_of_lc_m00_n00_s00_og_oh_oo_op_oq_or_om_on_ok_ol_oi_oj_ad0.0.0.0.0.0.0.0.0.0

2-shocked=54**aa26.43.0.8.36.26.43.0.8.36_ab_ac_ba50_bb7.1_bc500.500.8.0.1.10_bd7_be180_ca90.3.30.64.34.65.40.20.0.0.60.80_da2.0.0.100_db_dd9.3.40.50.50.50_dh2.35.67.35.0_di5_qa_qb_dc0.3.2.2.2_eh7.F0D17C.100_ea33.F0D17C.F0D17C.56.1.0_ec15.19.F0D17C.F0D17C.56.35.49.1_ed23.48.1.1.F0D17C.56_ef4.2.53.F0D17C.F0D17C.56.0_eg4.2.53.F0D17C.F0D17C.56.0_r00_fa7.50.70.50.50.65.56_fb_fh3_fc0.18.55.0.18.55.50.61.61.50.50.50_fj0.0.0_fd2.1.55.F0D17C.56_fe50.70_ff0000000000_fg1.70.56.0.0.1.0.0_fi_pa0.0.0.0.40.50.85.85.0.1_t00_pb_pc_pd_pe_ga0_gb1_gc1.0_ge0000000000_gh_gf_gg_gd10000000_ha95.95_hb49.1.44.50_hc0.63.100.0.63.100_hd36.1.49.49_ia_if_ib_id_ic_jc_ie_ja_jb_jd_je_jf_jg_ka13.2F78CA.2F78CA.55.0_kb0.19.19.0_kc_kd_ke_kf_la_lb_oa_os_ob_oc_od_oe_of_lc_m00_n00_s00_og_oh_oo_op_oq_or_om_on_ok_ol_oi_oj_ad0.0.0.0.0.0.0.0.0.0

2-interested=54**aa12.57.1.16.36.38.72.0.16.36_ab_ac_ba50_bb7.1_bc500.500.8.0.1.10_bd7_be180_ca90.3.30.64.34.65.40.20.0.0.60.80_da2.0.0.100_db_dd9.3.40.50.50.50_dh2.35.67.35.0_di5_qa_qb_dc0.3.2.2.2_eh7.F0D17C.100_ea33.F0D17C.F0D17C.56.1.0_ec15.19.F0D17C.F0D17C.56.35.49.1_ed23.48.1.1.F0D17C.56_ef4.2.53.F0D17C.F0D17C.56.0_eg4.2.53.F0D17C.F0D17C.56.0_r00_fa7.50.70.50.50.65.56_fb_fh3_fc0.18.55.0.18.55.50.61.61.50.50.50_fj0.0.0_fd2.1.55.F0D17C.56_fe50.70_ff0000000000_fg1.70.56.0.0.1.0.0_fi_pa0.0.0.0.40.50.85.85.0.1_t00_pb_pc_pd_pe_ga0_gb1_gc1.0_ge0000000000_gh_gf_gg_gd10000000_ha89.89_hb49.1.44.99_hc1.58.12.1.94.70_hd22.0.49.49_ia_if_ib_id_ic_jc_ie_ja_jb_jd_je_jf_jg_ka13.2F78CA.2F78CA.55.0_kb0.19.19.0_kc_kd_ke_kf_la_lb_oa_os_ob_oc_od_oe_of_lc_m00_n00_s00_og_oh_oo_op_oq_or_om_on_ok_ol_oi_oj_ad0.0.0.0.0.0.0.0.0.0

2-embarrassed=54**aa7.69.1.8.66.7.69.1.8.66_ab_ac_ba50_bb44.1_bc500.500.8.0.1.10_bd44_be180_ca90.3.30.64.34.65.40.20.0.0.60.80_da2.0.0.100_db_dd10.3.40.50.50.50_dh2.35.67.35.0_di5_qa_qb_dc0.3.2.2.2_eh7.F0D17C.100_ea33.F0D17C.F0D17C.56.1.0_ec15.19.F0D17C.F0D17C.56.35.49.1_ed23.48.1.1.F0D17C.56_ef4.2.53.F0D17C.F0D17C.56.0_eg4.2.53.F0D17C.F0D17C.56.0_r00_fa7.50.70.50.50.65.56_fb_fh3_fc0.18.55.0.18.55.50.61.61.50.50.50_fj0.0.0_fd2.1.55.F0D17C.56_fe50.70_ff0000000000_fg1.70.56.0.0.1.0.0_fi_pa0.0.0.0.40.50.85.85.0.1_t00_pb_pc_pd_pe_ga0_gb1_gc15.0_ge0000000000_gh_gf_gg_gd10000000_ha80.80_hb0.1.44.50_hc3.85.27.3.85.27_hd8.0.49.49_ia_if_ib_id_ic_jc_ie_ja_jb_jd_je_jf_jg_ka13.2F78CA.2F78CA.55.0_kb0.19.19.0_kc_kd_ke_kf_la_lb_oa_os_ob_oc_od_oe_of_lc_m00_n00_s00_og_oh_oo_op_oq_or_om_on_ok_ol_oi_oj_ad0.0.0.0.0.0.0.0.0.0

2-stalling=54**aa44.43.0.41.61.38.72.0.16.36_ab_ac_ba50_bb7.1_bc500.500.8.0.1.10_bd7_be180_ca90.3.30.64.34.65.40.20.0.0.60.80_da2.0.0.100_db_dd9.3.40.50.50.50_dh2.35.67.35.0_di5_qa_qb_dc0.3.2.2.2_eh7.F0D17C.100_ea33.F0D17C.F0D17C.56.1.0_ec15.19.F0D17C.F0D17C.56.35.49.1_ed23.48.1.1.F0D17C.56_ef4.2.53.F0D17C.F0D17C.56.0_eg4.2.53.F0D17C.F0D17C.56.0_r00_fa7.50.70.50.50.65.56_fb_fh3_fc0.18.55.0.18.55.50.61.61.50.50.50_fj0.0.0_fd2.1.55.F0D17C.56_fe50.70_ff0000000000_fg1.70.56.0.0.1.0.0_fi_pa0.0.0.0.40.50.85.85.0.1_t00_pb_pc_pd_pe_ga0_gb1_gc0.0_ge0000000000_gh_gf_gg_gd10000000_ha95.95_hb0.1.76.50_hc0.64.53.0.74.93_hd36.1.49.49_ia_if_ib_id_ic_jc_ie_ja_jb_jd_je_jf_jg_ka13.2F78CA.2F78CA.55.0_kb0.19.19.0_kc_kd_ke_kf_la_lb_oa_os_ob_oc_od_oe_of_lc_m00_n00_s00_og_oh_oo_op_oq_or_om_on_ok_ol_oi_oj_ad0.0.0.0.0.0.0.0.0.0

2-stripping=54**aa39.63.1.16.85.39.63.1.16.85_ab_ac_ba50_bb6.1_bc410.500.8.0.1.0_bd6_be180_ca90.3.30.64.34.65.40.20.0.0.60.80_da2.0.0.100_db_dd13.3.40.50.50.50_dh2.35.67.35.0_di5_qa_qb_dc0.3.2.2.2_eh7.F0D17C.100_ea33.F0D17C.F0D17C.56.1.0_ec15.19.F0D17C.F0D17C.56.35.49.1_ed23.48.1.1.F0D17C.56_ef4.2.53.F0D17C.F0D17C.56.0_eg4.2.53.F0D17C.F0D17C.56.0_r00_fa7.50.70.50.50.65.56_fb_fh3_fc0.18.55.0.18.55.50.61.61.50.50.50_fj0.0.0_fd2.1.55.F0D17C.56_fe50.70_ff0000000000_fg1.70.56.0.0.1.0.0_fi_pa0.0.0.0.40.50.85.85.0.0_t00_pb_pc_pd_pe_ga0_gb1_gc45.0_ge0000000000_gh_gf_gg_gd00000000_ha75.75_hb49.1.0.99_hc4.77.0.4.77.0_hd38.0.49.49_ia_if_ib_id_ic_jc_ie_ja_jb_jd_je_jf_jg_ka13.2F78CA.2F78CA.55.0_kb0.19.19.56_kc_kd_ke_kf_la_lb_oa_os_ob_oc_od_oe_of_lc_m00_n00_s00_og_oh_oo_op_oq_or_om_on_ok_ol_oi_oj_ad0.0.0.0.0.0.0.0.0.0


#Lost Top

3-stripped=54**aa13.68.1.28.35.13.68.1.28.35_ab_ac_ba50_bb43.1_bc500.500.8.0.1.10_bd43_be180_ca90.3.30.64.34.65.40.20.0.0.60.80_da2.0.0.100_db_dd13.3.40.50.50.50_dh2.35.67.35.0_di5_qa_qb_dc0.3.2.2.2_eh7.F0D17C.100_ea33.F0D17C.F0D17C.56.1.0_ec15.19.F0D17C.F0D17C.56.35.49.1_ed23.48.1.1.F0D17C.56_ef4.2.53.F0D17C.F0D17C.56.0_eg4.2.53.F0D17C.F0D17C.56.0_r00_fa7.50.70.50.50.65.56_fb_fh3_fc0.18.55.0.18.55.50.61.61.50.50.50_fj0.0.0_fd2.1.55.F0D17C.56_fe50.70_ff0000000000_fg1.70.56.0.0.1.0.0_fi_pa0.0.0.0.40.50.85.85.0.1_t00_pb_pc_pd_pe_ga0_gb1_gc45.0_ge0000000000_gh_gf_gg_gd10000000_ha75.75_hb0.1.0.99_hc2.80.0.2.80.0_hd38.1.49.49_ia_if_ib_id_ic_jc_ie_ja_jb_jd_je_jf_jg_ka_kb0.19.19.0_kc_kd_ke_kf_la_lb_oa_os_ob_oc_od_oe_of_lc_m00_n00_s00_og_oh_oo_op_oq_or_om_on_ok_ol_oi_oj_ad0.0.0.0.0.0.0.0.0.0

3-calm=54**aa13.68.1.28.35.13.68.1.28.35_ab_ac_ba50_bb7.1_bc500.500.8.0.1.10_bd7_be180_ca90.3.30.64.34.65.40.20.0.0.60.80_da2.0.0.100_db_dd13.3.40.50.50.50_dh2.35.67.35.0_di5_qa_qb_dc0.3.2.2.2_eh7.F0D17C.100_ea33.F0D17C.F0D17C.56.1.0_ec15.19.F0D17C.F0D17C.56.35.49.1_ed23.48.1.1.F0D17C.56_ef4.2.53.F0D17C.F0D17C.56.0_eg4.2.53.F0D17C.F0D17C.56.0_r00_fa7.50.70.50.50.65.56_fb_fh3_fc0.18.55.0.18.55.50.61.61.50.50.50_fj0.0.0_fd2.1.55.F0D17C.56_fe50.70_ff0000000000_fg1.70.56.0.0.1.0.0_fi_pa0.0.0.0.40.50.85.85.0.1_t00_pb_pc_pd_pe_ga0_gb1_gc45.0_ge0000000000_gh_gf_gg_gd10000000_ha89.89_hb49.1.44.99_hc2.80.0.2.80.0_hd8.1.49.49_ia_if_ib_id_ic_jc_ie_ja_jb_jd_je_jf_jg_ka_kb0.19.19.0_kc_kd_ke_kf_la_lb_oa_os_ob_oc_od_oe_of_lc_m00_n00_s00_og_oh_oo_op_oq_or_om_on_ok_ol_oi_oj_ad0.0.0.0.0.0.0.0.0.0

3-happy=54**aa13.68.1.28.35.13.68.1.28.35_ab_ac_ba50_bb7.1_bc500.500.8.0.1.10_bd7_be180_ca90.3.30.64.34.65.40.20.0.0.60.80_da2.0.0.100_db_dd13.3.40.50.50.50_dh2.35.67.35.0_di5_qa_qb_dc0.3.2.2.2_eh7.F0D17C.100_ea33.F0D17C.F0D17C.56.1.0_ec15.19.F0D17C.F0D17C.56.35.49.1_ed23.48.1.1.F0D17C.56_ef4.2.53.F0D17C.F0D17C.56.0_eg4.2.53.F0D17C.F0D17C.56.0_r00_fa7.50.70.50.50.65.56_fb_fh3_fc0.18.55.0.18.55.50.61.61.50.50.50_fj0.0.0_fd2.1.55.F0D17C.56_fe50.70_ff0000000000_fg1.70.56.0.0.1.0.0_fi_pa0.0.0.0.40.50.85.85.0.1_t00_pb_pc_pd_pe_ga0_gb1_gc45.0_ge0000000000_gh_gf_gg_gd10000000_ha89.89_hb49.1.44.99_hc4.78.30.4.78.30_hd1.1.49.49_ia_if_ib_id_ic_jc_ie_ja_jb_jd_je_jf_jg_ka_kb0.19.19.0_kc_kd_ke_kf_la_lb_oa_os_ob_oc_od_oe_of_lc_m00_n00_s00_og_oh_oo_op_oq_or_om_on_ok_ol_oi_oj_ad0.0.0.0.0.0.0.0.0.0

3-sad=54**aa13.68.1.28.35.13.68.1.28.35_ab_ac_ba50_bb7.1_bc500.500.8.0.1.10_bd7_be180_ca90.3.30.64.34.65.40.20.0.0.60.80_da2.0.0.100_db_dd13.3.40.50.50.50_dh2.35.67.35.0_di5_qa_qb_dc0.3.2.2.2_eh7.F0D17C.100_ea33.F0D17C.F0D17C.56.1.0_ec15.19.F0D17C.F0D17C.56.35.49.1_ed23.48.1.1.F0D17C.56_ef4.2.53.F0D17C.F0D17C.56.0_eg4.2.53.F0D17C.F0D17C.56.0_r00_fa7.50.70.50.50.65.56_fb_fh3_fc0.18.55.0.18.55.50.61.61.50.50.50_fj0.0.0_fd2.1.55.F0D17C.56_fe50.70_ff0000000000_fg1.70.56.0.0.1.0.0_fi_pa0.0.0.0.40.50.85.85.0.1_t00_pb_pc_pd_pe_ga0_gb1_gc45.0_ge0000000000_gh_gf_gg_gd00000000_ha40.40_hb49.1.44.99_hc4.80.0.4.80.0_hd8.1.49.49_ia_if_ib_id_ic_jc_ie_ja_jb_jd_je_jf_jg_ka_kb0.19.19.0_kc_kd_ke_kf_la_lb_oa_os_ob_oc_od_oe_of_lc_m00_n00_s00_og_oh_oo_op_oq_or_om_on_ok_ol_oi_oj_ad0.0.0.0.0.0.0.0.0.0

3-angry=54**aa13.68.1.28.35.13.68.1.28.35_ab_ac_ba50_bb7.1_bc500.500.8.0.1.10_bd7_be180_ca90.3.30.64.34.65.40.20.0.0.60.80_da2.0.0.100_db_dd13.3.40.50.50.50_dh2.35.67.35.0_di5_qa_qb_dc0.3.2.2.2_eh7.F0D17C.100_ea33.F0D17C.F0D17C.56.1.0_ec15.19.F0D17C.F0D17C.56.35.49.1_ed23.48.1.1.F0D17C.56_ef4.2.53.F0D17C.F0D17C.56.0_eg4.2.53.F0D17C.F0D17C.56.0_r00_fa7.50.70.50.50.65.56_fb_fh3_fc0.18.55.0.18.55.50.61.61.50.50.50_fj0.0.0_fd2.1.55.F0D17C.56_fe50.70_ff0000000000_fg1.70.56.0.0.1.0.0_fi_pa0.0.0.0.40.50.85.85.0.1_t00_pb_pc_pd_pe_ga0_gb1_gc45.0_ge0000000000_gh_gf_gg_gd00000000_ha89.89_hb49.1.44.99_hc4.34.31.4.34.31_hd42.1.49.49_ia_if_ib_id_ic_jc_ie_ja_jb_jd_je_jf_jg_ka_kb0.19.19.0_kc_kd_ke_kf_la_lb_oa_os_ob_oc_od_oe_of_lc_m00_n00_s00_og_oh_oo_op_oq_or_om_on_ok_ol_oi_oj_ad0.0.0.0.0.0.0.0.0.0

3-shocked=54**aa26.43.0.8.36.26.43.0.8.36_ab_ac_ba50_bb7.1_bc500.500.8.0.1.10_bd7_be180_ca90.3.30.64.34.65.40.20.0.0.60.80_da2.0.0.100_db_dd13.3.40.50.50.50_dh2.35.67.35.0_di5_qa_qb_dc0.3.2.2.2_eh7.F0D17C.100_ea33.F0D17C.F0D17C.56.1.0_ec15.19.F0D17C.F0D17C.56.35.49.1_ed23.48.1.1.F0D17C.56_ef4.2.53.F0D17C.F0D17C.56.0_eg4.2.53.F0D17C.F0D17C.56.0_r00_fa7.50.70.50.50.65.56_fb_fh3_fc0.18.55.0.18.55.50.61.61.50.50.50_fj0.0.0_fd2.1.55.F0D17C.56_fe50.70_ff0000000000_fg1.70.56.0.0.1.0.0_fi_pa0.0.0.0.40.50.85.85.0.1_t00_pb_pc_pd_pe_ga0_gb1_gc45.0_ge0000000000_gh_gf_gg_gd10000000_ha95.95_hb49.1.44.50_hc1.91.100.1.91.100_hd36.1.49.49_ia_if_ib_id_ic_jc_ie_ja_jb_jd_je_jf_jg_ka_kb0.19.19.0_kc_kd_ke_kf_la_lb_oa_os_ob_oc_od_oe_of_lc_m00_n00_s00_og_oh_oo_op_oq_or_om_on_ok_ol_oi_oj_ad0.0.0.0.0.0.0.0.0.0

3-interested=54**aa13.68.1.28.35.13.68.1.28.35_ab_ac_ba50_bb7.1_bc500.500.8.0.1.10_bd7_be180_ca90.3.30.64.34.65.40.20.0.0.60.80_da2.0.0.100_db_dd13.3.40.50.50.50_dh2.35.67.35.0_di5_qa_qb_dc0.3.2.2.2_eh7.F0D17C.100_ea33.F0D17C.F0D17C.56.1.0_ec15.19.F0D17C.F0D17C.56.35.49.1_ed23.48.1.1.F0D17C.56_ef4.2.53.F0D17C.F0D17C.56.0_eg4.2.53.F0D17C.F0D17C.56.0_r00_fa7.50.70.50.50.65.56_fb_fh3_fc0.18.55.0.18.55.50.61.61.50.50.50_fj0.0.0_fd2.1.55.F0D17C.56_fe50.70_ff0000000000_fg1.70.56.0.0.1.0.0_fi_pa0.0.0.0.40.50.85.85.0.1_t00_pb_pc_pd_pe_ga0_gb1_gc45.0_ge0000000000_gh_gf_gg_gd10000000_ha89.89_hb49.1.44.99_hc1.58.12.1.94.70_hd22.0.49.49_ia_if_ib_id_ic_jc_ie_ja_jb_jd_je_jf_jg_ka_kb0.19.19.0_kc_kd_ke_kf_la_lb_oa_os_ob_oc_od_oe_of_lc_m00_n00_s00_og_oh_oo_op_oq_or_om_on_ok_ol_oi_oj_ad0.0.0.0.0.0.0.0.0.0

3-embarrassed=54**aa13.68.1.28.35.13.68.1.28.35_ab_ac_ba50_bb7.1_bc500.500.8.0.1.10_bd7_be180_ca90.3.30.64.34.65.40.20.0.0.60.80_da2.0.0.100_db_dd14.3.40.50.50.50_dh2.35.67.35.0_di5_qa_qb_dc0.3.2.2.2_eh7.F0D17C.100_ea33.F0D17C.F0D17C.56.1.0_ec15.19.F0D17C.F0D17C.56.35.49.1_ed23.48.1.1.F0D17C.56_ef4.2.53.F0D17C.F0D17C.56.0_eg4.2.53.F0D17C.F0D17C.56.0_r00_fa7.50.70.50.50.65.56_fb_fh3_fc0.18.55.0.18.55.50.61.61.50.50.50_fj0.0.0_fd2.1.55.F0D17C.56_fe50.70_ff0000000000_fg1.70.56.0.0.1.0.0_fi_pa0.0.0.0.40.50.85.85.0.1_t00_pb_pc_pd_pe_ga0_gb1_gc60.0_ge0000000000_gh_gf_gg_gd10000000_ha20.20_hb49.1.44.99_hc4.77.0.4.77.0_hd22.0.49.49_ia_if_ib_id_ic_jc_ie_ja_jb_jd_je_jf_jg_ka_kb0.19.19.0_kc_kd_ke_kf_la_lb_oa_os_ob_oc_od_oe_of_lc_m00_n00_s00_og_oh_oo_op_oq_or_om_on_ok_ol_oi_oj_ad0.0.0.0.0.0.0.0.0.0

3-stripping=54**aa25.83.1.16.35.25.83.1.16.35_ab_ac_ba50_bb43.1_bc500.500.8.0.1.10_bd43_be180_ca90.3.30.64.34.65.40.20.0.0.60.80_da2.0.0.100_db_dd14.3.40.50.50.50_dh2.35.67.35.0_di5_qa_qb_dc0.3.2.2.2_eh7.F0D17C.100_ea33.F0D17C.F0D17C.56.1.0_ec15.19.F0D17C.F0D17C.56.35.49.1_ed23.48.1.1.F0D17C.56_ef4.2.53.F0D17C.F0D17C.56.0_eg4.2.53.F0D17C.F0D17C.56.0_r00_fa7.50.70.50.50.65.56_fb_fh3_fc0.18.55.0.18.55.50.61.61.50.50.50_fj0.0.0_fd2.1.55.F0D17C.56_fe50.70_ff0000000000_fg1.70.56.0.0.1.0.0_fi_pa0.0.0.0.40.50.85.85.0.1_t00_pb_pc_pd_pe_ga0_gb1_gc60.0_ge0000000000_gh_gf_gg_gd10000000_ha20.20_hb49.1.44.99_hc4.93.0.4.93.0_hd8.0.49.49_ia_if_ib_id_ic_jc_ie_ja_jb_jd_je_jf_jg_ka_kb0.19.19.0_kc_kd_ke_kf_la_lb_oa_os_ob_oc_od_oe_of_lc_m00_n00_s00_og_oh_oo_op_oq_or_om_on_ok_ol_oi_oj_ad0.0.0.0.0.0.0.0.0.0


#Naked

4-stripped=54**aa13.68.1.28.35.11.88.1.28.36_ab_ac_ba50_bb7.1_bc500.500.8.0.1_bd7_be180_ca90.3.30.64.34.65.40.20.0_cb0_da2.0.0.100_db_dd14.3.40.50.50.50_dh2.35.67.35.0_di5_qa_qb_dc0.3.2.2.2_eh7.F0D17C_ea33.F0D17C.F0D17C.56.1.0_ec15.19.F0D17C.F0D17C.56.35.49.0_ed23.50.1.1.F0D17C.56_ef4.2.57.F0D17C.F0D17C.56_eg4.2.57.F0D17C.F0D17C.56_r00_fa7.50.70.50.50.65.56_fb_fh3_fc0.18.55.0.18.55.50.61.61.50.50.50_fd2.1.55.F0D17C.56_fe50.70_ff0000000000_fg1.70_pa0.0.0.0.40.50.85.85.0.0_t00_pb_pc_pd_pe_ga0_gb1_gc60.0_ge0000000000_gh_gf_gg_gd10000000_ha89.89_hb0.1.0.99_hc4.70.19.4.70.19_hd37.1.49.49_ia_if_ib_id_ic_jc_ie_ja_jb_jd_je_jf_jg_ka_kb_kc_kd_ke_kf_la_lb_oa_os_ob_oc_od_oe_of_lc_m00_n00_s00_og_oh_oo_op_oq_or_om_on_ok_ol_oi_oj_ad0.0.0.0.0.0.0.0.0.0

4-calm=54**aa13.68.1.28.35.11.88.1.28.36_ab_ac_ba50_bb7.1_bc500.500.8.0.1_bd7_be180_ca90.3.30.64.34.65.40.20.0_cb0_da2.0.0.100_db_dd14.3.40.50.50.50_dh2.35.67.35.0_di5_qa_qb_dc0.3.2.2.2_eh7.F0D17C_ea33.F0D17C.F0D17C.56.1.0_ec15.19.F0D17C.F0D17C.56.35.49.0_ed23.50.1.1.F0D17C.56_ef4.2.57.F0D17C.F0D17C.56_eg4.2.57.F0D17C.F0D17C.56_r00_fa7.50.70.50.50.65.56_fb_fh3_fc0.18.55.0.18.55.50.61.61.50.50.50_fd2.1.55.F0D17C.56_fe50.70_ff0000000000_fg1.70_pa0.0.0.0.40.50.85.85.0.0_t00_pb_pc_pd_pe_ga0_gb1_gc60.0_ge0000000000_gh_gf_gg_gd10000000_ha89.89_hb49.1.44.99_hc4.63.19.4.63.19_hd8.1.49.49_ia_if_ib_id_ic_jc_ie_ja_jb_jd_je_jf_jg_ka_kb_kc_kd_ke_kf_la_lb_oa_os_ob_oc_od_oe_of_lc_m00_n00_s00_og_oh_oo_op_oq_or_om_on_ok_ol_oi_oj_ad0.0.0.0.0.0.0.0.0.0

4-happy=54**aa13.68.1.28.35.11.88.1.28.36_ab_ac_ba50_bb7.1_bc500.500.8.0.1_bd7_be180_ca90.3.30.64.34.65.40.20.0_cb0_da2.0.0.100_db_dd14.3.40.50.50.50_dh2.35.67.35.0_di5_qa_qb_dc0.3.2.2.2_eh7.F0D17C_ea33.F0D17C.F0D17C.56.1.0_ec15.19.F0D17C.F0D17C.56.35.49.0_ed23.50.1.1.F0D17C.56_ef4.2.57.F0D17C.F0D17C.56_eg4.2.57.F0D17C.F0D17C.56_r00_fa7.50.70.50.50.65.56_fb_fh3_fc0.18.55.0.18.55.50.61.61.50.50.50_fd2.1.55.F0D17C.56_fe50.70_ff0000000000_fg1.70_pa0.0.0.0.40.50.85.85.0.0_t00_pb_pc_pd_pe_ga0_gb1_gc60.0_ge0000000000_gh_gf_gg_gd10000000_ha89.89_hb49.1.44.99_hc4.78.30.4.78.30_hd1.1.49.49_ia_if_ib_id_ic_jc_ie_ja_jb_jd_je_jf_jg_ka_kb_kc_kd_ke_kf_la_lb_oa_os_ob_oc_od_oe_of_lc_m00_n00_s00_og_oh_oo_op_oq_or_om_on_ok_ol_oi_oj_ad0.0.0.0.0.0.0.0.0.0

4-sad=54**aa13.68.1.28.35.11.88.1.28.36_ab_ac_ba60_bb6.1_bc500.500.8.0.1.0_bd6_be180_ca90.3.30.64.34.65.40.20.0.0.60.80_da2.0.0.100_db_dd14.3.40.50.50.50_dh2.35.67.35.0_di5_qa_qb_dc0.3.2.2.2_eh7.F0D17C.100_ea33.F0D17C.F0D17C.56.1.0_ec15.19.F0D17C.F0D17C.56.35.49.1_ed23.48.1.1.F0D17C.56_ef4.2.53.F0D17C.F0D17C.56.0_eg4.2.53.F0D17C.F0D17C.56.0_r00_fa7.50.70.50.50.65.56_fb_fh3_fc0.18.55.0.18.55.50.61.61.50.50.50_fj0.0.0_fd2.1.55.F0D17C.56_fe50.70_ff0000000000_fg1.70.56.0.0.1.0.0_fi_pa0.0.0.0.40.50.85.85.0.0_t00_pb_pc_pd_pe_ga0_gb1_gc60.0_ge0000000000_gh_gf_gg_gd00000000_ha40.40_hb49.1.44.99_hc4.80.0.4.80.0_hd8.1.49.49_ia_if_ib_id_ic_jc_ie_ja_jb_jd_je_jf_jg_ka_kb_kc_kd_ke_kf_la_lb_oa_os_ob_oc_od_oe_of_lc_m00_n00_s00_og_oh_oo_op_oq_or_om_on_ok_ol_oi_oj_ad0.0.0.0.0.0.0.0.0.0

4-angry=54**aa13.68.1.28.35.11.88.1.28.36_ab_ac_ba50_bb43.1_bc675.500.8.0.1.0_bd47_be177_ca90.3.30.64.34.65.40.20.0.0.60.80_da2.0.0.100_db_dd14.3.40.50.50.50_dh2.35.67.35.0_di5_qa_qb_dc0.3.2.2.2_eh7.F0D17C.100_ea33.F0D17C.F0D17C.56.1.0_ec15.19.F0D17C.F0D17C.56.35.49.0_ed23.48.1.1.F0D17C.56_ef4.2.53.F0D17C.F0D17C.56.0_eg4.2.53.F0D17C.F0D17C.56.0_r00_fa7.50.70.50.50.65.56_fb_fh3_fc0.18.55.0.18.55.50.61.61.50.50.50_fj0.0.0_fd2.1.55.F0D17C.56_fe50.70_ff0000000000_fg1.70.56.0.0.1.0.0_fi_pa0.0.0.0.40.50.85.85.0.0_t00_pb_pc_pd_pe_ga0_gb1_gc60.0_ge0000000000_gh_gf_gg_gd00000000_ha89.89_hb49.1.44.99_hc4.34.31.4.34.31_hd42.1.49.49_ia_if_ib_id_ic_jc_ie_ja_jb_jd_je_jf_jg_ka_kb_kc_kd_ke_kf_la_lb_oa_os_ob_oc_od_oe_of_lc_m00_n00_s00_og_oh_oo_op_oq_or_om_on_ok_ol_oi_oj_ad0.0.0.0.0.0.0.0.0.0

4-shocked=54**aa26.43.0.8.36.26.43.0.8.36_ab_ac_ba50_bb7.1_bc500.500.8.0.1_bd7_be180_ca90.3.30.64.34.65.40.20.0_cb0_da2.0.0.100_db_dd14.3.40.50.50.50_dh2.35.67.35.0_di5_qa_qb_dc0.3.2.2.2_eh7.F0D17C_ea33.F0D17C.F0D17C.56.1.0_ec15.19.F0D17C.F0D17C.56.35.49.0_ed23.50.1.1.F0D17C.56_ef4.2.57.F0D17C.F0D17C.56_eg4.2.57.F0D17C.F0D17C.56_r00_fa7.50.70.50.50.65.56_fb_fh3_fc0.18.55.0.18.55.50.61.61.50.50.50_fd2.1.55.F0D17C.56_fe50.70_ff0000000000_fg1.70_pa0.0.0.0.40.50.85.85.0.0_t00_pb_pc_pd_pe_ga0_gb1_gc60.0_ge0000000000_gh_gf_gg_gd10000000_ha95.95_hb49.1.44.50_hc1.91.100.1.91.100_hd36.1.49.49_ia_if_ib_id_ic_jc_ie_ja_jb_jd_je_jf_jg_ka_kb_kc_kd_ke_kf_la_lb_oa_os_ob_oc_od_oe_of_lc_m00_n00_s00_og_oh_oo_op_oq_or_om_on_ok_ol_oi_oj_ad0.0.0.0.0.0.0.0.0.0

4-interested=54**aa13.68.1.28.35.11.88.1.28.36_ab_ac_ba50_bb7.1_bc500.500.8.0.1_bd7_be180_ca90.3.30.64.34.65.40.20.0_cb0_da2.0.0.100_db_dd14.3.40.50.50.50_dh2.35.67.35.0_di5_qa_qb_dc0.3.2.2.2_eh7.F0D17C_ea33.F0D17C.F0D17C.56.1.0_ec15.19.F0D17C.F0D17C.56.35.49.0_ed23.50.1.1.F0D17C.56_ef4.2.57.F0D17C.F0D17C.56_eg4.2.57.F0D17C.F0D17C.56_r00_fa7.50.70.50.50.65.56_fb_fh3_fc0.18.55.0.18.55.50.61.61.50.50.50_fd2.1.55.F0D17C.56_fe50.70_ff0000000000_fg1.70_pa0.0.0.0.40.50.85.85.0.0_t00_pb_pc_pd_pe_ga0_gb1_gc60.0_ge0000000000_gh_gf_gg_gd10000000_ha89.89_hb49.1.44.99_hc1.58.12.1.94.70_hd22.0.49.49_ia_if_ib_id_ic_jc_ie_ja_jb_jd_je_jf_jg_ka_kb_kc_kd_ke_kf_la_lb_oa_os_ob_oc_od_oe_of_lc_m00_n00_s00_og_oh_oo_op_oq_or_om_on_ok_ol_oi_oj_ad0.0.0.0.0.0.0.0.0.0

4-embarrassed=54**aa13.68.1.28.35.11.88.1.28.36_ab_ac_ba50_bb43.1_bc500.500.8.0.1_bd43_be180_ca90.3.30.64.34.65.40.20.0_cb0_da2.0.0.100_db_dd14.3.40.50.50.50_dh2.35.67.35.0_di5_qa_qb_dc0.3.2.2.2_eh7.F0D17C_ea33.F0D17C.F0D17C.56.1.0_ec15.19.F0D17C.F0D17C.56.35.49.0_ed23.50.1.1.F0D17C.56_ef4.2.57.F0D17C.F0D17C.56_eg4.2.57.F0D17C.F0D17C.56_r00_fa7.50.70.50.50.65.56_fb_fh3_fc0.18.55.0.18.55.50.61.61.50.50.50_fd2.1.55.F0D17C.56_fe50.70_ff0000000000_fg1.70_pa0.0.0.0.40.50.85.85.0.0_t00_pb_pc_pd_pe_ga0_gb1_gc60.0_ge0000000000_gh_gf_gg_gd10000000_ha20.20_hb49.1.44.99_hc4.77.0.4.77.0_hd22.0.49.49_ia_if_ib_id_ic_jc_ie_ja_jb_jd_je_jf_jg_ka_kb_kc_kd_ke_kf_la_lb_oa_os_ob_oc_od_oe_of_lc_m00_n00_s00_og_oh_oo_op_oq_or_om_on_ok_ol_oi_oj_ad0.0.0.0.0.0.0.0.0.0

4-loss=54**aa13.68.1.28.35.11.88.1.28.36_ab_ac_ba50_bb43.1_bc500.500.8.0.1_bd43_be180_ca90.3.30.64.34.65.40.20.0_cb0_da2.0.0.100_db_dd14.3.40.50.50.50_dh2.35.67.35.0_di5_qa_qb_dc0.3.2.2.2_eh7.F0D17C_ea33.F0D17C.F0D17C.56.1.0_ec15.19.F0D17C.F0D17C.56.35.49.0_ed23.50.1.1.F0D17C.56_ef4.2.57.F0D17C.F0D17C.56_eg4.2.57.F0D17C.F0D17C.56_r00_fa7.50.70.50.50.65.56_fb_fh3_fc0.18.55.0.18.55.50.61.61.50.50.50_fd2.1.55.F0D17C.56_fe50.70_ff0000000000_fg1.70_pa0.0.0.0.40.50.85.85.0.0_t00_pb_pc_pd_pe_ga0_gb1_gc60.0_ge0000000000_gh_gf_gg_gd10000000_ha60.60_hb0.1.0.99_hc4.83.0.4.83.0_hd38.1.49.49_ia_if_ib_id_ic_jc_ie_ja_jb_jd_je_jf_jg_ka_kb_kc_kd_ke_kf_la_lb_oa_os_ob_oc_od_oe_of_lc_m00_n00_s00_og_oh_oo_op_oq_or_om_on_ok_ol_oi_oj_ad0.0.0.0.0.0.0.0.0.0