#Ruby Rose KiseKae Codes

0-loss=47**aa67.35.0.3.50.9.3.0.0.50_ab_ac_ba50_bb6.1_bc150.500.8.0.1_bd6_be180_ca61.0.13.61.24.4.48.0.8_cb0_da1.0.0.100_db_dd9.1.30.0.0.50_dh1.30.50.50.0_di5_qa_qb_dc2.1.1.1.1_eh1.370000_ea32.0B0C0D.4A0000.56.1.0_ec8.52.0B0C0D.4A0000.56.47.61.0_ed0.78.0.1.4A0000.56_ef5.2.5.56.4A0000.56_eg1.0.5.56.4A0000.56_r0012.56.370000.56.1.0.50.51.123.370.555.0_r0116.370000.56.56.1.0.64.69.157.626.541.1_r0212.370000.370000.56.1.0.50.50.126.396.553.0_r0312.370000.370000.56.2.1.80.52.112.547.479.0_fa2.60.60.74.40.50.56_fb_fh1_fc2.919191.55.2.919191.55.42.61.61.42.50.50_fd1.0.31.0B0C0D.56_fe54.62_ff0000000000_fg0.40_pa0.0.0.0.40.50.85.78.0.0_t00_pb_pc_pd_pe_ga0_gb1_gc3.0_ge1000000000_gh0_gf_gg_gd10000000_ha1.1_hb100.1.100.85_hc4.72.0.4.72.0_hd25.1.100.54_ia_if_ib_id_ic_jc_ie_ja_jb_jd2.6.6.50_je2.6.6.50_jf_jg_ka11.6.60.60.0_kb11.6.60.60_kc_kd_ke_kf_la_lb_oa_os_ob_oc_od_oe_of_lc_m00_n00_s00_og_oh_oo_op_oq_or_om_on_ok_ol_oi_oj_ad0.0.0.0.0.0.0.0.0.0
0-excited=47**aa9.55.1.49.50.9.55.1.49.50_ab_ac_ba50_bb44.1_bc237.500.8.0.1_bd44_be180_ca61.0.13.61.24.4.48.0.8_cb0_da1.0.0.100_db_dd9.1.30.0.0.50_dh1.30.50.50.0_di5_qa_qb_dc2.1.1.1.1_eh1.370000_ea32.0B0C0D.4A0000.56.1.0_ec8.52.0B0C0D.4A0000.56.47.61.0_ed0.78.0.1.4A0000.56_ef5.2.5.56.4A0000.56_eg1.0.5.56.4A0000.56_r0012.56.370000.56.1.0.50.51.123.370.555.0_r0116.370000.56.56.1.0.64.69.157.626.541.1_r0212.370000.370000.56.1.0.50.50.126.396.553.0_r0312.370000.370000.56.2.1.80.52.112.547.479.0_fa2.60.60.74.40.50.56_fb_fh1_fc2.919191.55.2.919191.55.42.61.61.42.50.50_fd1.0.31.0B0C0D.56_fe54.62_ff0000000000_fg0.40_pa0.0.0.0.40.50.85.78.0.0_t00_pb_pc_pd_pe_ga0_gb1_gc10.0_ge0000000000_gh_gf_gg_gd10000000_ha100.100_hb61.1.50.99_hc0.51.17.0.51.17_hd24.1.62.43_ia_if_ib_id_ic_jc_ie_ja_jb_jd2.6.6.50_je2.6.6.50_jf_jg_ka11.6.60.60.0_kb11.6.60.60_kc_kd_ke_kf_la_lb_oa_os_ob_oc_od_oe_of_lc_m0028.57.3.0.0.2.0.15.37.9.5.61_n00_s00_og_oh_oo_op_oq_or_om_on_ok_ol_oi_oj_ad0.0.0.0.0.0.0.0.0.0
0-appreciative=47**aa9.35.1.30.36.9.35.1.30.36_ab_ac_ba50_bb8.1_bc325.500.8.0.1_bd8_be180_ca61.0.13.61.24.4.48.0.8_cb0_da1.0.0.100_db_dd9.1.30.0.0.50_dh1.30.50.50.0_di5_qa_qb_dc2.1.1.1.1_eh1.370000_ea32.0B0C0D.4A0000.56.1.0_ec8.52.0B0C0D.4A0000.56.47.61.0_ed0.78.0.1.4A0000.56_ef5.2.5.56.4A0000.56_eg1.0.5.56.4A0000.56_r0012.56.370000.56.1.0.50.51.123.370.555.0_r0116.370000.56.56.1.0.64.69.157.626.541.1_r0212.370000.370000.56.1.0.50.50.126.396.553.0_r0312.370000.370000.56.2.1.80.52.112.547.479.0_fa2.60.60.74.40.50.56_fb_fh1_fc2.919191.55.2.919191.55.42.61.61.42.50.50_fd1.0.31.0B0C0D.56_fe54.62_ff0000000000_fg0.40_pa0.0.0.0.40.50.85.78.0.0_t00_pb_pc_pd_pe_ga0_gb1_gc10.0_ge0000000000_gh_gf_gg_gd10000000_ha0.0_hb62.1.50.100_hc0.36.29.0.36.29_hd35.1.100.96_ia_if_ib_id_ic_jc_ie_ja_jb_jd2.6.6.50_je2.6.6.50_jf_jg_ka11.6.60.60.0_kb11.6.60.60_kc_kd_ke_kf_la_lb_oa_os_ob_oc_od_oe_of_lc_m00_n00_s00_og_oh_oo_op_oq_or_om_on_ok_ol_oi_oj_ad0.0.0.0.0.0.0.0.0.0
0-interested=47**aa12.88.0.30.36.12.88.0.30.36_ab_ac_ba50_bb6.1_bc412.500.8.0.1_bd6_be180_ca61.0.13.61.24.4.48.0.8_cb0_da1.0.0.100_db_dd9.1.30.0.0.50_dh1.30.50.50.0_di5_qa_qb_dc2.1.1.1.1_eh1.370000_ea32.0B0C0D.4A0000.56.1.0_ec8.52.0B0C0D.4A0000.56.47.61.0_ed0.78.0.1.4A0000.56_ef5.2.5.56.4A0000.56_eg1.0.5.56.4A0000.56_r0012.56.370000.56.1.0.50.51.123.370.555.0_r0116.370000.56.56.1.0.64.69.157.626.541.1_r0212.370000.370000.56.1.0.50.50.126.396.553.0_r0312.370000.370000.56.2.1.80.52.112.547.479.0_fa2.60.60.74.40.50.56_fb_fh1_fc2.919191.55.2.919191.55.42.61.61.42.50.50_fd1.0.31.0B0C0D.56_fe54.62_ff0000000000_fg0.40_pa0.0.0.0.40.50.85.78.0.0_t00_pb_pc_pd_pe_ga0_gb1_gc15.0_ge0000000000_gh_gf_gg_gd10000000_ha90.90_hb61.1.50.99_hc0.0.13.0.20.23_hd23.1.61.43_ia_if_ib_id_ic_jc_ie_ja_jb_jd2.6.6.50_je2.6.6.50_jf_jg_ka11.6.60.60.0_kb11.6.60.60_kc_kd_ke_kf_la_lb_oa_os_ob_oc_od_oe_of_lc_m00_n00_s00_og_oh_oo_op_oq_or_om_on_ok_ol_oi_oj_ad0.0.0.0.0.0.0.0.0.0
0-calm=47**aa12.0.0.0.46.12.0.0.0.46_ab_ac_ba50_bb6.1_bc500.500.8.0.1_bd6_be180_ca61.0.13.61.24.4.48.0.8_cb0_da1.0.0.100_db_dd9.1.30.0.0.50_dh1.30.50.50.0_di5_qa_qb_dc2.1.1.1.1_eh1.370000_ea32.0B0C0D.4A0000.56.1.0_ec8.52.0B0C0D.4A0000.56.47.61.0_ed0.78.0.1.4A0000.56_ef5.2.5.56.4A0000.56_eg1.0.5.56.4A0000.56_r0012.56.370000.56.1.0.50.51.123.370.555.0_r0116.370000.56.56.1.0.64.69.157.626.541.1_r0212.370000.370000.56.1.0.50.50.126.396.553.0_r0312.370000.370000.56.2.1.80.52.112.547.479.0_fa2.60.60.74.40.50.56_fb_fh1_fc2.919191.55.2.919191.55.42.61.61.42.50.50_fd1.0.31.0B0C0D.56_fe54.62_ff0000000000_fg0.40_pa0.0.0.0.40.50.85.78.0.0_t00_pb_pc_pd_pe_ga0_gb1_gc0.0_ge0000000000_gh_gf_gg_gd10000000_ha90.90_hb61.1.50.99_hc0.51.17.0.51.17_hd1.1.62.43_ia_if_ib_id_ic_jc_ie_ja_jb_jd2.6.6.50_je2.6.6.50_jf_jg_ka11.6.60.60.0_kb11.6.60.60_kc_kd_ke_kf_la_lb_oa_os_ob_oc_od_oe_of_lc_m00_n00_s00_og_oh_oo_op_oq_or_om_on_ok_ol_oi_oj_ad0.0.0.0.0.0.0.0.0.0
0-angry=47**aa14.100.1.42.48.14.100.1.42.48_ab_ac_ba50_bb7.1_bc587.500.8.0.1_bd7_be180_ca61.0.13.61.24.4.48.0.8_cb0_da1.0.0.100_db_dd9.1.30.0.0.50_dh1.30.50.50.0_di5_qa_qb_dc2.1.1.1.1_eh1.370000_ea32.0B0C0D.4A0000.56.1.0_ec8.52.0B0C0D.4A0000.56.47.61.0_ed0.78.0.1.4A0000.56_ef5.2.5.56.4A0000.56_eg1.0.5.56.4A0000.56_r0012.56.370000.56.1.0.50.51.123.370.555.0_r0116.370000.56.56.1.0.64.69.157.626.541.1_r0212.370000.370000.56.1.0.50.50.126.396.553.0_r0312.370000.370000.56.2.1.80.52.112.547.479.0_fa2.60.60.74.40.50.56_fb_fh1_fc2.919191.55.2.919191.55.42.61.61.42.50.50_fd1.0.31.0B0C0D.56_fe54.62_ff0000000000_fg0.40_pa0.0.0.0.40.50.85.78.0.0_t00_pb_pc_pd_pe_ga0_gb1_gc15.0_ge0100000000_gh_gf_gg_gd10000000_ha90.90_hb58.1.59.100_hc2.17.20.2.24.4_hd50.1.30.54_ia_if_ib_id_ic_jc_ie_ja_jb_jd2.6.6.50_je2.6.6.50_jf_jg_ka11.6.60.60.0_kb11.6.60.60_kc_kd_ke_kf_la_lb_oa_os_ob_oc_od_oe_of_lc_m00_n00_s00_og_oh_oo_op_oq_or_om_on_ok_ol_oi_oj_ad0.0.0.0.0.0.0.0.0.0
0-sad=47**aa9.98.1.16.43.9.98.1.16.43_ab_ac_ba50_bb44.1_bc675.500.8.0.1_bd44_be180_ca61.0.13.61.24.4.48.0.8_cb0_da1.0.0.100_db_dd9.1.30.0.0.50_dh1.30.50.50.0_di5_qa_qb_dc2.1.1.1.1_eh1.370000_ea32.0B0C0D.4A0000.56.1.0_ec8.52.0B0C0D.4A0000.56.47.61.0_ed0.78.0.1.4A0000.56_ef5.2.5.56.4A0000.56_eg1.0.5.56.4A0000.56_r0012.56.370000.56.1.0.50.51.123.370.555.0_r0116.370000.56.56.1.0.64.69.157.626.541.1_r0212.370000.370000.56.1.0.50.50.126.396.553.0_r0312.370000.370000.56.2.1.80.52.112.547.479.0_fa2.60.60.74.40.50.56_fb_fh1_fc2.919191.55.2.919191.55.42.61.61.42.50.50_fd1.0.31.0B0C0D.56_fe54.62_ff0000000000_fg0.40_pa0.0.0.0.40.50.85.78.0.0_t00_pb_pc_pd_pe_ga0_gb1_gc0.0_ge1000000000_gh0_gf_gg12.55.50.50.50.1_gd10000000_ha94.94_hb0.0.0.53_hc0.72.29.0.72.29_hd31.1.100.100_ia_if_ib_id_ic_jc_ie_ja_jb_jd2.6.6.50_je2.6.6.50_jf_jg_ka11.6.60.60.0_kb11.6.60.60_kc_kd_ke_kf_la_lb_oa_os_ob_oc_od_oe_of_lc_m00_n00_s00_og_oh_oo_op_oq_or_om_on_ok_ol_oi_oj_ad0.0.0.0.0.0.0.0.0.0
0-shocked=47**aa21.52.1.28.50.21.52.1.28.50_ab_ac_ba50_bb5.1_bc762.500.8.0.1_bd5_be180_ca61.0.13.61.24.4.48.0.8_cb0_da1.0.0.100_db_dd9.1.30.0.0.50_dh1.30.50.50.0_di5_qa_qb_dc2.1.1.1.1_eh1.370000_ea32.0B0C0D.4A0000.56.1.0_ec8.52.0B0C0D.4A0000.56.47.61.0_ed0.78.0.1.4A0000.56_ef5.2.5.56.4A0000.56_eg1.0.5.56.4A0000.56_r0012.56.370000.56.1.0.50.51.123.370.555.0_r0116.370000.56.56.1.0.64.69.157.626.541.1_r0212.370000.370000.56.1.0.50.50.126.396.553.0_r0312.370000.370000.56.2.1.80.52.112.547.479.0_fa2.60.60.74.40.50.56_fb_fh1_fc2.919191.55.2.919191.55.42.61.61.42.50.50_fd1.0.31.0B0C0D.56_fe54.62_ff0000000000_fg0.40_pa0.0.0.0.40.50.85.78.0.0_t00_pb_pc_pd_pe_ga0_gb1_gc0.0_ge0001000000_gh_gf_gg_gd10000000_ha90.90_hb61.1.50.99_hc0.51.36.0.51.36_hd40.1.62.43_ia_if_ib_id_ic_jc_ie_ja_jb_jd2.6.6.50_je2.6.6.50_jf_jg_ka11.6.60.60.0_kb11.6.60.60_kc_kd_ke_kf_la_lb_oa_os_ob_oc_od_oe_of_lc_m00_n00_s00_og_oh_oo_op_oq_or_om_on_ok_ol_oi_oj_ad0.0.0.0.0.0.0.0.0.0
0-horny=47**aa9.65.1.16.52.9.65.1.16.52_ab_ac_ba50_bb44.1_bc850.500.8.0.1_bd44_be180_ca61.0.13.61.24.4.48.0.8_cb0_da1.0.0.100_db_dd13.1.30.0.0.50_dh1.30.50.50.0_di5_qa_qb_dc2.1.1.1.1_eh1.370000_ea32.0B0C0D.4A0000.56.1.0_ec8.52.0B0C0D.4A0000.56.47.61.0_ed0.78.0.1.4A0000.56_ef5.2.5.56.4A0000.56_eg1.0.5.56.4A0000.56_r0012.56.370000.56.1.0.50.51.123.370.555.0_r0116.370000.56.56.1.0.64.69.157.626.541.1_r0212.370000.370000.56.1.0.50.50.126.396.553.0_r0312.370000.370000.56.2.1.80.52.112.547.479.0_fa2.60.60.74.40.50.56_fb_fh1_fc2.919191.55.2.919191.55.42.61.61.42.50.50_fd1.0.31.0B0C0D.56_fe54.62_ff0000000000_fg0.40_pa0.0.0.0.40.50.85.78.0.0_t00_pb_pc_pd_pe_ga0_gb1_gc44.0_ge0000000000_gh_gf_gg_gd10000000_ha83.83_hb50.0.0.100_hc0.58.29.0.58.29_hd31.1.75.80_ia_if_ib_id_ic_jc_ie_ja_jb_jd2.6.6.50_je2.6.6.50_jf_jg_ka11.6.60.60.0_kb11.6.60.60_kc_kd_ke_kf_la_lb_oa_os_ob_oc_od_oe_of_lc_m00_n00_s00_og_oh_oo_op_oq_or_om_on_ok_ol_oi_oj_ad0.0.0.0.0.0.0.0.0.0
0-happy=47**aa93.0.1.29.60.93.0.1.29.60_ab_ac_ba50_bb10.1_bc150.500.8.0.1_bd10_be180_ca61.0.13.61.24.4.48.0.8_cb0_da1.0.0.100_db_dd9.1.30.0.0.50_dh1.30.50.50.0_di5_qa_qb_dc2.1.1.1.1_eh1.370000_ea32.0B0C0D.4A0000.56.1.0_ec8.52.0B0C0D.4A0000.56.47.61.0_ed0.78.0.1.4A0000.56_ef5.2.5.56.4A0000.56_eg1.0.5.56.4A0000.56_r0012.56.370000.56.1.0.50.51.123.370.555.0_r0116.370000.56.56.1.0.64.69.157.626.541.1_r0212.370000.370000.56.1.0.50.50.126.396.553.0_r0312.370000.370000.56.2.1.80.52.112.547.479.0_fa2.60.60.74.40.50.56_fb_fh1_fc2.919191.55.2.919191.55.42.61.61.42.50.50_fd1.0.31.0B0C0D.56_fe54.62_ff0000000000_fg0.40_pa0.0.0.0.40.50.85.78.0.0_t00_pb_pc_pd_pe_ga0_gb1_gc0.0_ge0000000000_gh_gf_gg1.0.50.50.50.1_gd10000000_ha77.77_hb43.0.86.100_hc0.0.0.0.0.0_hd25.1.100.50_ia_if_ib_id_ic_jc_ie_ja_jb_jd2.6.6.50_je2.6.6.50_jf_jg_ka11.6.60.60.0_kb11.6.60.60_kc_kd_ke_kf_la_lb_oa_os_ob_oc_od_oe_of_lc_m00_n00_s00_og_oh_oo_op_oq_or_om_on_ok_ol_oi_oj_ad0.0.0.0.0.0.0.0.0.0
0-strip=47**aa87.14.1.3.60.18.66.1.11.14_ab_ac_ba50_bb92.1_bc150.500.8.0.1_bd44_be172_ca61.0.13.61.24.4.48.0.8_cb0_da1.0.0.100_db_dd9.1.30.0.0.50_dh1.30.50.50.0_di5_qa_qb_dc2.1.1.1.1_eh1.370000_ea32.0B0C0D.4A0000.56.1.0_ec8.52.0B0C0D.4A0000.56.47.61.0_ed0.78.0.1.4A0000.56_ef5.2.5.56.4A0000.56_eg1.0.5.56.4A0000.56_r0012.56.370000.56.1.0.50.51.123.370.555.0_r0116.370000.56.56.1.0.64.69.157.626.541.1_r0212.370000.370000.56.1.0.50.50.126.396.553.0_r0312.370000.370000.56.2.1.80.52.112.547.479.0_fa2.60.60.74.40.50.56_fb_fh1_fc2.919191.55.2.919191.55.42.61.61.42.50.50_fd1.0.31.0B0C0D.56_fe54.62_ff0000000000_fg0.40_pa0.0.0.0.40.50.85.78.0.0_t00_pb_pc_pd_pe_ga0_gb1_gc0.0_ge0000000000_gh_gf_gg_gd10000000_ha0.0_hb61.1.50.100_hc0.51.17.0.51.17_hd24.1.62.43_ia_if_ib_id_ic_jc_ie_ja_jb_jd_je2.6.6.50_jf_jg_ka11.6.60.60.0_kb11.6.60.60_kc_kd_ke_kf_la_lb_oa_os_ob_oc_od_oe_of_lc_m00_n00_s00_og_oh_oo_op_oq_or_om_on_ok_ol_oi_oj_ad0.0.0.0.0.0.0.0.0.0

1-loss=47**aa11.87.1.26.54.15.67.1.26.35_ab_ac_ba50_bb6.1_bc150.500.8.0.1_bd6_be180_ca61.0.13.61.24.4.48.0.8_cb0_da1.0.0.100_db_dd10.1.30.0.0.50_dh1.30.50.50.0_di5_qa_qb_dc2.1.1.1.1_eh1.370000_ea32.0B0C0D.4A0000.56.1.0_ec8.52.0B0C0D.4A0000.56.47.61.0_ed0.78.0.1.4A0000.56_ef5.2.5.56.4A0000.56_eg1.0.5.56.4A0000.56_r0012.56.370000.56.1.0.50.51.123.370.555.0_r0116.370000.56.56.1.0.64.69.157.626.541.1_r0212.370000.370000.56.1.0.50.50.126.396.553.0_r0312.370000.370000.56.2.1.80.52.112.547.479.0_fa2.60.60.74.40.50.56_fb_fh1_fc2.919191.55.2.919191.55.42.61.61.42.50.50_fd1.0.31.0B0C0D.56_fe54.62_ff0000000000_fg0.40_pa0.0.0.0.40.50.85.78.0.0_t00_pb_pc_pd_pe_ga0_gb1_gc20.0_ge1000000000_gh0_gf_gg_gd10000000_ha0.0_hb61.1.50.99_hc3.53.0.3.53.0_hd31.1.67.77_ia_if_ib_id_ic_jc_ie_ja_jb_jd_je_jf_jg_ka11.6.60.60.0_kb11.6.60.60_kc_kd_ke_kf_la_lb_oa_os_ob_oc_od_oe_of_lc_m00_n00_s00_og_oh_oo_op_oq_or_om_on_ok_ol_oi_oj_ad0.0.0.0.0.0.0.0.0.0
1-excited=47**aa9.55.1.49.50.9.55.1.49.50_ab_ac_ba50_bb44.1_bc150.500.8.0.1_bd44_be180_ca61.0.13.61.24.4.48.0.8_cb0_da1.0.0.100_db_dd9.1.30.0.0.50_dh1.30.50.50.0_di5_qa_qb_dc2.1.1.1.1_eh1.370000_ea32.0B0C0D.4A0000.56.1.0_ec8.52.0B0C0D.4A0000.56.47.61.0_ed0.78.0.1.4A0000.56_ef5.2.5.56.4A0000.56_eg1.0.5.56.4A0000.56_r0012.56.370000.56.1.0.50.51.123.370.555.0_r0116.370000.56.56.1.0.64.69.157.626.541.1_r0212.370000.370000.56.1.0.50.50.126.396.553.0_r0312.370000.370000.56.2.1.80.52.112.547.479.0_fa2.60.60.74.40.50.56_fb_fh1_fc2.919191.55.2.919191.55.42.61.61.42.50.50_fd1.0.31.0B0C0D.56_fe54.62_ff0000000000_fg0.40_pa0.0.0.0.40.50.85.78.0.0_t00_pb_pc_pd_pe_ga0_gb1_gc15.0_ge0000000000_gh_gf_gg_gd10000000_ha100.100_hb61.1.50.99_hc0.51.17.0.51.17_hd24.1.62.43_ia_if_ib_id_ic_jc_ie_ja_jb_jd_je_jf_jg_ka11.6.60.60.0_kb11.6.60.60_kc_kd_ke_kf_la_lb_oa_os_ob_oc_od_oe_of_lc_m00_n00_s00_og_oh_oo_op_oq_or_om_on_ok_ol_oi_oj_ad0.0.0.0.0.0.0.0.0.0
1-appreciative=47**aa9.35.1.30.36.9.35.1.30.36_ab_ac_ba50_bb8.1_bc150.500.8.0.1_bd8_be180_ca61.0.13.61.24.4.48.0.8_cb0_da1.0.0.100_db_dd9.1.30.0.0.50_dh1.30.50.50.0_di5_qa_qb_dc2.1.1.1.1_eh1.370000_ea32.0B0C0D.4A0000.56.1.0_ec8.52.0B0C0D.4A0000.56.47.61.0_ed0.78.0.1.4A0000.56_ef5.2.5.56.4A0000.56_eg1.0.5.56.4A0000.56_r0012.56.370000.56.1.0.50.51.123.370.555.0_r0116.370000.56.56.1.0.64.69.157.626.541.1_r0212.370000.370000.56.1.0.50.50.126.396.553.0_r0312.370000.370000.56.2.1.80.52.112.547.479.0_fa2.60.60.74.40.50.56_fb_fh1_fc2.919191.55.2.919191.55.42.61.61.42.50.50_fd1.0.31.0B0C0D.56_fe54.62_ff0000000000_fg0.40_pa0.0.0.0.40.50.85.78.0.0_t00_pb_pc_pd_pe_ga0_gb1_gc15.0_ge0000000000_gh_gf_gg_gd10000000_ha0.0_hb62.1.50.100_hc0.36.29.0.36.29_hd35.1.100.96_ia_if_ib_id_ic_jc_ie_ja_jb_jd_je_jf_jg_ka11.6.60.60.0_kb11.6.60.60_kc_kd_ke_kf_la_lb_oa_os_ob_oc_od_oe_of_lc_m00_n00_s00_og_oh_oo_op_oq_or_om_on_ok_ol_oi_oj_ad0.0.0.0.0.0.0.0.0.0
1-interested=47**aa12.88.0.30.36.12.88.0.30.36_ab_ac_ba50_bb6.1_bc150.500.8.0.1_bd6_be180_ca61.0.13.61.24.4.48.0.8_cb0_da1.0.0.100_db_dd9.1.30.0.0.50_dh1.30.50.50.0_di5_qa_qb_dc2.1.1.1.1_eh1.370000_ea32.0B0C0D.4A0000.56.1.0_ec8.52.0B0C0D.4A0000.56.47.61.0_ed0.78.0.1.4A0000.56_ef5.2.5.56.4A0000.56_eg1.0.5.56.4A0000.56_r0012.56.370000.56.1.0.50.51.123.370.555.0_r0116.370000.56.56.1.0.64.69.157.626.541.1_r0212.370000.370000.56.1.0.50.50.126.396.553.0_r0312.370000.370000.56.2.1.80.52.112.547.479.0_fa2.60.60.74.40.50.56_fb_fh1_fc2.919191.55.2.919191.55.42.61.61.42.50.50_fd1.0.31.0B0C0D.56_fe54.62_ff0000000000_fg0.40_pa0.0.0.0.40.50.85.78.0.0_t00_pb_pc_pd_pe_ga0_gb1_gc15.0_ge0000000000_gh_gf_gg_gd10000000_ha90.90_hb61.1.50.99_hc0.0.13.0.20.23_hd23.1.61.43_ia_if_ib_id_ic_jc_ie_ja_jb_jd_je_jf_jg_ka11.6.60.60.0_kb11.6.60.60_kc_kd_ke_kf_la_lb_oa_os_ob_oc_od_oe_of_lc_m00_n00_s00_og_oh_oo_op_oq_or_om_on_ok_ol_oi_oj_ad0.0.0.0.0.0.0.0.0.01-calm=47**aa9.0.0.0.41.9.0.0.0.41_ab_ac_ba50_bb6.1_bc500.500.8.0.1_bd6_be180_ca61.0.13.61.24.4.48.0.8_cb0_da1.0.0.100_db_dd9.1.30.0.0.50_dh1.30.50.50.0_di5_qa_qb_dc2.1.1.1.1_eh1.370000_ea32.0B0C0D.4A0000.56.1.0_ec8.52.0B0C0D.4A0000.56.47.61.0_ed0.78.0.1.4A0000.56_ef5.2.5.56.4A0000.56_eg1.0.5.56.4A0000.56_r0012.56.370000.56.1.0.50.51.123.370.555.0_r0116.370000.56.56.1.0.64.69.157.626.541.1_r0212.370000.370000.56.1.0.50.50.126.396.553.0_r0312.370000.370000.56.2.1.80.52.112.547.479.0_fa2.60.60.74.40.50.56_fb_fh1_fc2.919191.55.2.919191.55.42.61.61.42.50.50_fd1.0.31.0B0C0D.56_fe54.62_ff0000000000_fg0.40_pa0.0.0.0.40.50.85.78.0.0_t00_pb_pc_pd_pe_ga0_gb1_gc15.0_ge0000000000_gh_gf_gg_gd10000000_ha90.90_hb61.1.50.100_hc0.51.17.0.51.17_hd1.1.62.43_ia_if_ib_id_ic_jc_ie_ja_jb_jd_je_jf_jg_ka0.6.6.17.0_kb4.61.61.61_kc_kd_ke_kf_la_lb_oa_os_ob_oc_od_oe_of_lc_m00_n00_s00_og_oh_oo_op_oq_or_om_on_ok_ol_oi_oj_ad0.0.0.0.0.0.0.0.0.0
1-angry=47**aa14.98.1.42.42.14.98.1.42.42_ab_ac_ba50_bb7.1_bc150.500.8.0.1_bd7_be180_ca61.0.13.61.24.4.48.0.8_cb0_da1.0.0.100_db_dd9.1.30.0.0.50_dh1.30.50.50.0_di5_qa_qb_dc2.1.1.1.1_eh1.370000_ea32.0B0C0D.4A0000.56.1.0_ec8.52.0B0C0D.4A0000.56.47.61.0_ed0.78.0.1.4A0000.56_ef5.2.5.56.4A0000.56_eg1.0.5.56.4A0000.56_r0012.56.370000.56.1.0.50.51.123.370.555.0_r0116.370000.56.56.1.0.64.69.157.626.541.1_r0212.370000.370000.56.1.0.50.50.126.396.553.0_r0312.370000.370000.56.2.1.80.52.112.547.479.0_fa2.60.60.74.40.50.56_fb_fh1_fc2.919191.55.2.919191.55.42.61.61.42.50.50_fd1.0.31.0B0C0D.56_fe54.62_ff0000000000_fg0.40_pa0.0.0.0.40.50.85.78.0.0_t00_pb_pc_pd_pe_ga0_gb1_gc15.0_ge0100000000_gh_gf_gg_gd10000000_ha90.90_hb58.1.59.100_hc2.17.20.2.24.4_hd50.1.30.54_ia_if_ib_id_ic_jc_ie_ja_jb_jd_je_jf_jg_ka11.6.60.60.0_kb11.6.60.60_kc_kd_ke_kf_la_lb_oa_os_ob_oc_od_oe_of_lc_m00_n00_s00_og_oh_oo_op_oq_or_om_on_ok_ol_oi_oj_ad0.0.0.0.0.0.0.0.0.0
1-sad=47**aa9.98.1.16.43.9.98.1.16.43_ab_ac_ba50_bb44.1_bc150.500.8.0.1_bd44_be180_ca61.0.13.61.24.4.48.0.8_cb0_da1.0.0.100_db_dd9.1.30.0.0.50_dh1.30.50.50.0_di5_qa_qb_dc2.1.1.1.1_eh1.370000_ea32.0B0C0D.4A0000.56.1.0_ec8.52.0B0C0D.4A0000.56.47.61.0_ed0.78.0.1.4A0000.56_ef5.2.5.56.4A0000.56_eg1.0.5.56.4A0000.56_r0012.56.370000.56.1.0.50.51.123.370.555.0_r0116.370000.56.56.1.0.64.69.157.626.541.1_r0212.370000.370000.56.1.0.50.50.126.396.553.0_r0312.370000.370000.56.2.1.80.52.112.547.479.0_fa2.60.60.74.40.50.56_fb_fh1_fc2.919191.55.2.919191.55.42.61.61.42.50.50_fd1.0.31.0B0C0D.56_fe54.62_ff0000000000_fg0.40_pa0.0.0.0.40.50.85.78.0.0_t00_pb_pc_pd_pe_ga0_gb1_gc15.0_ge1000000000_gh0_gf_gg12.55.50.50.50.1_gd10000000_ha94.94_hb0.0.0.53_hc0.72.29.0.72.29_hd31.1.100.100_ia_if_ib_id_ic_jc_ie_ja_jb_jd_je_jf_jg_ka11.6.60.60.0_kb11.6.60.60_kc_kd_ke_kf_la_lb_oa_os_ob_oc_od_oe_of_lc_m00_n00_s00_og_oh_oo_op_oq_or_om_on_ok_ol_oi_oj_ad0.0.0.0.0.0.0.0.0.0
1-shocked=47**aa21.52.1.28.50.21.52.1.28.50_ab_ac_ba50_bb5.1_bc150.500.8.0.1_bd5_be180_ca61.0.13.61.24.4.48.0.8_cb0_da1.0.0.100_db_dd9.1.30.0.0.50_dh1.30.50.50.0_di5_qa_qb_dc2.1.1.1.1_eh1.370000_ea32.0B0C0D.4A0000.56.1.0_ec8.52.0B0C0D.4A0000.56.47.61.0_ed0.78.0.1.4A0000.56_ef5.2.5.56.4A0000.56_eg1.0.5.56.4A0000.56_r0012.56.370000.56.1.0.50.51.123.370.555.0_r0116.370000.56.56.1.0.64.69.157.626.541.1_r0212.370000.370000.56.1.0.50.50.126.396.553.0_r0312.370000.370000.56.2.1.80.52.112.547.479.0_fa2.60.60.74.40.50.56_fb_fh1_fc2.919191.55.2.919191.55.42.61.61.42.50.50_fd1.0.31.0B0C0D.56_fe54.62_ff0000000000_fg0.40_pa0.0.0.0.40.50.85.78.0.0_t00_pb_pc_pd_pe_ga0_gb1_gc15.0_ge0001000000_gh_gf_gg_gd10000000_ha90.90_hb61.1.50.99_hc0.51.36.0.51.36_hd40.1.62.43_ia_if_ib_id_ic_jc_ie_ja_jb_jd_je_jf_jg_ka11.6.60.60.0_kb11.6.60.60_kc_kd_ke_kf_la_lb_oa_os_ob_oc_od_oe_of_lc_m00_n00_s00_og_oh_oo_op_oq_or_om_on_ok_ol_oi_oj_ad0.0.0.0.0.0.0.0.0.0
1-horny=47**aa9.65.1.16.52.9.65.1.16.52_ab_ac_ba50_bb44.1_bc150.500.8.0.1_bd44_be180_ca61.0.13.61.24.4.48.0.8_cb0_da1.0.0.100_db_dd13.1.30.0.0.50_dh1.30.50.50.0_di5_qa_qb_dc2.1.1.1.1_eh1.370000_ea32.0B0C0D.4A0000.56.1.0_ec8.52.0B0C0D.4A0000.56.47.61.0_ed0.78.0.1.4A0000.56_ef5.2.5.56.4A0000.56_eg1.0.5.56.4A0000.56_r0012.56.370000.56.1.0.50.51.123.370.555.0_r0116.370000.56.56.1.0.64.69.157.626.541.1_r0212.370000.370000.56.1.0.50.50.126.396.553.0_r0312.370000.370000.56.2.1.80.52.112.547.479.0_fa2.60.60.74.40.50.56_fb_fh1_fc2.919191.55.2.919191.55.42.61.61.42.50.50_fd1.0.31.0B0C0D.56_fe54.62_ff0000000000_fg0.40_pa0.0.0.0.40.50.85.78.0.0_t00_pb_pc_pd_pe_ga0_gb1_gc44.0_ge0000000000_gh_gf_gg_gd10000000_ha83.83_hb50.0.0.100_hc0.58.29.0.58.29_hd31.1.75.80_ia_if_ib_id_ic_jc_ie_ja_jb_jd_je_jf_jg_ka11.6.60.60.0_kb11.6.60.60_kc_kd_ke_kf_la_lb_oa_os_ob_oc_od_oe_of_lc_m00_n00_s00_og_oh_oo_op_oq_or_om_on_ok_ol_oi_oj_ad0.0.0.0.0.0.0.0.0.0
1-happy=47**aa93.0.1.29.60.93.0.1.29.60_ab_ac_ba50_bb10.1_bc150.500.8.0.1_bd10_be180_ca61.0.13.61.24.4.48.0.8_cb0_da1.0.0.100_db_dd9.1.30.0.0.50_dh1.30.50.50.0_di5_qa_qb_dc2.1.1.1.1_eh1.370000_ea32.0B0C0D.4A0000.56.1.0_ec8.52.0B0C0D.4A0000.56.47.61.0_ed0.78.0.1.4A0000.56_ef5.2.5.56.4A0000.56_eg1.0.5.56.4A0000.56_r0012.56.370000.56.1.0.50.51.123.370.555.0_r0116.370000.56.56.1.0.64.69.157.626.541.1_r0212.370000.370000.56.1.0.50.50.126.396.553.0_r0312.370000.370000.56.2.1.80.52.112.547.479.0_fa2.60.60.74.40.50.56_fb_fh1_fc2.919191.55.2.919191.55.42.61.61.42.50.50_fd1.0.31.0B0C0D.56_fe54.62_ff0000000000_fg0.40_pa0.0.0.0.40.50.85.78.0.0_t00_pb_pc_pd_pe_ga0_gb1_gc0.0_ge0000000000_gh_gf_gg1.55.50.50.50.1_gd10000000_ha77.77_hb43.0.86.100_hc0.0.0.0.0.0_hd25.1.100.50_ia_if_ib_id_ic_jc_ie_ja_jb_jd_je_jf_jg_ka11.6.60.60.0_kb11.6.60.60_kc_kd_ke_kf_la_lb_oa_os_ob_oc_od_oe_of_lc_m00_n00_s00_og_oh_oo_op_oq_or_om_on_ok_ol_oi_oj_ad0.0.0.0.0.0.0.0.0.0
1-strip=47**aa43.52.1.16.28.43.52.1.16.28_ab_ac_ba50_bb45.1_bc185.200.0.0.1_bd45_be180_ca61.0.13.61.24.4.48.0.8_cb0_da1.0.0.100_db_dd9.1.30.0.0.50_dh1.30.50.50.0_di5_qa_qb_dc2.1.1.1.1_eh1.370000_ea32.0B0C0D.4A0000.56.1.0_ec8.52.0B0C0D.4A0000.56.47.61.0_ed0.78.0.1.4A0000.56_ef5.2.5.56.4A0000.56_eg1.0.5.56.4A0000.56_r0012.56.370000.56.1.0.50.51.123.370.555.0_r0116.370000.56.56.1.0.64.69.157.626.541.1_r0212.370000.370000.56.1.0.50.50.126.396.553.0_r0312.370000.370000.56.2.1.80.52.112.547.479.0_fa2.60.60.74.40.50.56_fb_fh1_fc2.919191.55.2.919191.55.42.61.61.42.50.50_fd1.0.31.0B0C0D.56_fe54.62_ff0000000000_fg0.40_pa0.0.0.0.40.50.85.78.0.0_t00_pb_pc_pd_pe_ga0_gb1_gc25.0_ge1000000000_gh0_gf_gg_gd10000000_ha90.90_hb60.1.0.100_hc3.51.39.3.51.39_hd32.1.62.100_ia_if_ib_id_ic_jc_ie_ja_jb_jd_je_jf_jg_ka11.6.60.60.0_kb11.6.60.60_kc_kd_ke_kf_la_lb_oa_os_ob_oc_od_oe_of_lc_m00_n00_s00_og_oh_oo_op_oq_or_om_on_ok_ol_oi_oj_ad0.0.0.0.0.0.0.0.0.0
1-stripped=47**aa68.33.0.32.42.11.0.0.0.72_ab_ac_ba50_bb6.1_bc150.500.8.0.1_bd6_be180_ca61.0.13.61.24.4.48.0.8_cb0_da1.0.0.100_db_dd9.1.30.0.0.50_dh1.30.50.50.0_di5_qa_qb_dc2.1.1.1.1_eh1.370000_ea32.0B0C0D.4A0000.56.1.0_ec8.52.0B0C0D.4A0000.56.47.61.0_ed0.78.0.1.4A0000.56_ef5.2.5.56.4A0000.56_eg1.0.5.56.4A0000.56_r0012.56.370000.56.1.0.50.51.123.370.555.0_r0116.370000.56.56.1.0.64.69.157.626.541.1_r0212.370000.370000.56.1.0.50.50.126.396.553.0_r0312.370000.370000.56.2.1.80.52.112.547.479.0_fa2.60.60.74.40.50.56_fb_fh1_fc2.919191.55.2.919191.55.42.61.61.42.50.50_fd1.0.31.0B0C0D.56_fe54.62_ff0000000000_fg0.40_pa0.0.0.0.40.50.85.78.0.0_t00_pb_pc_pd_pe_ga0_gb1_gc10.0_ge0000000000_gh_gf_gg_gd10000000_ha90.90_hb61.1.50.100_hc1.42.21.1.42.21_hd25.1.35.42_ia_if_ib_id_ic_jc_ie_ja_jb_jd_je_jf_jg_ka11.6.60.60.0_kb11.6.60.60_kc_kd_ke_kf_la_lb_oa_os_ob_oc_od_oe_of_lc_m00_n00_s00_og_oh_oo_op_oq_or_om_on_ok_ol_oi_oj_ad0.0.0.0.0.0.0.0.0.0

2-loss=47**aa11.66.1.28.40.11.67.1.28.40_ab_ac_ba50_bb43.1_bc150.500.8.0.1_bd43_be180_ca61.0.13.61.24.4.48.0.8_cb0_da1.0.0.100_db_dd10.1.30.0.0.50_dh1.30.50.50.0_di4_qa_qb_dc2.1.1.1.1_eh1.370000_ea32.0B0C0D.4A0000.56.1.0_ec8.52.0B0C0D.4A0000.56.47.61.0_ed0.78.0.1.4A0000.56_ef5.2.5.56.4A0000.56_eg1.0.5.56.4A0000.56_r0012.56.370000.56.1.0.50.51.123.370.555.0_r0116.370000.56.56.1.0.64.69.157.626.541.1_r0212.370000.370000.56.1.0.50.50.126.396.553.0_r0312.370000.370000.56.2.1.80.52.112.547.479.0_fa2.60.60.74.40.50.56_fb_fh1_fc2.919191.55.2.919191.55.42.61.61.42.50.50_fd1.0.31.0B0C0D.56_fe54.62_ff0000000000_fg0.40_pa0.0.0.0.40.50.85.78.0.0_t00_pb_pc_pd_pe_ga0_gb1_gc47.0_ge1000000000_gh0_gf_gg_gd10000000_ha8.8_hb60.1.50.100_hc0.51.0.0.51.0_hd31.1.64.65_ia_if_ib_id_ic_jc_ie_ja_jb_jd_je_jf_jg_ka_kb11.6.60.60_kc_kd_ke_kf_la_lb_oa_os_ob_oc_od_oe_of_lc_m00_n00_s00_og_oh_oo_op_oq_or_om_on_ok_ol_oi_oj_ad0.0.0.0.0.0.0.0.0.0
2-excited=47**aa6.55.0.26.32.6.55.0.26.32_ab_ac_ba51_bb4.1_bc150.500.8.0.1_bd44_be180_ca61.0.13.61.24.4.48.0.8_cb0_da1.0.0.100_db_dd9.1.30.0.0.50_dh1.30.50.50.0_di6_qa_qb_dc2.1.1.1.1_eh1.370000_ea32.0B0C0D.4A0000.56.1.0_ec8.52.0B0C0D.4A0000.56.47.61.0_ed0.78.0.1.4A0000.56_ef5.2.5.56.4A0000.56_eg1.0.5.56.4A0000.56_r0012.56.370000.56.1.0.50.51.123.370.555.0_r0116.370000.56.56.1.0.64.69.157.626.541.1_r0212.370000.370000.56.1.0.50.50.126.396.553.0_r0312.370000.370000.56.2.1.80.52.112.547.479.0_fa2.60.60.74.40.50.56_fb_fh1_fc2.919191.55.2.919191.55.42.61.61.42.50.50_fd1.0.31.0B0C0D.56_fe54.62_ff0000000000_fg0.40_pa0.0.0.0.40.50.85.78.0.0_t00_pb_pc_pd_pe_ga0_gb1_gc32.0_ge0000000000_gh_gf_gg_gd10000000_ha100.100_hb61.1.50.99_hc0.51.17.0.51.17_hd24.1.62.43_ia_if_ib_id_ic_jc_ie_ja_jb_jd_je_jf_jg_ka_kb11.6.60.60_kc_kd_ke_kf_la_lb_oa_os_ob_oc_od_oe_of_lc_m00_n00_s00_og_oh_oo_op_oq_or_om_on_ok_ol_oi_oj_ad0.0.0.0.0.0.0.0.0.0
2-appreciative=47**aa9.35.1.30.36.9.35.1.30.36_ab_ac_ba50_bb8.1_bc150.500.8.0.1_bd8_be180_ca61.0.13.61.24.4.48.0.8_cb0_da1.0.0.100_db_dd10.1.30.0.0.50_dh1.30.50.50.0_di5_qa_qb_dc2.1.1.1.1_eh1.370000_ea32.0B0C0D.4A0000.56.1.0_ec8.52.0B0C0D.4A0000.56.47.61.0_ed0.78.0.1.4A0000.56_ef5.2.5.56.4A0000.56_eg1.0.5.56.4A0000.56_r0012.56.370000.56.1.0.50.51.123.370.555.0_r0116.370000.56.56.1.0.64.69.157.626.541.1_r0212.370000.370000.56.1.0.50.50.126.396.553.0_r0312.370000.370000.56.2.1.80.52.112.547.479.0_fa2.60.60.74.40.50.56_fb_fh1_fc2.919191.55.2.919191.55.42.61.61.42.50.50_fd1.0.31.0B0C0D.56_fe54.62_ff0000000000_fg0.40_pa0.0.0.0.40.50.85.78.0.0_t00_pb_pc_pd_pe_ga0_gb1_gc35.0_ge0000000000_gh_gf_gg_gd10000000_ha0.0_hb62.1.50.100_hc0.36.29.0.36.29_hd35.1.100.96_ia_if_ib_id_ic_jc_ie_ja_jb_jd_je_jf_jg_ka_kb11.6.60.60_kc_kd_ke_kf_la_lb_oa_os_ob_oc_od_oe_of_lc_m00_n00_s00_og_oh_oo_op_oq_or_om_on_ok_ol_oi_oj_ad0.0.0.0.0.0.0.0.0.0
2-interested=47**aa12.88.0.30.36.12.88.0.30.36_ab_ac_ba50_bb6.1_bc150.500.8.0.1_bd6_be180_ca61.0.13.61.24.4.48.0.8_cb0_da1.0.0.100_db_dd9.1.30.0.0.50_dh1.30.50.50.0_di5_qa_qb_dc2.1.1.1.1_eh1.370000_ea32.0B0C0D.4A0000.56.1.0_ec8.52.0B0C0D.4A0000.56.47.61.0_ed0.78.0.1.4A0000.56_ef5.2.5.56.4A0000.56_eg1.0.5.56.4A0000.56_r0012.56.370000.56.1.0.50.51.123.370.555.0_r0116.370000.56.56.1.0.64.69.157.626.541.1_r0212.370000.370000.56.1.0.50.50.126.396.553.0_r0312.370000.370000.56.2.1.80.52.112.547.479.0_fa2.60.60.74.40.50.56_fb_fh1_fc2.919191.55.2.919191.55.42.61.61.42.50.50_fd1.0.31.0B0C0D.56_fe54.62_ff0000000000_fg0.40_pa0.0.0.0.40.50.85.78.0.0_t00_pb_pc_pd_pe_ga0_gb1_gc35.0_ge0000000000_gh_gf_gg_gd10000000_ha90.90_hb61.1.50.99_hc0.0.13.0.20.23_hd23.1.61.43_ia_if_ib_id_ic_jc_ie_ja_jb_jd_je_jf_jg_ka_kb11.6.60.60_kc_kd_ke_kf_la_lb_oa_os_ob_oc_od_oe_of_lc_m00_n00_s00_og_oh_oo_op_oq_or_om_on_ok_ol_oi_oj_ad0.0.0.0.0.0.0.0.0.0
2-calm=47**aa13.68.0.28.41.13.68.0.28.41_ab_ac_ba50_bb6.1_bc150.500.8.0.1_bd6_be180_ca61.0.13.61.24.4.48.0.8_cb0_da1.0.0.100_db_dd9.1.30.0.0.50_dh1.30.50.50.0_di5_qa_qb_dc2.1.1.1.1_eh1.370000_ea32.0B0C0D.4A0000.56.1.0_ec8.52.0B0C0D.4A0000.56.47.61.0_ed0.78.0.1.4A0000.56_ef5.2.5.56.4A0000.56_eg1.0.5.56.4A0000.56_r0012.56.370000.56.1.0.50.51.123.370.555.0_r0116.370000.56.56.1.0.64.69.157.626.541.1_r0212.370000.370000.56.1.0.50.50.126.396.553.0_r0312.370000.370000.56.2.1.80.52.112.547.479.0_fa2.60.60.74.40.50.56_fb_fh1_fc2.919191.55.2.919191.55.42.61.61.42.50.50_fd1.0.31.0B0C0D.56_fe54.62_ff0000000000_fg0.40_pa0.0.0.0.40.50.85.78.0.0_t00_pb_pc_pd_pe_ga0_gb1_gc15.0_ge0000000000_gh_gf_gg_gd10000000_ha90.90_hb61.1.50.100_hc0.51.17.0.51.17_hd8.1.62.43_ia_if_ib_id_ic_jc_ie_ja_jb_jd_je_jf_jg_ka_kb11.6.60.60_kc_kd_ke_kf_la_lb_oa_os_ob_oc_od_oe_of_lc_m00_n00_s00_og_oh_oo_op_oq_or_om_on_ok_ol_oi_oj_ad0.0.0.0.0.0.0.0.0.0
2-angry=47**aa14.98.1.42.42.14.98.1.42.42_ab_ac_ba50_bb7.1_bc150.500.8.0.1_bd7_be180_ca61.0.13.61.24.4.48.0.8_cb0_da1.0.0.100_db_dd9.1.30.0.0.50_dh1.30.50.50.0_di5_qa_qb_dc2.1.1.1.1_eh1.370000_ea32.0B0C0D.4A0000.56.1.0_ec8.52.0B0C0D.4A0000.56.47.61.0_ed0.78.0.1.4A0000.56_ef5.2.5.56.4A0000.56_eg1.0.5.56.4A0000.56_r0012.56.370000.56.1.0.50.51.123.370.555.0_r0116.370000.56.56.1.0.64.69.157.626.541.1_r0212.370000.370000.56.1.0.50.50.126.396.553.0_r0312.370000.370000.56.2.1.80.52.112.547.479.0_fa2.60.60.74.40.50.56_fb_fh1_fc2.919191.55.2.919191.55.42.61.61.42.50.50_fd1.0.31.0B0C0D.56_fe54.62_ff0000000000_fg0.40_pa0.0.0.0.40.50.85.78.0.0_t00_pb_pc_pd_pe_ga0_gb1_gc15.0_ge0100000000_gh_gf_gg_gd10000000_ha90.90_hb58.1.59.100_hc2.17.20.2.24.4_hd50.1.30.54_ia_if_ib_id_ic_jc_ie_ja_jb_jd_je_jf_jg_ka_kb11.6.60.60_kc_kd_ke_kf_la_lb_oa_os_ob_oc_od_oe_of_lc_m00_n00_s00_og_oh_oo_op_oq_or_om_on_ok_ol_oi_oj_ad0.0.0.0.0.0.0.0.0.0
2-sad=47**aa9.98.1.16.43.9.98.1.16.43_ab_ac_ba50_bb44.1_bc150.500.8.0.1_bd44_be180_ca61.0.13.61.24.4.48.0.8_cb0_da1.0.0.100_db_dd9.1.30.0.0.50_dh1.30.50.50.0_di5_qa_qb_dc2.1.1.1.1_eh1.370000_ea32.0B0C0D.4A0000.56.1.0_ec8.52.0B0C0D.4A0000.56.47.61.0_ed0.78.0.1.4A0000.56_ef5.2.5.56.4A0000.56_eg1.0.5.56.4A0000.56_r0012.56.370000.56.1.0.50.51.123.370.555.0_r0116.370000.56.56.1.0.64.69.157.626.541.1_r0212.370000.370000.56.1.0.50.50.126.396.553.0_r0312.370000.370000.56.2.1.80.52.112.547.479.0_fa2.60.60.74.40.50.56_fb_fh1_fc2.919191.55.2.919191.55.42.61.61.42.50.50_fd1.0.31.0B0C0D.56_fe54.62_ff0000000000_fg0.40_pa0.0.0.0.40.50.85.78.0.0_t00_pb_pc_pd_pe_ga0_gb1_gc35.0_ge1000000000_gh0_gf_gg12.55.50.50.50.1_gd10000000_ha94.94_hb0.0.0.53_hc0.72.29.0.72.29_hd31.1.100.100_ia_if_ib_id_ic_jc_ie_ja_jb_jd_je_jf_jg_ka_kb11.6.60.60_kc_kd_ke_kf_la_lb_oa_os_ob_oc_od_oe_of_lc_m00_n00_s00_og_oh_oo_op_oq_or_om_on_ok_ol_oi_oj_ad0.0.0.0.0.0.0.0.0.0
2-shocked=47**aa21.52.1.28.50.21.52.1.28.50_ab_ac_ba50_bb5.1_bc150.500.8.0.1_bd5_be180_ca61.0.13.61.24.4.48.0.8_cb0_da1.0.0.100_db_dd10.1.30.0.0.50_dh1.30.50.50.0_di5_qa_qb_dc2.1.1.1.1_eh1.370000_ea32.0B0C0D.4A0000.56.1.0_ec8.52.0B0C0D.4A0000.56.47.61.0_ed0.78.0.1.4A0000.56_ef5.2.5.56.4A0000.56_eg1.0.5.56.4A0000.56_r0012.56.370000.56.1.0.50.51.123.370.555.0_r0116.370000.56.56.1.0.64.69.157.626.541.1_r0212.370000.370000.56.1.0.50.50.126.396.553.0_r0312.370000.370000.56.2.1.80.52.112.547.479.0_fa2.60.60.74.40.50.56_fb_fh1_fc2.919191.55.2.919191.55.42.61.61.42.50.50_fd1.0.31.0B0C0D.56_fe54.62_ff0000000000_fg0.40_pa0.0.0.0.40.50.85.78.0.0_t00_pb_pc_pd_pe_ga0_gb1_gc35.0_ge0001000000_gh_gf_gg_gd10000000_ha90.90_hb61.1.50.99_hc0.51.36.0.51.36_hd40.1.62.43_ia_if_ib_id_ic_jc_ie_ja_jb_jd_je_jf_jg_ka_kb11.6.60.60_kc_kd_ke_kf_la_lb_oa_os_ob_oc_od_oe_of_lc_m00_n00_s00_og_oh_oo_op_oq_or_om_on_ok_ol_oi_oj_ad0.0.0.0.0.0.0.0.0.0
2-horny=47**aa11.64.1.28.57.11.64.1.28.57_ab_ac_ba50_bb44.1_bc150.500.8.0.1_bd44_be180_ca61.0.13.61.24.4.48.0.8_cb0_da1.0.0.100_db_dd13.1.30.0.0.50_dh1.30.50.50.0_di5_qa_qb_dc2.1.1.1.1_eh1.370000_ea32.0B0C0D.4A0000.56.1.0_ec8.52.0B0C0D.4A0000.56.47.61.0_ed0.78.0.1.4A0000.56_ef5.2.5.56.4A0000.56_eg1.0.5.56.4A0000.56_r0012.56.370000.56.1.0.50.51.123.370.555.0_r0116.370000.56.56.1.0.64.69.157.626.541.1_r0212.370000.370000.56.1.0.50.50.126.396.553.0_r0312.370000.370000.56.2.1.80.52.112.547.479.0_fa2.60.60.74.40.50.56_fb_fh1_fc2.919191.55.2.919191.55.42.61.61.42.50.50_fd1.0.31.0B0C0D.56_fe54.62_ff0000000000_fg0.40_pa0.0.0.0.40.50.85.78.0.0_t00_pb_pc_pd_pe_ga0_gb1_gc44.0_ge0000000000_gh_gf_gg_gd10000000_ha83.83_hb50.0.0.100_hc0.58.29.0.58.29_hd31.1.75.80_ia_if_ib_id_ic_jc_ie_ja_jb_jd_je_jf_jg_ka_kb11.6.60.60_kc_kd_ke_kf_la_lb_oa_os_ob_oc_od_oe_of_lc_m00_n00_s00_og_oh_oo_op_oq_or_om_on_ok_ol_oi_oj_ad0.0.0.0.0.0.0.0.0.0
2-happy=47**aa10.47.0.42.43.10.47.0.42.43_ab_ac_ba50_bb5.1_bc150.500.8.0.1_bd92_be180_ca61.0.13.61.24.4.48.0.8_cb0_da1.0.0.100_db_dd9.1.30.0.0.50_dh1.30.50.50.0_di5_qa_qb_dc2.1.1.1.1_eh1.370000_ea32.0B0C0D.4A0000.56.1.0_ec8.52.0B0C0D.4A0000.56.47.61.0_ed0.78.0.1.4A0000.56_ef5.2.5.56.4A0000.56_eg1.0.5.56.4A0000.56_r0012.56.370000.56.1.0.50.51.123.370.555.0_r0116.370000.56.56.1.0.64.69.157.626.541.1_r0212.370000.370000.56.1.0.50.50.126.396.553.0_r0312.370000.370000.56.2.1.80.52.112.547.479.0_fa2.60.60.74.40.50.56_fb_fh1_fc2.919191.55.2.919191.55.42.61.61.42.50.50_fd1.0.31.0B0C0D.56_fe54.62_ff0000000000_fg0.40_pa0.0.0.0.40.50.85.78.0.0_t00_pb_pc_pd_pe_ga0_gb1_gc35.0_ge0000000000_gh_gf_gg1.55.50.50.50.1_gd10000000_ha77.77_hb43.0.86.100_hc0.0.0.0.0.0_hd25.1.100.50_ia_if_ib_id_ic_jc_ie_ja_jb_jd_je_jf_jg_ka_kb11.6.60.60_kc_kd_ke_kf_la_lb_oa_os_ob_oc_od_oe_of_lc_m00_n00_s00_og_oh_oo_op_oq_or_om_on_ok_ol_oi_oj_ad0.0.0.0.0.0.0.0.0.0
2-strip=47**aa26.81.1.16.75.26.81.1.16.75_ab_ac_ba50_bb45.1_bc150.500.8.0.1_bd45_be180_ca61.0.13.61.24.4.48.0.8_cb0_da1.0.0.100_db_dd13.1.30.0.0.50_dh1.30.50.50.0_di5_qa_qb_dc2.1.1.1.1_eh1.370000_ea32.0B0C0D.4A0000.56.1.0_ec8.52.0B0C0D.4A0000.56.47.61.0_ed0.78.0.1.4A0000.56_ef5.2.5.56.4A0000.56_eg1.0.5.56.4A0000.56_r0012.56.370000.56.1.0.50.51.123.370.555.0_r0116.370000.56.56.1.0.64.69.157.626.541.1_r0212.370000.370000.56.1.0.50.50.126.396.553.0_r0312.370000.370000.56.2.1.80.52.112.547.479.0_fa2.60.60.74.40.50.56_fb_fh1_fc2.919191.55.2.919191.55.42.61.61.42.50.50_fd1.0.31.0B0C0D.56_fe54.62_ff0000000000_fg0.40_pa0.0.0.0.40.50.85.78.0.0_t00_pb_pc_pd_pe_ga0_gb1_gc71.0_ge0000000000_gh_gf_gg_gd10000000_ha90.90_hb61.1.0.100_hc3.90.50.3.90.50_hd38.1.62.43_ia_if_ib_id_ic_jc_ie_ja_jb_jd_je_jf_jg_ka_kb11.6.60.60_kc_kd_ke_kf_la_lb_oa_os_ob_oc_od_oe_of_lc_m00_n00_s00_og_oh_oo_op_oq_or_om_on_ok_ol_oi_oj_ad0.0.0.0.0.0.0.0.0.0
2-stripped=47**aa13.66.1.28.31.13.66.1.28.31_ab_ac_ba50_bb43.1_bc150.500.8.0.1_bd43_be180_ca61.0.13.61.24.4.48.0.8_cb0_da1.0.0.100_db_dd10.1.30.0.0.50_dh1.30.50.50.0_di5_qa_qb_dc2.1.1.1.1_eh1.370000_ea32.0B0C0D.4A0000.56.1.0_ec8.52.0B0C0D.4A0000.56.47.61.0_ed0.78.0.1.4A0000.56_ef5.2.5.56.4A0000.56_eg1.0.5.56.4A0000.56_r0012.56.370000.56.1.0.50.51.123.370.555.0_r0116.370000.56.56.1.0.64.69.157.626.541.1_r0212.370000.370000.56.1.0.50.50.126.396.553.0_r0312.370000.370000.56.2.1.80.52.112.547.479.0_fa2.60.60.74.40.50.56_fb_fh1_fc2.919191.55.2.919191.55.42.61.61.42.50.50_fd1.0.31.0B0C0D.56_fe54.62_ff0000000000_fg0.40_pa0.0.0.0.40.50.85.78.0.0_t00_pb_pc_pd_pe_ga0_gb1_gc50.0_ge0000000000_gh_gf_gg_gd10000000_ha90.90_hb61.1.50.100_hc3.90.50.3.90.50_hd38.1.62.43_ia_if_ib_id_ic_jc_ie_ja_jb_jd_je_jf_jg_ka_kb11.6.60.60_kc_kd_ke_kf_la_lb_oa_os_ob_oc_od_oe_of_lc_m00_n00_s00_og_oh_oo_op_oq_or_om_on_ok_ol_oi_oj_ad0.0.0.0.0.0.0.0.0.0

3-loss=47**aa11.89.1.28.45.11.89.1.28.45_ab_ac_ba50_bb43.1_bc150.500.8.0.1_bd43_be180_ca61.0.13.61.24.4.48.0.8_cb0_da1.0.0.100_db_dd13.1.30.0.0.50_dh1.30.50.50.0_di5_qa_qb_dc2.1.1.1.1_eh1.370000_ea32.0B0C0D.4A0000.56.1.0_ec8.52.0B0C0D.4A0000.56.47.61.0_ed0.78.0.1.4A0000.56_ef5.2.5.56.4A0000.56_eg1.0.5.56.4A0000.56_r0012.56.370000.56.1.0.50.51.123.370.555.0_r0116.370000.56.56.1.0.64.69.157.626.541.1_r0212.370000.370000.56.1.0.50.50.126.396.553.0_r0312.370000.370000.56.2.1.80.52.112.547.479.0_fa2.60.60.74.40.50.56_fb_fh1_fc2.919191.55.2.919191.55.42.61.61.42.50.50_fd1.0.31.0B0C0D.56_fe54.62_ff0000000000_fg0.40_pa0.0.0.0.40.50.85.78.0.0_t00_pb_pc_pd_pe_ga0_gb1_gc76.0_ge0000000000_gh_gf_gg_gd10000000_ha95.95_hb61.1.50.100_hc3.90.41.3.90.41_hd31.1.62.75_ia_if_ib_id_ic_jc_ie_ja_jb_jd_je_jf_jg_ka_kb_kc_kd_ke_kf_la_lb_oa_os_ob_oc_od_oe_of_lc_m00_n00_s00_og_oh_oo_op_oq_or_om_on_ok_ol_oi_oj_ad0.0.0.0.0.0.0.0.0.0
3-excited=47**aa6.55.0.26.32.6.55.0.26.32_ab_ac_ba51_bb4.1_bc237.500.8.0.1_bd44_be180_ca61.0.13.61.24.4.48.0.8_cb0_da1.0.0.100_db_dd9.1.30.0.0.50_dh1.30.50.50.0_di5_qa_qb_dc2.1.1.1.1_eh1.370000_ea32.0B0C0D.4A0000.56.1.0_ec8.52.0B0C0D.4A0000.56.47.61.0_ed0.78.0.1.4A0000.56_ef5.2.5.56.4A0000.56_eg1.0.5.56.4A0000.56_r0012.56.370000.56.1.0.50.51.123.370.555.0_r0116.370000.56.56.1.0.64.69.157.626.541.1_r0212.370000.370000.56.1.0.50.50.126.396.553.0_r0312.370000.370000.56.2.1.80.52.112.547.479.0_fa2.60.60.74.40.50.56_fb_fh1_fc2.919191.55.2.919191.55.42.61.61.42.50.50_fd1.0.31.0B0C0D.56_fe54.62_ff0000000000_fg0.40_pa0.0.0.0.40.50.85.78.0.0_t00_pb_pc_pd_pe_ga0_gb1_gc35.0_ge0000000000_gh_gf_gg_gd10000000_ha100.100_hb61.1.50.99_hc0.51.17.0.51.17_hd24.1.62.43_ia_if_ib_id_ic_jc_ie_ja_jb_jd_je_jf_jg_ka_kb_kc_kd_ke_kf_la_lb_oa_os_ob_oc_od_oe_of_lc_m00_n00_s00_og_oh_oo_op_oq_or_om_on_ok_ol_oi_oj_ad0.0.0.0.0.0.0.0.0.0
3-appreciative=47**aa9.35.1.30.36.9.35.1.30.36_ab_ac_ba50_bb8.1_bc325.500.8.0.1_bd8_be180_ca61.0.13.61.24.4.48.0.8_cb0_da1.0.0.100_db_dd10.1.30.0.0.50_dh1.30.50.50.0_di5_qa_qb_dc2.1.1.1.1_eh1.370000_ea32.0B0C0D.4A0000.56.1.0_ec8.52.0B0C0D.4A0000.56.47.61.0_ed0.78.0.1.4A0000.56_ef5.2.5.56.4A0000.56_eg1.0.5.56.4A0000.56_r0012.56.370000.56.1.0.50.51.123.370.555.0_r0116.370000.56.56.1.0.64.69.157.626.541.1_r0212.370000.370000.56.1.0.50.50.126.396.553.0_r0312.370000.370000.56.2.1.80.52.112.547.479.0_fa2.60.60.74.40.50.56_fb_fh1_fc2.919191.55.2.919191.55.42.61.61.42.50.50_fd1.0.31.0B0C0D.56_fe54.62_ff0000000000_fg0.40_pa0.0.0.0.40.50.85.78.0.0_t00_pb_pc_pd_pe_ga0_gb1_gc35.0_ge0000000000_gh_gf_gg_gd10000000_ha0.0_hb62.1.50.100_hc0.36.29.0.36.29_hd35.1.100.96_ia_if_ib_id_ic_jc_ie_ja_jb_jd_je_jf_jg_ka_kb_kc_kd_ke_kf_la_lb_oa_os_ob_oc_od_oe_of_lc_m00_n00_s00_og_oh_oo_op_oq_or_om_on_ok_ol_oi_oj_ad0.0.0.0.0.0.0.0.0.0
3-interested=47**aa12.88.0.30.36.12.88.0.30.36_ab_ac_ba50_bb6.1_bc412.500.8.0.1_bd6_be180_ca61.0.13.61.24.4.48.0.8_cb0_da1.0.0.100_db_dd9.1.30.0.0.50_dh1.30.50.50.0_di5_qa_qb_dc2.1.1.1.1_eh1.370000_ea32.0B0C0D.4A0000.56.1.0_ec8.52.0B0C0D.4A0000.56.47.61.0_ed0.78.0.1.4A0000.56_ef5.2.5.56.4A0000.56_eg1.0.5.56.4A0000.56_r0012.56.370000.56.1.0.50.51.123.370.555.0_r0116.370000.56.56.1.0.64.69.157.626.541.1_r0212.370000.370000.56.1.0.50.50.126.396.553.0_r0312.370000.370000.56.2.1.80.52.112.547.479.0_fa2.60.60.74.40.50.56_fb_fh1_fc2.919191.55.2.919191.55.42.61.61.42.50.50_fd1.0.31.0B0C0D.56_fe54.62_ff0000000000_fg0.40_pa0.0.0.0.40.50.85.78.0.0_t00_pb_pc_pd_pe_ga0_gb1_gc35.0_ge0000000000_gh_gf_gg_gd10000000_ha90.90_hb61.1.50.99_hc0.0.13.0.20.23_hd23.1.61.43_ia_if_ib_id_ic_jc_ie_ja_jb_jd_je_jf_jg_ka_kb_kc_kd_ke_kf_la_lb_oa_os_ob_oc_od_oe_of_lc_m00_n00_s00_og_oh_oo_op_oq_or_om_on_ok_ol_oi_oj_ad0.0.0.0.0.0.0.0.0.0
3-calm=47**aa13.86.1.28.46.16.61.1.28.79_ab_ac_ba50_bb6.1_bc500.500.8.0.1_bd6_be180_ca61.0.13.61.24.4.48.0.8_cb0_da1.0.0.100_db_dd9.1.30.0.0.50_dh1.30.50.50.0_di5_qa_qb_dc2.1.1.1.1_eh1.370000_ea32.0B0C0D.4A0000.56.1.0_ec8.52.0B0C0D.4A0000.56.47.61.0_ed0.78.0.1.4A0000.56_ef5.2.5.56.4A0000.56_eg1.0.5.56.4A0000.56_r0012.56.370000.56.1.0.50.51.123.370.555.0_r0116.370000.56.56.1.0.64.69.157.626.541.1_r0212.370000.370000.56.1.0.50.50.126.396.553.0_r0312.370000.370000.56.2.1.80.52.112.547.479.0_fa2.60.60.74.40.50.56_fb_fh1_fc2.919191.55.2.919191.55.42.61.61.42.50.50_fd1.0.31.0B0C0D.56_fe54.62_ff0000000000_fg0.40_pa0.0.0.0.40.50.85.78.0.0_t00_pb_pc_pd_pe_ga0_gb1_gc25.0_ge0000000000_gh_gf_gg_gd10000000_ha90.90_hb61.1.50.100_hc0.71.18.0.71.18_hd35.1.62.60_ia_if_ib_id_ic_jc_ie_ja_jb_jd_je_jf_jg_ka_kb_kc_kd_ke_kf_la_lb_oa_os_ob_oc_od_oe_of_lc_m00_n00_s00_og_oh_oo_op_oq_or_om_on_ok_ol_oi_oj_ad0.0.0.0.0.0.0.0.0.0
3-angry=47**aa9.73.1.42.42.9.73.1.42.42_ab_ac_ba50_bb7.1_bc587.500.8.0.1_bd7_be180_ca61.0.13.61.24.4.48.0.8_cb0_da1.0.0.100_db_dd9.1.30.0.0.50_dh1.30.50.50.0_di5_qa_qb_dc2.1.1.1.1_eh1.370000_ea32.0B0C0D.4A0000.56.1.0_ec8.52.0B0C0D.4A0000.56.47.61.0_ed0.78.0.1.4A0000.56_ef5.2.5.56.4A0000.56_eg1.0.5.56.4A0000.56_r0012.56.370000.56.1.0.50.51.123.370.555.0_r0116.370000.56.56.1.0.64.69.157.626.541.1_r0212.370000.370000.56.1.0.50.50.126.396.553.0_r0312.370000.370000.56.2.1.80.52.112.547.479.0_fa2.60.60.74.40.50.56_fb_fh1_fc2.919191.55.2.919191.55.42.61.61.42.50.50_fd1.0.31.0B0C0D.56_fe54.62_ff0000000000_fg0.40_pa0.0.0.0.40.50.85.78.0.0_t00_pb_pc_pd_pe_ga0_gb1_gc25.0_ge0100000000_gh_gf_gg_gd10000000_ha90.90_hb58.1.59.100_hc2.17.20.2.24.4_hd50.1.30.54_ia_if_ib_id_ic_jc_ie_ja_jb_jd_je_jf_jg_ka_kb_kc_kd_ke_kf_la_lb_oa_os_ob_oc_od_oe_of_lc_m00_n00_s00_og_oh_oo_op_oq_or_om_on_ok_ol_oi_oj_ad0.0.0.0.0.0.0.0.0.0
3-sad=47**aa9.98.1.16.43.9.98.1.16.43_ab_ac_ba50_bb44.1_bc675.500.8.0.1_bd44_be180_ca61.0.13.61.24.4.48.0.8_cb0_da1.0.0.100_db_dd9.1.30.0.0.50_dh1.30.50.50.0_di5_qa_qb_dc2.1.1.1.1_eh1.370000_ea32.0B0C0D.4A0000.56.1.0_ec8.52.0B0C0D.4A0000.56.47.61.0_ed0.78.0.1.4A0000.56_ef5.2.5.56.4A0000.56_eg1.0.5.56.4A0000.56_r0012.56.370000.56.1.0.50.51.123.370.555.0_r0116.370000.56.56.1.0.64.69.157.626.541.1_r0212.370000.370000.56.1.0.50.50.126.396.553.0_r0312.370000.370000.56.2.1.80.52.112.547.479.0_fa2.60.60.74.40.50.56_fb_fh1_fc2.919191.55.2.919191.55.42.61.61.42.50.50_fd1.0.31.0B0C0D.56_fe54.62_ff0000000000_fg0.40_pa0.0.0.0.40.50.85.78.0.0_t00_pb_pc_pd_pe_ga0_gb1_gc35.0_ge1000000000_gh0_gf_gg12.55.50.50.50.1_gd10000000_ha94.94_hb0.0.0.53_hc0.72.29.0.72.29_hd31.1.100.100_ia_if_ib_id_ic_jc_ie_ja_jb_jd_je_jf_jg_ka_kb_kc_kd_ke_kf_la_lb_oa_os_ob_oc_od_oe_of_lc_m00_n00_s00_og_oh_oo_op_oq_or_om_on_ok_ol_oi_oj_ad0.0.0.0.0.0.0.0.0.0
3-shocked=47**aa21.52.1.28.50.21.52.1.28.50_ab_ac_ba50_bb5.1_bc762.500.8.0.1_bd5_be180_ca61.0.13.61.24.4.48.0.8_cb0_da1.0.0.100_db_dd9.1.30.0.0.50_dh1.30.50.50.0_di5_qa_qb_dc2.1.1.1.1_eh1.370000_ea32.0B0C0D.4A0000.56.1.0_ec8.52.0B0C0D.4A0000.56.47.61.0_ed0.78.0.1.4A0000.56_ef5.2.5.56.4A0000.56_eg1.0.5.56.4A0000.56_r0012.56.370000.56.1.0.50.51.123.370.555.0_r0116.370000.56.56.1.0.64.69.157.626.541.1_r0212.370000.370000.56.1.0.50.50.126.396.553.0_r0312.370000.370000.56.2.1.80.52.112.547.479.0_fa2.60.60.74.40.50.56_fb_fh1_fc2.919191.55.2.919191.55.42.61.61.42.50.50_fd1.0.31.0B0C0D.56_fe54.62_ff0000000000_fg0.40_pa0.0.0.0.40.50.85.78.0.0_t00_pb_pc_pd_pe_ga0_gb1_gc35.0_ge0001000000_gh_gf_gg_gd10000000_ha90.90_hb61.1.50.99_hc0.51.36.0.51.36_hd40.1.62.43_ia_if_ib_id_ic_jc_ie_ja_jb_jd_je_jf_jg_ka_kb_kc_kd_ke_kf_la_lb_oa_os_ob_oc_od_oe_of_lc_m00_n00_s00_og_oh_oo_op_oq_or_om_on_ok_ol_oi_oj_ad0.0.0.0.0.0.0.0.0.0
3-horny=47**aa9.96.1.16.52.9.96.1.16.52_ab_ac_ba50_bb44.1_bc850.500.8.0.1_bd44_be180_ca61.0.13.61.24.4.48.0.8_cb0_da1.0.0.100_db_dd13.1.30.0.0.50_dh1.30.50.50.0_di5_qa_qb_dc2.1.1.1.1_eh1.370000_ea32.0B0C0D.4A0000.56.1.0_ec8.52.0B0C0D.4A0000.56.47.61.0_ed0.78.0.1.4A0000.56_ef5.2.5.56.4A0000.56_eg1.0.5.56.4A0000.56_r0012.56.370000.56.1.0.50.51.123.370.555.0_r0116.370000.56.56.1.0.64.69.157.626.541.1_r0212.370000.370000.56.1.0.50.50.126.396.553.0_r0312.370000.370000.56.2.1.80.52.112.547.479.0_fa2.60.60.74.40.50.56_fb_fh1_fc2.919191.55.2.919191.55.42.61.61.42.50.50_fd1.0.31.0B0C0D.56_fe54.62_ff0000000000_fg0.40_pa0.0.0.0.40.50.85.78.0.0_t00_pb_pc_pd_pe_ga0_gb1_gc35.0_ge0000000000_gh_gf_gg_gd10000000_ha83.83_hb50.0.0.100_hc0.58.29.0.58.29_hd31.1.75.80_ia_if_ib_id_ic_jc_ie_ja_jb_jd_je_jf_jg_ka_kb_kc_kd_ke_kf_la_lb_oa_os_ob_oc_od_oe_of_lc_m00_n00_s00_og_oh_oo_op_oq_or_om_on_ok_ol_oi_oj_ad0.0.0.0.0.0.0.0.0.0
3-happy=47**aa10.47.0.42.43.10.47.0.42.43_ab_ac_ba50_bb5.1_bc150.500.8.0.1_bd92_be180_ca61.0.13.61.24.4.48.0.8_cb0_da1.0.0.100_db_dd9.1.30.0.0.50_dh1.30.50.50.0_di5_qa_qb_dc2.1.1.1.1_eh1.370000_ea32.0B0C0D.4A0000.56.1.0_ec8.52.0B0C0D.4A0000.56.47.61.0_ed0.78.0.1.4A0000.56_ef5.2.5.56.4A0000.56_eg1.0.5.56.4A0000.56_r0012.56.370000.56.1.0.50.51.123.370.555.0_r0116.370000.56.56.1.0.64.69.157.626.541.1_r0212.370000.370000.56.1.0.50.50.126.396.553.0_r0312.370000.370000.56.2.1.80.52.112.547.479.0_fa2.60.60.74.40.50.56_fb_fh1_fc2.919191.55.2.919191.55.42.61.61.42.50.50_fd1.0.31.0B0C0D.56_fe54.62_ff0000000000_fg0.40_pa0.0.0.0.40.50.85.78.0.0_t00_pb_pc_pd_pe_ga0_gb1_gc35.0_ge0000000000_gh_gf_gg1.0.50.50.50.1_gd10000000_ha77.77_hb43.0.86.100_hc0.0.0.0.0.0_hd25.1.100.50_ia_if_ib_id_ic_jc_ie_ja_jb_jd_je_jf_jg_ka_kb_kc_kd_ke_kf_la_lb_oa_os_ob_oc_od_oe_of_lc_m00_n00_s00_og_oh_oo_op_oq_or_om_on_ok_ol_oi_oj_ad0.0.0.0.0.0.0.0.0.0
3-stripped=47**aa8.90.1.28.62.8.90.1.28.62_ab_ac_ba50_bb6.1_bc237.500.8.0.1_bd6_be180_ca61.0.13.61.24.4.48.0.8_cb0_da1.0.0.100_db_dd13.1.30.0.0.50_dh1.30.50.50.0_di5_qa_qb_dc2.1.1.1.1_eh1.370000_ea32.0B0C0D.4A0000.56.1.0_ec8.52.0B0C0D.4A0000.56.47.61.0_ed0.78.0.1.4A0000.56_ef5.2.5.56.4A0000.56_eg1.0.5.56.4A0000.56_r0012.56.370000.56.1.0.50.51.123.370.555.0_r0116.370000.56.56.1.0.64.69.157.626.541.1_r0212.370000.370000.56.1.0.50.50.126.396.553.0_r0312.370000.370000.56.2.1.80.52.112.547.479.0_fa2.60.60.74.40.50.56_fb_fh1_fc2.919191.55.2.919191.55.42.61.61.42.50.50_fd1.0.31.0B0C0D.56_fe54.62_ff0000000000_fg0.40_pa0.0.0.0.40.50.85.78.0.0_t00_pb_pc_pd_pe_ga0_gb1_gc60.0_ge0000000000_gh_gf_gg_gd10000000_ha98.98_hb61.1.50.99_hc0.47.28.0.47.28_hd22.1.32.64_ia_if_ib_id_ic_jc_ie_ja_jb_jd_je_jf_jg_ka_kb_kc_kd_ke_kf_la_lb_oa_os_ob_oc_od_oe_of_lc_m00_n00_s00_og_oh_oo_op_oq_or_om_on_ok_ol_oi_oj_ad0.0.0.0.0.0.0.0.0.0

5-excited=47**aa6.55.0.26.32.6.55.0.26.32_ab_ac_ba51_bb4.1_bc150.500.8.0.1_bd44_be180_ca61.0.13.61.24.4.48.0.8_cb0_da1.0.0.100_db_dd9.1.30.0.0.50_dh1.30.50.50.0_di5_qa_qb_dc475.1.1.1.1_eh1.370000_ea32.0B0C0D.4A0000.56.1.0_ec8.52.0B0C0D.4A0000.56.47.61.0_ed0.78.0.1.4A0000.56_ef5.2.5.56.4A0000.56_eg1.0.5.56.4A0000.56_r0012.56.370000.56.1.0.50.51.123.370.555.0_r0116.370000.56.56.1.0.64.69.157.626.541.1_r0212.370000.370000.56.1.0.50.50.126.396.553.0_r0312.370000.370000.56.2.1.80.52.112.547.479.0_fa2.60.60.74.40.50.56_fb_fh1_fc2.919191.55.2.919191.55.42.61.61.42.50.50_fd1.0.31.0B0C0D.56_fe54.62_ff0000000000_fg0.40_pa0.0.0.0.40.50.85.78.0.0_t00_pb_pc_pd_pe_ga0_gb1_gc40.0_ge0000000000_gh_gf_gg_gd10000000_ha100.100_hb61.1.50.99_hc0.51.17.0.51.17_hd24.1.62.43_ia_if_ib_id_ic_jc_ie_ja_jb_jd_je_jf_jg_ka_kb_kc_kd_ke_kf_la_lb_oa_os_ob_oc_od_oe_of_lc_m00_n00_s00_og_oh_oo_op_oq_or_om_on_ok_ol_oi_oj_ad0.0.0.0.0.0.0.0.1.0
5-appreciative=47**aa9.35.1.30.36.9.35.1.30.36_ab_ac_ba50_bb8.1_bc237.500.8.0.1_bd8_be180_ca61.0.13.61.24.4.48.0.8_cb0_da1.0.0.100_db_dd9.1.30.0.0.50_dh1.30.50.50.0_di5_qa_qb_dc509.1.1.1.1_eh1.370000_ea32.0B0C0D.4A0000.56.1.0_ec8.52.0B0C0D.4A0000.56.47.61.0_ed0.78.0.1.4A0000.56_ef5.2.5.56.4A0000.56_eg1.0.5.56.4A0000.56_r0012.56.370000.56.1.0.50.51.123.370.555.0_r0116.370000.56.56.1.0.64.69.157.626.541.1_r0212.370000.370000.56.1.0.50.50.126.396.553.0_r0312.370000.370000.56.2.1.80.52.112.547.479.0_fa2.60.60.74.40.50.56_fb_fh1_fc2.919191.55.2.919191.55.42.61.61.42.50.50_fd1.0.31.0B0C0D.56_fe54.62_ff0000000000_fg0.40_pa0.0.0.0.40.50.85.78.0.0_t00_pb_pc_pd_pe_ga0_gb1_gc35.0_ge0000000000_gh_gf_gg_gd10000000_ha0.0_hb62.1.50.100_hc0.36.29.0.36.29_hd35.1.100.96_ia_if_ib_id_ic_jc_ie_ja_jb_jd_je_jf_jg_ka_kb_kc_kd_ke_kf_la_lb_oa_os_ob_oc_od_oe_of_lc_m00_n00_s00_og_oh_oo_op_oq_or_om_on_ok_ol_oi_oj_ad0.0.0.0.0.0.0.0.1.0
5-interested=47**aa12.88.0.30.36.12.88.0.30.36_ab_ac_ba50_bb6.1_bc325.500.8.0.1_bd6_be180_ca61.0.13.61.24.4.48.0.8_cb0_da1.0.0.100_db_dd9.1.30.0.0.50_dh1.30.50.50.0_di5_qa_qb_dc507.1.1.1.1_eh1.370000_ea32.0B0C0D.4A0000.56.1.0_ec8.52.0B0C0D.4A0000.56.47.61.0_ed0.78.0.1.4A0000.56_ef5.2.5.56.4A0000.56_eg1.0.5.56.4A0000.56_r0012.56.370000.56.1.0.50.51.123.370.555.0_r0116.370000.56.56.1.0.64.69.157.626.541.1_r0212.370000.370000.56.1.0.50.50.126.396.553.0_r0312.370000.370000.56.2.1.80.52.112.547.479.0_fa2.60.60.74.40.50.56_fb_fh1_fc2.919191.55.2.919191.55.42.61.61.42.50.50_fd1.0.31.0B0C0D.56_fe54.62_ff0000000000_fg0.40_pa0.0.0.0.40.50.85.78.0.0_t00_pb_pc_pd_pe_ga0_gb1_gc35.0_ge0000000000_gh_gf_gg_gd10000000_ha90.90_hb61.1.50.99_hc0.0.13.0.20.23_hd23.1.61.43_ia_if_ib_id_ic_jc_ie_ja_jb_jd_je_jf_jg_ka_kb_kc_kd_ke_kf_la_lb_oa_os_ob_oc_od_oe_of_lc_m00_n00_s00_og_oh_oo_op_oq_or_om_on_ok_ol_oi_oj_ad0.0.0.0.0.0.0.0.1.0
5-calm=47**aa9.100.1.0.47.9.100.1.0.47_ab_ac_ba50_bb6.1_bc412.500.8.0.1_bd6_be180_ca61.0.13.61.24.4.48.0.8_cb0_da1.0.0.100_db_dd9.1.30.0.0.50_dh1.30.50.50.0_di5_qa_qb_dc529.1.1.1.1_eh1.370000_ea32.0B0C0D.4A0000.56.1.0_ec8.52.0B0C0D.4A0000.56.47.61.0_ed0.78.0.1.4A0000.56_ef5.2.5.56.4A0000.56_eg1.0.5.56.4A0000.56_r0012.56.370000.56.1.0.50.51.123.370.555.0_r0116.370000.56.56.1.0.64.69.157.626.541.1_r0212.370000.370000.56.1.0.50.50.126.396.553.0_r0312.370000.370000.56.2.1.80.52.112.547.479.0_fa2.60.60.74.40.50.56_fb_fh1_fc2.919191.55.2.919191.55.42.61.61.42.50.50_fd1.0.31.0B0C0D.56_fe54.62_ff0000000000_fg0.40_pa0.0.0.0.40.50.85.78.0.0_t00_pb_pc_pd_pe_ga0_gb1_gc35.0_ge0000000000_gh_gf_gg_gd10000000_ha90.90_hb61.1.50.100_hc0.71.18.0.71.18_hd35.1.62.60_ia_if_ib_id_ic_jc_ie_ja_jb_jd_je_jf_jg_ka_kb_kc_kd_ke_kf_la_lb_oa_os_ob_oc_od_oe_of_lc_m00_n00_s00_og_oh_oo_op_oq_or_om_on_ok_ol_oi_oj_ad0.0.0.0.0.0.0.0.1.0
5-angry=47**aa9.73.1.42.42.9.73.1.42.42_ab_ac_ba50_bb7.1_bc500.500.8.0.1_bd7_be180_ca61.0.13.61.24.4.48.0.8_cb0_da1.0.0.100_db_dd9.1.30.0.0.50_dh1.30.50.50.0_di5_qa_qb_dc548.1.1.1.1_eh1.370000_ea32.0B0C0D.4A0000.56.1.0_ec8.52.0B0C0D.4A0000.56.47.61.0_ed0.78.0.1.4A0000.56_ef5.2.5.56.4A0000.56_eg1.0.5.56.4A0000.56_r0012.56.370000.56.1.0.50.51.123.370.555.0_r0116.370000.56.56.1.0.64.69.157.626.541.1_r0212.370000.370000.56.1.0.50.50.126.396.553.0_r0312.370000.370000.56.2.1.80.52.112.547.479.0_fa2.60.60.74.40.50.56_fb_fh1_fc2.919191.55.2.919191.55.42.61.61.42.50.50_fd1.0.31.0B0C0D.56_fe54.62_ff0000000000_fg0.40_pa0.0.0.0.40.50.85.78.0.0_t00_pb_pc_pd_pe_ga0_gb1_gc25.0_ge0100000000_gh_gf_gg_gd10000000_ha90.90_hb58.1.59.100_hc2.17.20.2.24.4_hd50.1.30.54_ia_if_ib_id_ic_jc_ie_ja_jb_jd_je_jf_jg_ka_kb_kc_kd_ke_kf_la_lb_oa_os_ob_oc_od_oe_of_lc_m00_n00_s00_og_oh_oo_op_oq_or_om_on_ok_ol_oi_oj_ad0.0.0.0.0.0.0.0.1.0
5-sad=47**aa9.98.1.16.43.9.98.1.16.43_ab_ac_ba50_bb44.1_bc587.500.8.0.1_bd44_be180_ca61.0.13.61.24.4.48.0.8_cb0_da1.0.0.100_db_dd9.1.30.0.0.50_dh1.30.50.50.0_di5_qa_qb_dc569.1.1.1.1_eh1.370000_ea32.0B0C0D.4A0000.56.1.0_ec8.52.0B0C0D.4A0000.56.47.61.0_ed0.78.0.1.4A0000.56_ef5.2.5.56.4A0000.56_eg1.0.5.56.4A0000.56_r0012.56.370000.56.1.0.50.51.123.370.555.0_r0116.370000.56.56.1.0.64.69.157.626.541.1_r0212.370000.370000.56.1.0.50.50.126.396.553.0_r0312.370000.370000.56.2.1.80.52.112.547.479.0_fa2.60.60.74.40.50.56_fb_fh1_fc2.919191.55.2.919191.55.42.61.61.42.50.50_fd1.0.31.0B0C0D.56_fe54.62_ff0000000000_fg0.40_pa0.0.0.0.40.50.85.78.0.0_t00_pb_pc_pd_pe_ga0_gb1_gc35.0_ge1000000000_gh0_gf_gg12.55.50.50.50.1_gd10000000_ha94.94_hb0.0.0.53_hc0.72.29.0.72.29_hd31.1.100.100_ia_if_ib_id_ic_jc_ie_ja_jb_jd_je_jf_jg_ka_kb_kc_kd_ke_kf_la_lb_oa_os_ob_oc_od_oe_of_lc_m00_n00_s00_og_oh_oo_op_oq_or_om_on_ok_ol_oi_oj_ad0.0.0.0.0.0.0.0.1.0
5-shocked=47**aa21.52.1.28.50.21.52.1.28.50_ab_ac_ba50_bb5.1_bc675.500.8.0.1_bd5_be180_ca61.0.13.61.24.4.48.0.8_cb0_da1.0.0.100_db_dd9.1.30.0.0.50_dh1.30.50.50.0_di5_qa_qb_dc615.1.1.1.1_eh1.370000_ea32.0B0C0D.4A0000.56.1.0_ec8.52.0B0C0D.4A0000.56.47.61.0_ed0.78.0.1.4A0000.56_ef5.2.5.56.4A0000.56_eg1.0.5.56.4A0000.56_r0012.56.370000.56.1.0.50.51.123.370.555.0_r0116.370000.56.56.1.0.64.69.157.626.541.1_r0212.370000.370000.56.1.0.50.50.126.396.553.0_r0312.370000.370000.56.2.1.80.52.112.547.479.0_fa2.60.60.74.40.50.56_fb_fh1_fc2.919191.55.2.919191.55.42.61.61.42.50.50_fd1.0.31.0B0C0D.56_fe54.62_ff0000000000_fg0.40_pa0.0.0.0.40.50.85.78.0.0_t00_pb_pc_pd_pe_ga0_gb1_gc35.0_ge0001000000_gh_gf_gg_gd10000000_ha90.90_hb61.1.50.99_hc0.51.36.0.51.36_hd40.1.62.43_ia_if_ib_id_ic_jc_ie_ja_jb_jd_je_jf_jg_ka_kb_kc_kd_ke_kf_la_lb_oa_os_ob_oc_od_oe_of_lc_m00_n00_s00_og_oh_oo_op_oq_or_om_on_ok_ol_oi_oj_ad0.0.0.0.0.0.0.0.1.0
5-horny=47**aa9.96.1.16.52.9.96.1.16.52_ab_ac_ba50_bb44.1_bc762.500.8.0.1_bd44_be180_ca61.0.13.61.24.4.48.0.8_cb0_da1.0.0.100_db_dd13.1.30.0.0.50_dh1.30.50.50.0_di5_qa_qb_dc634.1.1.1.1_eh1.370000_ea32.0B0C0D.4A0000.56.1.0_ec8.52.0B0C0D.4A0000.56.47.61.0_ed0.78.0.1.4A0000.56_ef5.2.5.56.4A0000.56_eg1.0.5.56.4A0000.56_r0012.56.370000.56.1.0.50.51.123.370.555.0_r0116.370000.56.56.1.0.64.69.157.626.541.1_r0212.370000.370000.56.1.0.50.50.126.396.553.0_r0312.370000.370000.56.2.1.80.52.112.547.479.0_fa2.60.60.74.40.50.56_fb_fh1_fc2.919191.55.2.919191.55.42.61.61.42.50.50_fd1.0.31.0B0C0D.56_fe54.62_ff0000000000_fg0.40_pa0.0.0.0.40.50.85.78.0.0_t00_pb_pc_pd_pe_ga0_gb1_gc35.0_ge0000000000_gh_gf_gg_gd10000000_ha83.83_hb50.0.0.100_hc0.58.29.0.58.29_hd31.1.75.80_ia_if_ib_id_ic_jc_ie_ja_jb_jd_je_jf_jg_ka_kb_kc_kd_ke_kf_la_lb_oa_os_ob_oc_od_oe_of_lc_m00_n00_s00_og_oh_oo_op_oq_or_om_on_ok_ol_oi_oj_ad0.0.0.0.0.0.0.0.1.0
5-happy=47**aa10.47.0.42.43.10.47.0.42.43_ab_ac_ba50_bb5.1_bc850.500.8.0.1_bd92_be180_ca61.0.13.61.24.4.48.0.8_cb0_da1.0.0.100_db_dd9.1.30.0.0.50_dh1.30.50.50.0_di5_qa_qb_dc677.1.1.1.1_eh1.370000_ea32.0B0C0D.4A0000.56.1.0_ec8.52.0B0C0D.4A0000.56.47.61.0_ed0.78.0.1.4A0000.56_ef5.2.5.56.4A0000.56_eg1.0.5.56.4A0000.56_r0012.56.370000.56.1.0.50.51.123.370.555.0_r0116.370000.56.56.1.0.64.69.157.626.541.1_r0212.370000.370000.56.1.0.50.50.126.396.553.0_r0312.370000.370000.56.2.1.80.52.112.547.479.0_fa2.60.60.74.40.50.56_fb_fh1_fc2.919191.55.2.919191.55.42.61.61.42.50.50_fd1.0.31.0B0C0D.56_fe54.62_ff0000000000_fg0.40_pa0.0.0.0.40.50.85.78.0.0_t00_pb_pc_pd_pe_ga0_gb1_gc35.0_ge0000000000_gh_gf_gg1.0.50.50.50.1_gd10000000_ha77.77_hb43.0.86.100_hc0.0.0.0.0.0_hd25.1.100.50_ia_if_ib_id_ic_jc_ie_ja_jb_jd_je_jf_jg_ka_kb_kc_kd_ke_kf_la_lb_oa_os_ob_oc_od_oe_of_lc_m00_n00_s00_og_oh_oo_op_oq_or_om_on_ok_ol_oi_oj_ad0.0.0.0.0.0.0.0.1.0

3-starting=47***aa11.61.1.47.34.11.61.1.47.35_ab_ac_ba50_bb62.1_bc185.200.0.0.1_bd62_be180_ca56.0.36.75.15.34.34.0.10_cb0_da1.0.0.100_db_dd0.3.0.9.17.50_dh1.30.50.50.0_di7_qa_qb_dc2735.3.1.1.1_eh_ea27.55.55.55.1.0_ec7.11.55.55.55.47.64.0_ed0.37.1.1.55.56_ef_eg_r00_fa4.76.87.73.32.65.56_fb7_fh1_fc0.FFDA00.55.0.FFDA00.55.37.61.61.37.48.50_fd1.0.36.55.56_fe50.73_ff0000000000_fg0.52_pa0.0.0.0.40.50.85.85.0.0_t00_pb0.54.54.0_pc_pd_pe_ga0_gb1_gc68.0_ge0000000000_gh_gf_gg_gd11000000_ha72.72_hb50.1.50.99_hc1.43.3.1.43.3_hd38.1.60.38_ia_if_ib_id_ic_jc_ie_ja_jb_jd_je_jf_jg_ka_kb_kc_kd_ke_kf_la_lb_oa_os_ob_oc_od_oe_of_lc_m00_n00_s00_og_oh_oo_op_oq_or_om_on_ok_ol_oi_oj_ad1.1.1.1.1.1.1.1.1.1*0*0*0*0*0*0*0*0#/]a00_b00_c00_d00_w00_x00_e00_y00_z00_ua1.55.0.0.100_uf0.3.0.0_ue_ub_u0_v0_uc7.0.30_ud7.8
3-starting=47**aa18.78.1.28.80.18.78.1.28.80_ab_ac_ba50_bb66.1_bc325.500.8.0.1_bd66_be180_ca61.0.13.61.24.4.48.0.8_cb0_da1.0.0.100_db_dd13.1.30.0.0.50_dh1.30.50.50.0_di5_qa_qb_dc2.1.1.1.1_eh1.370000_ea32.0B0C0D.4A0000.56.1.0_ec8.52.0B0C0D.4A0000.56.47.61.0_ed0.78.0.1.4A0000.56_ef5.2.5.56.4A0000.56_eg1.0.5.56.4A0000.56_r0012.56.370000.56.1.0.50.51.123.370.555.0_r0116.370000.56.56.1.0.64.69.157.626.541.1_r0212.370000.370000.56.1.0.50.50.126.396.553.0_r0312.370000.370000.56.2.1.80.52.112.547.479.0_fa2.60.60.74.40.50.56_fb_fh1_fc2.919191.55.2.919191.55.42.61.61.42.50.50_fd1.0.31.0B0C0D.56_fe54.62_ff0000000000_fg0.40_pa0.0.0.0.40.50.85.78.0.0_t00_pb_pc_pd_pe_ga0_gb1_gc60.0_ge0000000000_gh_gf_gg_gd10000000_ha90.90_hb60.1.0.99_hc0.47.28.0.47.28_hd22.1.32.64_ia_if_ib_id_ic_jc_ie_ja_jb_jd_je_jf_jg_ka_kb_kc_kd_ke_kf_la_lb_oa_os_ob_oc_od_oe_of_lc_m00_n00_s00_og_oh_oo_op_oq_or_om_on_ok_ol_oi_oj_ad0.0.0.0.0.0.0.0.0.0

4-excited=47**aa20.76.1.28.80.16.64.1.4.61_ab_ac_ba50_bb66.1_bc150.500.8.0.1_bd66_be180_ca61.0.13.61.24.4.48.0.8_cb0_da1.0.0.100_db_dd13.1.30.0.0.50_dh1.30.50.50.0_di5_qa_qb_dc2.1.1.1.1_eh1.370000_ea32.0B0C0D.4A0000.56.1.0_ec8.52.0B0C0D.4A0000.56.47.61.0_ed0.78.0.1.4A0000.56_ef5.2.5.56.4A0000.56_eg1.0.5.56.4A0000.56_r0012.56.370000.56.1.0.50.51.123.370.555.0_r0116.370000.56.56.1.0.64.69.157.626.541.1_r0212.370000.370000.56.1.0.50.50.126.396.553.0_r0312.370000.370000.56.2.1.80.52.112.547.479.0_fa2.60.60.74.40.50.56_fb_fh1_fc2.919191.55.2.919191.55.42.61.61.42.50.50_fd1.0.31.0B0C0D.56_fe54.62_ff0000000000_fg0.40_pa0.0.0.0.40.50.85.78.0.0_t00_pb_pc_pd_pe_ga0_gb1_gc60.0_ge0000000000_gh_gf_gg_gd10000000_ha90.90_hb60.1.50.99_hc0.47.16.0.47.16_hd25.1.48.68_ia_if_ib_id_ic_jc_ie_ja_jb_jd_je_jf_jg_ka_kb_kc_kd_ke_kf_la_lb_oa_os_ob_oc_od_oe_of_lc_m00_n00_s00_og_oh_oo_op_oq_or_om_on_ok_ol_oi_oj_ad0.0.0.0.0.0.0.0.0.0
4-appreciative=47**aa24.76.1.28.62.20.56.1.16.47_ab_ac_ba50_bb62.1_bc237.500.8.0.1_bd64_be180_ca61.0.13.61.24.4.48.0.8_cb0_da1.0.0.100_db_dd13.1.30.0.0.50_dh1.30.50.50.0_di5_qa_qb_dc2.1.1.1.1_eh1.370000_ea32.0B0C0D.4A0000.56.1.0_ec8.52.0B0C0D.4A0000.56.47.61.0_ed0.78.0.1.4A0000.56_ef5.2.5.56.4A0000.56_eg1.0.5.56.4A0000.56_r0012.56.370000.56.1.0.50.51.123.370.555.0_r0116.370000.56.56.1.0.64.69.157.626.541.1_r0212.370000.370000.56.1.0.50.50.126.396.553.0_r0312.370000.370000.56.2.1.80.52.112.547.479.0_fa2.60.60.74.40.50.56_fb_fh1_fc2.919191.55.2.919191.55.42.61.61.42.50.50_fd1.0.31.0B0C0D.56_fe54.62_ff0000000000_fg0.40_pa0.0.0.0.40.50.85.78.0.0_t00_pb_pc_pd_pe_ga0_gb1_gc60.0_ge0000000000_gh_gf_gg_gd10000000_ha90.90_hb60.1.50.99_hc0.47.16.0.47.16_hd35.1.48.68_ia_if_ib_id_ic_jc_ie_ja_jb_jd_je_jf_jg_ka_kb_kc_kd_ke_kf_la_lb_oa_os_ob_oc_od_oe_of_lc_m00_n00_s00_og_oh_oo_op_oq_or_om_on_ok_ol_oi_oj_ad0.0.0.0.0.0.0.0.0.0
4-interested=47**aa24.76.1.28.62.24.76.1.28.62_ab_ac_ba50_bb64.0_bc325.500.8.0.1_bd61_be180_ca61.0.13.61.24.4.48.0.8_cb0_da1.0.0.100_db_dd13.1.30.0.0.50_dh1.30.50.50.0_di5_qa_qb_dc2.1.1.1.1_eh1.370000_ea32.0B0C0D.4A0000.56.1.0_ec8.52.0B0C0D.4A0000.56.47.61.0_ed0.78.0.1.4A0000.56_ef5.2.5.56.4A0000.56_eg1.0.5.56.4A0000.56_r0012.56.370000.56.1.0.50.51.123.370.555.0_r0116.370000.56.56.1.0.64.69.157.626.541.1_r0212.370000.370000.56.1.0.50.50.126.396.553.0_r0312.370000.370000.56.2.1.80.52.112.547.479.0_fa2.60.60.74.40.50.56_fb_fh1_fc2.919191.55.2.919191.55.42.61.61.42.50.50_fd1.0.31.0B0C0D.56_fe54.62_ff0000000000_fg0.40_pa0.0.0.0.40.50.85.78.0.0_t00_pb_pc_pd_pe_ga0_gb1_gc60.0_ge0000000000_gh_gf_gg_gd10000000_ha100.100_hb61.1.50.99_hc0.51.17.0.51.17_hd24.1.62.43_ia_if_ib_id_ic_jc_ie_ja_jb_jd_je_jf_jg_ka_kb_kc_kd_ke_kf_la_lb_oa_os_ob_oc_od_oe_of_lc_m00_n00_s00_og_oh_oo_op_oq_or_om_on_ok_ol_oi_oj_ad0.0.0.0.0.0.0.0.0.0
4-calm=47**aa21.81.1.17.46.22.81.1.28.34_ab_ac_ba50_bb65.1_bc412.500.8.0.1_bd65_be180_ca61.0.13.61.24.4.48.0.8_cb0_da1.0.0.100_db_dd10.1.30.0.0.50_dh1.30.50.50.0_di5_qa_qb_dc2.1.1.1.1_eh1.370000_ea32.0B0C0D.4A0000.56.1.0_ec8.52.0B0C0D.4A0000.56.47.61.0_ed0.78.0.1.4A0000.56_ef5.2.5.56.4A0000.56_eg1.0.5.56.4A0000.56_r0012.56.370000.56.1.0.50.51.123.370.555.0_r0116.370000.56.56.1.0.64.69.157.626.541.1_r0212.370000.370000.56.1.0.50.50.126.396.553.0_r0312.370000.370000.56.2.1.80.52.112.547.479.0_fa2.60.60.74.40.50.56_fb_fh1_fc2.919191.55.2.919191.55.42.61.61.42.50.50_fd1.0.31.0B0C0D.56_fe54.62_ff0000000000_fg0.40_pa0.0.0.0.40.50.85.78.0.0_t00_pb_pc_pd_pe_ga0_gb1_gc35.0_ge0000000000_gh_gf_gg_gd10000000_ha90.90_hb55.1.0.100_hc4.47.41.4.47.41_hd22.1.51.36_ia_if_ib_id_ic_jc_ie_ja_jb_jd_je_jf_jg_ka_kb_kc_kd_ke_kf_la_lb_oa_os_ob_oc_od_oe_of_lc_m00_n00_s00_og_oh_oo_op_oq_or_om_on_ok_ol_oi_oj_ad0.0.0.0.0.0.0.0.0.0
4-angry=47**aa18.60.1.28.72.21.78.1.28.56_ab_ac_ba50_bb64.1_bc500.500.8.0.1_bd62_be180_ca61.0.13.61.24.4.48.0.8_cb0_da1.0.0.100_db_dd10.1.30.0.0.50_dh1.30.50.50.0_di5_qa_qb_dc2.1.1.1.1_eh1.370000_ea32.0B0C0D.4A0000.56.1.0_ec8.52.0B0C0D.4A0000.56.47.61.0_ed0.78.0.1.4A0000.56_ef5.2.5.56.4A0000.56_eg1.0.5.56.4A0000.56_r0012.56.370000.56.1.0.50.51.123.370.555.0_r0116.370000.56.56.1.0.64.69.157.626.541.1_r0212.370000.370000.56.1.0.50.50.126.396.553.0_r0312.370000.370000.56.2.1.80.52.112.547.479.0_fa2.60.60.74.40.50.56_fb_fh1_fc2.919191.55.2.919191.55.42.61.61.42.50.50_fd1.0.31.0B0C0D.56_fe54.62_ff0000000000_fg0.40_pa0.0.0.0.40.50.85.78.0.0_t00_pb_pc_pd_pe_ga0_gb1_gc35.0_ge0100000000_gh_gf_gg_gd10000000_ha90.90_hb58.1.59.100_hc2.17.20.2.24.4_hd50.1.30.54_ia_if_ib_id_ic_jc_ie_ja_jb_jd_je_jf_jg_ka_kb_kc_kd_ke_kf_la_lb_oa_os_ob_oc_od_oe_of_lc_m00_n00_s00_og_oh_oo_op_oq_or_om_on_ok_ol_oi_oj_ad0.0.0.0.0.0.0.0.0.0
4-sad=47**aa18.61.1.28.62.18.61.1.28.62_ab_ac_ba50_bb98.0_bc587.500.8.0.1_bd98_be180_ca61.0.13.61.24.4.48.0.8_cb0_da1.0.0.100_db_dd13.1.30.0.0.50_dh1.30.50.50.0_di5_qa_qb_dc2.1.1.1.1_eh1.370000_ea32.0B0C0D.4A0000.56.1.0_ec8.52.0B0C0D.4A0000.56.47.61.0_ed0.78.0.1.4A0000.56_ef5.2.5.56.4A0000.56_eg1.0.5.56.4A0000.56_r0012.56.370000.56.1.0.50.51.123.370.555.0_r0116.370000.56.56.1.0.64.69.157.626.541.1_r0212.370000.370000.56.1.0.50.50.126.396.553.0_r0312.370000.370000.56.2.1.80.52.112.547.479.0_fa2.60.60.74.40.50.56_fb_fh1_fc2.919191.55.2.919191.55.42.61.61.42.50.50_fd1.0.31.0B0C0D.56_fe54.62_ff0000000000_fg0.40_pa0.0.0.0.40.50.85.78.0.0_t00_pb_pc_pd_pe_ga0_gb1_gc35.0_ge1000000000_gh0_gf_gg_gd10000000_ha81.81_hb61.1.0.99_hc0.51.17.0.51.17_hd9.1.62.82_ia_if_ib_id_ic_jc_ie_ja_jb_jd_je_jf_jg_ka_kb_kc_kd_ke_kf_la_lb_oa_os_ob_oc_od_oe_of_lc_m00_n00_s00_og_oh_oo_op_oq_or_om_on_ok_ol_oi_oj_ad0.0.0.0.0.0.0.0.0.0
4-shocked=47**aa16.64.1.4.60.21.78.1.28.56_ab_ac_ba65_bb65.1_bc675.500.8.0.1_bd60_be180_ca61.0.13.61.24.4.48.0.8_cb0_da1.0.0.100_db_dd10.1.30.0.0.50_dh1.30.50.50.0_di5_qa_qb_dc2.1.1.1.1_eh1.370000_ea32.0B0C0D.4A0000.56.1.0_ec8.52.0B0C0D.4A0000.56.47.61.0_ed0.78.0.1.4A0000.56_ef5.2.5.56.4A0000.56_eg1.0.5.56.4A0000.56_r0012.56.370000.56.1.0.50.51.123.370.555.0_r0116.370000.56.56.1.0.64.69.157.626.541.1_r0212.370000.370000.56.1.0.50.50.126.396.553.0_r0312.370000.370000.56.2.1.80.52.112.547.479.0_fa2.60.60.74.40.50.56_fb_fh1_fc2.919191.55.2.919191.55.42.61.61.42.50.50_fd1.0.31.0B0C0D.56_fe54.62_ff0000000000_fg0.40_pa0.0.0.0.40.50.85.78.0.0_t00_pb_pc_pd_pe_ga0_gb1_gc35.0_ge0000100000_gh_gf_gg_gd10000000_ha90.90_hb58.1.59.100_hc0.47.20.0.47.20_hd43.1.30.54_ia_if_ib_id_ic_jc_ie_ja_jb_jd_je_jf_jg_ka_kb_kc_kd_ke_kf_la_lb_oa_os_ob_oc_od_oe_of_lc_m00_n00_s00_og_oh_oo_op_oq_or_om_on_ok_ol_oi_oj_ad0.0.0.0.0.0.0.0.0.0
4-horny=47**aa27.54.1.26.42.22.79.1.28.46_ab_ac_ba50_bb66.1_bc762.500.8.0.1_bd66_be180_ca61.0.13.61.24.4.48.0.8_cb0_da1.0.0.100_db_dd13.1.30.0.0.50_dh1.30.50.50.0_di5_qa_qb_dc2.1.1.1.1_eh1.370000_ea32.0B0C0D.4A0000.56.1.0_ec8.52.0B0C0D.4A0000.56.47.61.0_ed0.78.0.1.4A0000.56_ef5.2.5.56.4A0000.56_eg1.0.5.56.4A0000.56_r0012.56.370000.56.1.0.50.51.123.370.555.0_r0116.370000.56.56.1.0.64.69.157.626.541.1_r0212.370000.370000.56.1.0.50.50.126.396.553.0_r0312.370000.370000.56.2.1.80.52.112.547.479.0_fa2.60.60.74.40.50.56_fb_fh1_fc2.919191.55.2.919191.55.42.61.61.42.50.50_fd1.0.31.0B0C0D.56_fe54.62_ff0000000000_fg0.40_pa0.0.0.0.40.50.85.78.0.0_t00_pb_pc_pd_pe_ga0_gb1_gc67.0_ge0000000000_gh_gf_gg_gd10000000_ha88.88_hb55.1.50.100_hc0.47.17.0.47.17_hd22.1.51.36_ia_if_ib_id_ic_jc_ie_ja_jb_jd_je_jf_jg_ka_kb_kc_kd_ke_kf_la_lb_oa_os_ob_oc_od_oe_of_lc_m00_n00_s00_og_oh_oo_op_oq_or_om_on_ok_ol_oi_oj_ad0.0.0.0.0.0.0.0.0.0
4-happy=47**aa27.42.1.42.57.20.79.1.28.57_ab_ac_ba50_bb60.1_bc850.500.8.0.1_bd64_be180_ca61.0.13.61.24.4.48.0.8_cb0_da1.0.0.100_db_dd13.1.30.0.0.50_dh1.30.50.50.0_di5_qa_qb_dc2.1.1.1.1_eh1.370000_ea32.0B0C0D.4A0000.56.1.0_ec8.52.0B0C0D.4A0000.56.47.61.0_ed0.78.0.1.4A0000.56_ef5.2.5.56.4A0000.56_eg1.0.5.56.4A0000.56_r0012.56.370000.56.1.0.50.51.123.370.555.0_r0116.370000.56.56.1.0.64.69.157.626.541.1_r0212.370000.370000.56.1.0.50.50.126.396.553.0_r0312.370000.370000.56.2.1.80.52.112.547.479.0_fa2.60.60.74.40.50.56_fb_fh1_fc2.919191.55.2.919191.55.42.61.61.42.50.50_fd1.0.31.0B0C0D.56_fe54.62_ff0000000000_fg0.40_pa0.0.0.0.40.50.85.78.0.0_t00_pb_pc_pd_pe_ga0_gb1_gc67.0_ge0000000000_gh_gf_gg_gd10000000_ha88.88_hb55.1.50.100_hc0.47.29.0.47.29_hd35.1.51.90_ia_if_ib_id_ic_jc_ie_ja_jb_jd_je_jf_jg_ka_kb_kc_kd_ke_kf_la_lb_oa_os_ob_oc_od_oe_of_lc_m00_n00_s00_og_oh_oo_op_oq_or_om_on_ok_ol_oi_oj_ad0.0.0.0.0.0.0.0.0.0
4-heavy=47**aa11.66.1.17.46.17.79.1.28.87_ab_ac_ba50_bb64.1_bc150.500.8.0.1_bd64_be180_ca61.0.13.61.24.4.48.0.8_cb0_da1.0.0.100_db_dd10.1.30.0.0.50_dh1.30.50.50.0_di5_qa_qb_dc2.1.1.1.1_eh1.370000_ea32.0B0C0D.4A0000.56.1.0_ec8.52.0B0C0D.4A0000.56.47.61.0_ed0.78.0.1.4A0000.56_ef5.2.5.56.4A0000.56_eg1.0.5.56.4A0000.56_r0012.56.370000.56.1.0.50.51.123.370.555.0_r0116.370000.56.56.1.0.64.69.157.626.541.1_r0212.370000.370000.56.1.0.50.50.126.396.553.0_r0312.370000.370000.56.2.1.80.52.112.547.479.0_fa2.60.60.74.40.50.56_fb_fh1_fc2.919191.55.2.919191.55.42.61.61.42.50.50_fd1.0.31.0B0C0D.56_fe54.62_ff0000000000_fg0.40_pa0.0.0.0.40.50.85.78.0.0_t00_pb_pc_pd_pe_ga0_gb1_gc35.0_ge0000000000_gh_gf_gg_gd10010010_ha93.93_hb55.1.0.100_hc4.47.41.4.47.41_hd22.1.51.36_ia_if_ib_id_ic_jc_ie_ja_jb_jd_je_jf_jg_ka_kb_kc_kd_ke_kf_la_lb_oa_os_ob_oc_od_oe_of_lc_m00_n00_s00_og_oh_oo_op_oq_or_om_on_ok_ol_oi_oj_ad0.0.0.0.0.0.0.0.0.0
4-finishing=47**aa25.95.1.4.100.22.78.1.28.47_ab_ac_ba46_bb62.0_bc237.500.8.0.1_bd64_be183_ca61.0.13.61.24.4.48.0.8_cb0_da1.0.0.100_db_dd10.1.30.0.0.50_dh1.30.50.50.0_di5_qa_qb_dc438.1.1.1.1_eh1.370000_ea32.0B0C0D.4A0000.56.1.0_ec8.52.0B0C0D.4A0000.56.47.61.0_ed0.78.0.1.4A0000.56_ef5.2.5.56.4A0000.56_eg1.0.5.56.4A0000.56_r0012.56.370000.56.1.0.50.51.123.370.555.0_r0116.370000.56.56.1.0.64.69.157.626.541.1_r0212.370000.370000.56.1.0.50.50.126.396.553.0_r0312.370000.370000.56.2.1.80.52.112.547.479.0_fa2.60.60.74.40.50.56_fb_fh1_fc2.919191.55.2.919191.55.24.61.61.24.50.50_fd1.0.31.0B0C0D.56_fe54.62_ff0000000000_fg0.40_pa0.0.0.0.40.50.85.78.0.0_t00_pb_pc_pd_pe_ga0_gb1_gc35.0_ge0000000000_gh_gf_gg_gd11010000_ha96.96_hb58.1.0.100_hc3.48.42.3.48.42_hd40.1.58.73_ia_if_ib_id_ic_jc_ie_ja_jb_jd_je_jf_jg_ka_kb_kc_kd_ke_kf_la_lb_oa_os_ob_oc_od_oe_of_lc_m00_n00_s00_og_oh_oo_op_oq_or_om_on_ok_ol_oi_oj_ad0.0.0.0.0.0.0.0.1.0
5-finished=47**aa9.57.1.16.39.9.57.1.16.39_ab_ac_ba50_bb98.1_bc150.500.8.0.1_bd98_be180_ca61.0.13.61.24.4.48.0.8_cb0_da1.0.0.100_db_dd10.1.30.0.0.50_dh1.30.50.50.0_di5_qa_qb_dc2022.1.1.1.1_eh1.370000_ea32.0B0C0D.4A0000.56.1.0_ec8.52.0B0C0D.4A0000.56.47.61.0_ed0.78.0.1.4A0000.56_ef5.2.5.56.4A0000.56_eg1.0.5.56.4A0000.56_r0012.56.370000.56.1.0.50.51.123.370.555.0_r0116.370000.56.56.1.0.64.69.157.626.541.1_r0212.370000.370000.56.1.0.50.50.126.396.553.0_r0312.370000.370000.56.2.1.80.52.112.547.479.0_fa2.60.60.74.40.50.56_fb_fh1_fc2.919191.55.2.919191.55.42.61.61.42.50.50_fd1.0.31.0B0C0D.56_fe54.62_ff0000000000_fg0.40_pa0.0.0.0.40.50.85.78.0.0_t00_pb_pc_pd_pe_ga0_gb1_gc61.0_ge0000000000_gh_gf_gg_gd10000000_ha90.90_hb61.1.50.100_hc0.40.18.0.40.18_hd31.1.62.67_ia_if_ib_id_ic_jc_ie_ja_jb_jd_je_jf_jg_ka_kb_kc_kd_ke_kf_la_lb_oa_os_ob_oc_od_oe_of_lc_m00_n00_s00_og_oh_oo_op_oq_or_om_on_ok_ol_oi_oj_ad0.0.0.0.0.0.0.0.1.0

