
#clothed
0-loss=47**aa16.80.0.0.50.16.80.0.0.50_ab_ac_ba50_bb6.1_bc150.500.8.0.1_bd6_be180_ca57.0.42.75.15.27.30.0.20_cb0_da0.0.0.100_db0.0_dd0.0.34.50.52.50_dh0.35.50.50.0_di8_qa_qb_dc28.1.0.0.0_eh1.F63BC5_ea32.F63BC5.F63BC5.56.0.0_ec20.36.F63BC5.F63BC5.56.40.65.0_ed41.50.1.1.F63BC5.56_ef_eg_r0034.F63BC5.F63BC5.56.2.2.50.50.360.497.620.0_fa2.50.50.60.50.65.56_fb_fh_fc3.34.55.3.34.55.50.61.61.50.50.50_fd1.0.50.F63BC5.56_fe58.61_ff0000000000_fg0.50_pa13.F63BC5.24.0.40.58.100.41.0.0_t00_pb_pc_pd_pe_ga0_gb1_gc0.15_ge0000000000_gh_gf_gg_gd10000000_ha87.87_hb50.1.50.100_hc3.50.7.3.50.7_hd5.0.49.49_ia_if_ib_id_ic_jc_ie_ja_jb_jd2.3.3.57_je2.3.3.57_jf_jg_ka9.3.59.1.0_kb9.3.59.1_kc_kd_ke_kf_la11.ba2636.55.0.1_lb_oa_os_ob_oc_od_oe_of_lc_m00_n00_s00_og_oh_oo_op_oq_or_om_on_ok_ol_oi_oj_ad0.0.0.0.0.0.0.0.0.0
0-awkward=47**aa11.59.1.16.50.11.59.1.16.50_ab_ac_ba50_bb6.1_bc237.500.8.0.1_bd6_be180_ca57.0.42.75.15.27.30.0.20_cb0_da0.0.0.100_db0.0_dd0.0.34.50.52.50_dh0.35.50.50.0_di8_qa_qb_dc28.1.0.0.0_eh1.F63BC5_ea32.F63BC5.F63BC5.56.0.0_ec20.36.F63BC5.F63BC5.56.40.65.0_ed41.50.1.1.F63BC5.56_ef_eg_r0034.F63BC5.F63BC5.56.2.2.50.50.360.497.620.0_fa2.50.50.60.50.65.56_fb_fh_fc3.34.55.3.34.55.50.61.61.50.50.50_fd1.0.50.F63BC5.56_fe58.61_ff0000000000_fg0.50_pa13.F63BC5.24.0.40.58.100.41.0.0_t00_pb_pc_pd_pe_ga0_gb1_gc9.5_ge0000000000_gh_gf_gg_gd10000000_ha89.89_hb100.1.100.99_hc0.59.39.0.59.39_hd51.1.49.49_ia_if_ib_id_ic_jc_ie_ja_jb_jd2.3.3.57_je2.3.3.57_jf_jg_ka9.3.59.1.0_kb9.3.59.1_kc_kd_ke_kf_la11.ba2636.55.0.1_lb_oa_os_ob_oc_od_oe_of_lc_m00_n00_s00_og_oh_oo_op_oq_or_om_on_ok_ol_oi_oj_ad0.0.0.0.0.0.0.0.0.0
0-shocked=47**aa11.59.1.16.50.11.59.1.16.50_ab_ac_ba50_bb6.1_bc325.500.8.0.1_bd6_be180_ca57.0.42.75.15.27.30.0.20_cb0_da0.0.0.100_db0.0_dd0.0.34.50.52.50_dh0.35.50.50.0_di8_qa_qb_dc28.1.0.0.0_eh1.F63BC5_ea32.F63BC5.F63BC5.56.0.0_ec20.36.F63BC5.F63BC5.56.40.65.0_ed41.50.1.1.F63BC5.56_ef_eg_r0034.F63BC5.F63BC5.56.2.2.50.50.360.497.620.0_fa2.50.50.60.50.65.56_fb_fh_fc3.34.55.3.34.55.50.61.61.50.50.50_fd1.0.50.F63BC5.56_fe58.61_ff0000000000_fg0.50_pa13.F63BC5.24.0.40.58.100.41.0.0_t00_pb_pc_pd_pe_ga0_gb1_gc9.5_ge0000000000_gh_gf_gg_gd10000000_ha89.89_hb50.1.65.20_hc0.59.39.0.59.39_hd41.1.49.49_ia_if_ib_id_ic_jc_ie_ja_jb_jd2.3.3.57_je2.3.3.57_jf_jg_ka9.3.59.1.0_kb9.3.59.1_kc_kd_ke_kf_la11.ba2636.55.0.1_lb_oa_os_ob_oc_od_oe_of_lc_m00_n00_s00_og_oh_oo_op_oq_or_om_on_ok_ol_oi_oj_ad0.0.0.0.0.0.0.0.0.0
0-sad=47**aa1.0.0.0.50.1.0.0.0.50_ab_ac_ba50_bb6.1_bc412.500.8.0.1_bd6_be180_ca57.0.42.75.15.27.30.0.20_cb0_da0.0.0.100_db0.0_dd0.0.34.50.52.50_dh0.35.50.50.0_di8_qa_qb_dc28.1.0.0.0_eh1.F63BC5_ea32.F63BC5.F63BC5.56.0.0_ec20.36.F63BC5.F63BC5.56.40.65.0_ed41.50.1.1.F63BC5.56_ef_eg_r0034.F63BC5.F63BC5.56.2.2.50.50.360.497.620.0_fa2.50.50.60.50.65.56_fb_fh_fc3.34.55.3.34.55.50.61.61.50.50.50_fd1.0.50.F63BC5.56_fe58.61_ff0000000000_fg0.50_pa13.F63BC5.24.0.40.58.100.41.0.0_t00_pb_pc_pd_pe_ga0_gb1_gc19.21_ge0000000000_gh_gf_gg_gd10010000_ha66.66_hb50.1.50.100_hc0.59.39.0.59.39_hd5.1.49.49_ia_if_ib_id_ic_jc_ie_ja_jb_jd2.3.3.57_je2.3.3.57_jf_jg_ka9.3.59.1.0_kb9.3.59.1_kc_kd_ke_kf_la11.ba2636.55.0.1_lb_oa_os_ob_oc_od_oe_of_lc_m00_n00_s00_og_oh_oo_op_oq_or_om_on_ok_ol_oi_oj_ad0.0.0.0.0.0.0.0.0.0
0-interested=47**aa16.84.0.0.50.16.84.0.0.50_ab_ac_ba50_bb6.1_bc500.500.8.0.1_bd6_be180_ca57.0.42.75.15.27.30.0.20_cb0_da0.0.0.100_db0.0_dd0.0.34.50.52.50_dh0.35.50.50.0_di8_qa_qb_dc28.1.0.0.0_eh1.F63BC5_ea32.F63BC5.F63BC5.56.0.0_ec20.36.F63BC5.F63BC5.56.40.65.0_ed41.50.1.1.F63BC5.56_ef_eg_r0034.F63BC5.F63BC5.56.2.2.50.50.360.497.620.0_fa2.50.50.60.50.65.56_fb_fh_fc3.34.55.3.34.55.50.61.61.50.50.50_fd1.0.50.F63BC5.56_fe58.61_ff0000000000_fg0.50_pa13.F63BC5.24.0.40.58.100.41.0.0_t00_pb_pc_pd_pe_ga0_gb1_gc0.0_ge0000000000_gh_gf_gg_gd10000000_ha0.0_hb49.1.44.99_hc0.59.39.0.59.39_hd34.1.50.49_ia_if_ib_id_ic_jc_ie_ja_jb_jd2.3.3.57_je2.3.3.57_jf_jg_ka9.3.59.1.0_kb9.3.59.1_kc_kd_ke_kf_la11.ba2636.55.0.1_lb_oa_os_ob_oc_od_oe_of_lc_m00_n00_s00_og_oh_oo_op_oq_or_om_on_ok_ol_oi_oj_ad0.0.0.0.0.0.0.0.0.0
0-calm=47**aa16.0.0.0.50.16.0.0.0.50_ab_ac_ba50_bb6.1_bc587.500.8.0.1_bd6_be180_ca57.0.42.75.15.27.30.0.20_cb0_da0.0.0.100_db0.0_dd0.0.34.50.52.50_dh0.35.50.50.0_di8_qa_qb_dc28.1.0.0.0_eh1.F63BC5_ea32.F63BC5.F63BC5.56.0.0_ec20.36.F63BC5.F63BC5.56.40.65.0_ed41.50.1.1.F63BC5.56_ef_eg_r0034.F63BC5.F63BC5.56.2.2.50.50.360.497.620.0_fa2.50.50.60.50.65.56_fb_fh_fc3.34.55.3.34.55.50.61.61.50.50.50_fd1.0.50.F63BC5.56_fe58.61_ff0000000000_fg0.50_pa13.F63BC5.24.0.40.58.100.41.0.0_t00_pb_pc_pd_pe_ga0_gb1_gc0.0_ge0000000000_gh_gf_gg_gd10000000_ha89.89_hb49.1.44.99_hc0.59.39.0.59.39_hd0.1.49.49_ia_if_ib_id_ic_jc_ie_ja_jb_jd2.3.3.57_je2.3.3.57_jf_jg_ka9.3.59.1.0_kb9.3.59.1_kc_kd_ke_kf_la11.ba2636.55.0.1_lb_oa_os_ob_oc_od_oe_of_lc_m00_n00_s00_og_oh_oo_op_oq_or_om_on_ok_ol_oi_oj_ad0.0.0.0.0.0.0.0.0.0
0-horny=47**aa1.0.0.0.50.1.0.0.0.50_ab_ac_ba50_bb6.1_bc675.500.8.0.1_bd6_be180_ca57.0.42.75.15.27.30.0.20_cb0_da0.0.0.100_db0.0_dd0.0.34.50.52.50_dh0.35.50.50.0_di8_qa_qb_dc28.1.0.0.0_eh1.F63BC5_ea32.F63BC5.F63BC5.56.0.0_ec20.36.F63BC5.F63BC5.56.40.65.0_ed41.50.1.1.F63BC5.56_ef_eg_r0034.F63BC5.F63BC5.56.2.2.50.50.360.497.620.0_fa2.50.50.60.50.65.56_fb_fh_fc3.34.55.3.34.55.50.61.61.50.50.50_fd1.0.50.F63BC5.56_fe58.61_ff0000000000_fg0.50_pa13.F63BC5.24.0.40.58.100.41.0.0_t00_pb_pc_pd_pe_ga0_gb1_gc19.0_ge0000000000_gh_gf_gg_gd10000000_ha89.89_hb50.1.50.100_hc0.59.39.0.59.39_hd28.1.49.49_ia_if_ib_id_ic_jc_ie_ja_jb_jd2.3.3.57_je2.3.3.57_jf_jg_ka9.3.59.1.0_kb9.3.59.1_kc_kd_ke_kf_la11.ba2636.55.0.1_lb_oa_os_ob_oc_od_oe_of_lc_m00_n00_s00_og_oh_oo_op_oq_or_om_on_ok_ol_oi_oj_ad0.0.0.0.0.0.0.0.0.0
0-happy=47**aa16.34.0.29.50.16.1.0.0.50_ab_ac_ba50_bb6.1_bc762.500.8.0.1_bd6_be180_ca57.0.42.75.15.27.30.0.20_cb0_da0.0.0.100_db0.0_dd0.0.34.50.52.50_dh0.35.50.50.0_di8_qa_qb_dc28.1.0.0.0_eh1.F63BC5_ea32.F63BC5.F63BC5.56.0.0_ec20.36.F63BC5.F63BC5.56.40.65.0_ed41.50.1.1.F63BC5.56_ef_eg_r0034.F63BC5.F63BC5.56.2.2.50.50.360.497.620.0_fa2.50.50.60.50.65.56_fb_fh_fc3.34.55.3.34.55.50.61.61.50.50.50_fd1.0.50.F63BC5.56_fe58.61_ff0000000000_fg0.50_pa13.F63BC5.24.0.40.58.100.41.0.0_t00_pb_pc_pd_pe_ga0_gb1_gc0.0_ge0000000000_gh_gf_gg_gd10000000_ha0.0_hb49.1.44.99_hc0.59.39.0.59.39_hd25.1.49.49_ia_if_ib_id_ic_jc_ie_ja_jb_jd2.3.3.57_je2.3.3.57_jf_jg_ka9.3.59.1.0_kb9.3.59.1_kc_kd_ke_kf_la11.ba2636.55.0.1_lb_oa_os_ob_oc_od_oe_of_lc_m00_n00_s00_og_oh_oo_op_oq_or_om_on_ok_ol_oi_oj_ad0.0.0.0.0.0.0.0.0.0
0-annoyed=47**aa17.67.1.28.50.17.67.1.28.50_ab_ac_ba50_bb7.1_bc850.500.8.0.1_bd7_be180_ca57.0.42.75.15.27.30.0.20_cb0_da0.0.0.100_db_dd0.0.34.50.52.50_dh0.35.50.50.0_di8_qa_qb_dc28.1.0.0.0_eh_ea32.F63BC5.F63BC5.56.0.0_ec20.36.F63BC5.F63BC5.56.40.65.0_ed41.50.1.1.F63BC5.56_ef_eg_r0034.F63BC5.F63BC5.56.2.2.50.50.360.497.620.0_fa2.50.50.60.50.65.56_fb_fh_fc3.34.55.3.34.55.50.61.61.50.50.50_fd1.0.50.F63BC5.56_fe58.61_ff0000000000_fg0.50_pa13.F63BC5.24.0.40.58.100.41.0.0_t00_pb_pc_pd_pe_ga0_gb1_gc0.0_ge0000000000_gh_gf_gg_gd10000000_ha95.95_hb0.1.100.99_hc2.48.0.2.48.0_hd5.0.49.49_ia_if_ib_id_ic_jc_ie_ja_jb_jd2.3.3.57_je2.3.3.57_jf_jg_ka9.3.59.1.0_kb9.3.59.1_kc_kd_ke_kf_la11.ba2636.55.0.1_lb_oa_os_ob_oc_od_oe_of_lc_m00_n00_s00_og_oh_oo_op_oq_or_om_on_ok_ol_oi_oj_ad0.0.0.0.0.0.0.0.0.0
0-mad=47**aa33.75.1.16.50.16.30.1.3.50_ab_ac38.3.43.43_ba50_bb6.1_bc150.500.8.0.1_bd6_be180_ca57.0.42.75.15.27.30.0.20_cb0_da0.0.0.100_db0.0_dd0.0.34.50.52.50_dh0.35.50.50.0_di8_qa_qb_dc28.1.0.0.0_eh1.F63BC5_ea32.F63BC5.F63BC5.56.0.0_ec20.36.F63BC5.F63BC5.56.40.65.0_ed41.50.1.1.F63BC5.56_ef_eg_r0034.F63BC5.F63BC5.56.2.2.50.50.360.497.620.0_fa2.50.50.60.50.65.56_fb_fh_fc3.34.55.3.34.55.50.61.61.50.50.50_fd1.0.50.F63BC5.56_fe58.61_ff0000000000_fg0.50_pa13.F63BC5.24.0.40.58.100.41.0.0_t00_pb_pc_pd_pe_ga0_gb1_gc0.0_ge0000000000_gh_gf_gg_gd10000000_ha100.100_hb50.1.50.100_hc2.34.7.2.34.7_hd12.1.49.49_ia_if_ib_id_ic_jc_ie_ja_jb_jd2.3.3.57_je2.3.3.57_jf_jg_ka9.3.59.1.0_kb9.3.59.1_kc_kd_ke_kf_la11.ba2636.55.0.1_lb_oa_os_ob_oc_od_oe_of_lc_m00_n00_s00_og_oh_oo_op_oq_or_om_on_ok_ol_oi_oj_ad0.0.0.0.0.0.0.0.0.0
0-confident=47**aa21.77.1.4.63.21.77.1.4.63_ab_ac_ba50_bb6.1_bc237.500.8.0.1_bd6_be180_ca57.0.42.75.15.27.30.0.20_cb0_da0.0.0.100_db0.0_dd0.0.34.50.52.50_dh0.35.50.50.0_di8_qa_qb_dc28.1.0.0.0_eh1.F63BC5_ea32.F63BC5.F63BC5.56.0.0_ec20.36.F63BC5.F63BC5.56.40.65.0_ed41.50.1.1.F63BC5.56_ef_eg_r0034.F63BC5.F63BC5.56.2.2.50.50.360.497.620.0_fa2.50.50.60.50.65.56_fb_fh_fc3.34.55.3.34.55.50.61.61.50.50.50_fd1.0.50.F63BC5.56_fe58.61_ff0000000000_fg0.50_pa13.F63BC5.24.0.40.58.100.41.0.0_t00_pb_pc_pd_pe_ga0_gb1_gc0.0_ge0000000000_gh_gf_gg_gd10000000_ha0.0_hb50.1.50.100_hc0.59.39.0.59.39_hd35.1.49.49_ia_if_ib_id_ic_jc_ie_ja_jb_jd2.3.3.57_je2.3.3.57_jf_jg_ka9.3.59.1.0_kb9.3.59.1_kc_kd_ke_kf_la11.ba2636.55.0.1_lb_oa_os_ob_oc_od_oe_of_lc_m00_n00_s00_og_oh_oo_op_oq_or_om_on_ok_ol_oi_oj_ad0.0.0.0.0.0.0.0.0.0
0-cocky=47**aa10.0.0.0.50.16.33.0.33.50_ab_ac_ba50_bb6.1_bc325.500.8.0.1_bd6_be180_ca57.0.42.75.15.27.30.0.20_cb0_da0.0.0.100_db_dd0.0.34.50.52.50_dh0.35.50.50.0_di8_qa_qb_dc28.1.0.0.0_eh_ea32.F63BC5.F63BC5.56.0.0_ec20.36.F63BC5.F63BC5.56.40.65.0_ed41.50.1.1.F63BC5.56_ef_eg_r0034.F63BC5.F63BC5.56.2.2.50.50.360.497.620.0_fa2.50.50.60.50.65.56_fb_fh_fc3.34.55.3.34.55.50.61.61.50.50.50_fd1.0.50.F63BC5.56_fe58.61_ff0000000000_fg0.50_pa13.F63BC5.24.0.40.58.100.41.0.0_t00_pb_pc_pd_pe_ga0_gb1_gc6.0_ge0000000000_gh_gf_gg_gd10000000_ha0.85_hb49.1.44.99_hc1.57.0.1.57.0_hd34.1.49.49_ia_if_ib_id_ic_jc_ie_ja_jb_jd2.3.3.57_je2.3.3.57_jf_jg_ka9.3.59.1.0_kb9.3.59.1_kc_kd_ke_kf_la11.ba2636.55.0.1_lb_oa_os_ob_oc_od_oe_of_lc_m00_n00_s00_og_oh_oo_op_oq_or_om_on_ok_ol_oi_oj_ad0.0.0.0.0.0.0.0.0.0
0-embarrassed=47**aa11.83.0.0.50.11.83.0.0.50_ab_ac_ba50_bb6.1_bc412.500.8.0.1_bd6_be180_ca57.0.42.75.15.27.30.0.20_cb0_da0.0.0.100_db0.0_dd0.0.34.50.52.50_dh0.35.50.50.0_di8_qa_qb_dc28.1.0.0.0_eh1.F63BC5_ea32.F63BC5.F63BC5.56.0.0_ec20.36.F63BC5.F63BC5.56.40.65.0_ed41.50.1.1.F63BC5.56_ef_eg_r0034.F63BC5.F63BC5.56.2.2.50.50.360.497.620.0_fa2.50.50.60.50.65.56_fb_fh_fc3.34.55.3.34.55.50.61.61.50.50.50_fd1.0.50.F63BC5.56_fe58.61_ff0000000000_fg0.50_pa13.F63BC5.24.0.40.58.100.41.0.0_t00_pb_pc_pd_pe_ga0_gb1_gc26.0_ge0000000000_gh_gf_gg_gd10000000_ha89.89_hb100.1.100.99_hc0.59.39.0.59.39_hd50.1.49.49_ia_if_ib_id_ic_jc_ie_ja_jb_jd2.3.3.57_je2.3.3.57_jf_jg_ka9.3.59.1.0_kb9.3.59.1_kc_kd_ke_kf_la11.ba2636.55.0.1_lb_oa_os_ob_oc_od_oe_of_lc_m00_n00_s00_og_oh_oo_op_oq_or_om_on_ok_ol_oi_oj_ad0.0.0.0.0.0.0.0.0.0
0-stripping=47**aa17.81.0.0.50.39.78.0.0.50_ab_ac_ba50_bb98.1_bc500.500.8.0.1_bd77_be180_ca57.0.42.75.15.27.30.0.20_cb0_da0.0.0.100_db_dd0.0.34.50.52.50_dh0.35.50.50.0_di8_qa_qb_dc28.1.0.0.0_eh_ea32.F63BC5.F63BC5.56.0.0_ec20.36.F63BC5.F63BC5.56.40.65.0_ed41.50.1.1.F63BC5.56_ef_eg_r0034.F63BC5.F63BC5.56.2.2.50.50.360.497.620.0_fa2.50.50.60.50.65.56_fb_fh_fc3.34.55.3.34.55.50.61.61.50.50.50_fd1.0.50.F63BC5.56_fe58.61_ff0000000000_fg0.50_pa13.F63BC5.24.0.40.58.100.41.0.0_t00_pb_pc_pd_pe_ga0_gb1_gc8.0_ge0000000000_gh_gf_gg_gd10000000_ha85.85_hb100.1.0.99_hc0.59.39.0.59.39_hd12.1.49.49_ia_if_ib_id_ic_jc_ie_ja_jb_jd_je2.3.3.57_jf_jg_ka9.3.59.1.0_kb9.3.59.1_kc_kd_ke_kf_la11.ba2636.55.0.1_lb_oa_os_ob_oc_od_oe_of_lc_m00_n00_s00_og_oh_oo_op_oq_or_om_on_ok_ol_oi_oj_ad0.0.0.0.0.0.0.0.0.0

#lost sandals
1-stripped=47**aa16.84.0.0.50.16.84.0.0.50_ab_ac_ba50_bb6.1_bc185.500.8.0.1_bd6_be180_ca57.0.42.75.15.27.30.0.20_cb0_da0.0.0.100_db0.0_dd0.0.34.50.52.50_dh0.35.50.50.0_di8_qa_qb_dc28.1.0.0.0_eh1.F63BC5_ea32.F63BC5.F63BC5.56.0.0_ec20.36.F63BC5.F63BC5.56.40.65.0_ed41.50.1.1.F63BC5.56_ef_eg_r0034.F63BC5.F63BC5.56.2.2.50.50.360.497.620.0_fa2.50.50.60.50.65.56_fb_fh_fc3.34.55.3.34.55.50.61.61.50.50.50_fd1.0.50.F63BC5.56_fe58.61_ff0000000000_fg0.50_pa13.F63BC5.24.0.40.58.100.41.0.0_t00_pb_pc_pd_pe_ga0_gb1_gc0.0_ge0000000000_gh_gf_gg_gd10000000_ha89.89_hb49.1.44.99_hc1.59.39.1.59.39_hd12.1.50.49_ia_if_ib_id_ic_jc_ie_ja_jb_jd_je_jf_jg_ka9.3.CE57A8.0.0_kb9.3.CE57A8.0_kc_kd_ke_kf_la11.ba2636.55.0.1_lb_oa_os_ob_oc_od_oe_of_lc_m00_n00_s00_og_oh_oo_op_oq_or_om_on_ok_ol_oi_oj_ad0.0.0.0.0.0.0.0.0.0
1-loss=47**aa16.80.0.0.50.16.80.0.0.50_ab_ac_ba50_bb6.1_bc237.500.8.0.1_bd6_be180_ca57.0.42.75.15.27.30.0.20_cb0_da0.0.0.100_db0.0_dd0.0.34.50.52.50_dh0.35.50.50.0_di8_qa_qb_dc28.1.0.0.0_eh1.F63BC5_ea32.F63BC5.F63BC5.56.0.0_ec20.36.F63BC5.F63BC5.56.40.65.0_ed41.50.1.1.F63BC5.56_ef_eg_r0034.F63BC5.F63BC5.56.2.2.50.50.360.497.620.0_fa2.50.50.60.50.65.56_fb_fh_fc3.34.55.3.34.55.50.61.61.50.50.50_fd1.0.50.F63BC5.56_fe58.61_ff0000000000_fg0.50_pa13.F63BC5.24.0.40.58.100.41.0.0_t00_pb_pc_pd_pe_ga0_gb1_gc0.15_ge0000000000_gh_gf_gg_gd10000000_ha87.87_hb50.1.50.100_hc3.50.7.3.50.7_hd5.0.49.49_ia_if_ib_id_ic_jc_ie_ja_jb_jd_je_jf_jg_ka9.3.59.1.0_kb9.3.59.1_kc_kd_ke_kf_la11.ba2636.55.0.1_lb_oa_os_ob_oc_od_oe_of_lc_m00_n00_s00_og_oh_oo_op_oq_or_om_on_ok_ol_oi_oj_ad0.0.0.0.0.0.0.0.0.0
1-awkward=47**aa11.59.1.16.50.11.59.1.16.50_ab_ac_ba50_bb6.1_bc325.500.8.0.1_bd6_be180_ca57.0.42.75.15.27.30.0.20_cb0_da0.0.0.100_db0.0_dd0.0.34.50.52.50_dh0.35.50.50.0_di8_qa_qb_dc28.1.0.0.0_eh1.F63BC5_ea32.F63BC5.F63BC5.56.0.0_ec20.36.F63BC5.F63BC5.56.40.65.0_ed41.50.1.1.F63BC5.56_ef_eg_r0034.F63BC5.F63BC5.56.2.2.50.50.360.497.620.0_fa2.50.50.60.50.65.56_fb_fh_fc3.34.55.3.34.55.50.61.61.50.50.50_fd1.0.50.F63BC5.56_fe58.61_ff0000000000_fg0.50_pa13.F63BC5.24.0.40.58.100.41.0.0_t00_pb_pc_pd_pe_ga0_gb1_gc9.5_ge0000000000_gh_gf_gg_gd10000000_ha89.89_hb100.1.100.99_hc0.59.39.0.59.39_hd51.1.49.49_ia_if_ib_id_ic_jc_ie_ja_jb_jd_je_jf_jg_ka9.3.59.1.0_kb9.3.59.1_kc_kd_ke_kf_la11.ba2636.55.0.1_lb_oa_os_ob_oc_od_oe_of_lc_m00_n00_s00_og_oh_oo_op_oq_or_om_on_ok_ol_oi_oj_ad0.0.0.0.0.0.0.0.0.0
1-shocked=47**aa11.59.1.16.50.11.59.1.16.50_ab_ac_ba50_bb6.1_bc412.500.8.0.1_bd6_be180_ca57.0.42.75.15.27.30.0.20_cb0_da0.0.0.100_db0.0_dd0.0.34.50.52.50_dh0.35.50.50.0_di8_qa_qb_dc28.1.0.0.0_eh1.F63BC5_ea32.F63BC5.F63BC5.56.0.0_ec20.36.F63BC5.F63BC5.56.40.65.0_ed41.50.1.1.F63BC5.56_ef_eg_r0034.F63BC5.F63BC5.56.2.2.50.50.360.497.620.0_fa2.50.50.60.50.65.56_fb_fh_fc3.34.55.3.34.55.50.61.61.50.50.50_fd1.0.50.F63BC5.56_fe58.61_ff0000000000_fg0.50_pa13.F63BC5.24.0.40.58.100.41.0.0_t00_pb_pc_pd_pe_ga0_gb1_gc9.5_ge0000000000_gh_gf_gg_gd10000000_ha89.89_hb50.1.65.20_hc0.59.39.0.59.39_hd41.1.49.49_ia_if_ib_id_ic_jc_ie_ja_jb_jd_je_jf_jg_ka9.3.59.1.0_kb9.3.59.1_kc_kd_ke_kf_la11.ba2636.55.0.1_lb_oa_os_ob_oc_od_oe_of_lc_m00_n00_s00_og_oh_oo_op_oq_or_om_on_ok_ol_oi_oj_ad0.0.0.0.0.0.0.0.0.0
1-sad=47**aa1.0.0.0.50.1.0.0.0.50_ab_ac_ba50_bb6.1_bc500.500.8.0.1_bd6_be180_ca57.0.42.75.15.27.30.0.20_cb0_da0.0.0.100_db0.0_dd0.0.34.50.52.50_dh0.35.50.50.0_di8_qa_qb_dc28.1.0.0.0_eh1.F63BC5_ea32.F63BC5.F63BC5.56.0.0_ec20.36.F63BC5.F63BC5.56.40.65.0_ed41.50.1.1.F63BC5.56_ef_eg_r0034.F63BC5.F63BC5.56.2.2.50.50.360.497.620.0_fa2.50.50.60.50.65.56_fb_fh_fc3.34.55.3.34.55.50.61.61.50.50.50_fd1.0.50.F63BC5.56_fe58.61_ff0000000000_fg0.50_pa13.F63BC5.24.0.40.58.100.41.0.0_t00_pb_pc_pd_pe_ga0_gb1_gc19.21_ge0000000000_gh_gf_gg_gd10010000_ha66.66_hb50.1.50.100_hc0.59.39.0.59.39_hd5.1.49.49_ia_if_ib_id_ic_jc_ie_ja_jb_jd_je_jf_jg_ka9.3.59.1.0_kb9.3.59.1_kc_kd_ke_kf_la11.ba2636.55.0.1_lb_oa_os_ob_oc_od_oe_of_lc_m00_n00_s00_og_oh_oo_op_oq_or_om_on_ok_ol_oi_oj_ad0.0.0.0.0.0.0.0.0.0
1-interested=47**aa16.84.0.0.50.16.84.0.0.50_ab_ac_ba50_bb6.1_bc587.500.8.0.1_bd6_be180_ca57.0.42.75.15.27.30.0.20_cb0_da0.0.0.100_db0.0_dd0.0.34.50.52.50_dh0.35.50.50.0_di8_qa_qb_dc28.1.0.0.0_eh1.F63BC5_ea32.F63BC5.F63BC5.56.0.0_ec20.36.F63BC5.F63BC5.56.40.65.0_ed41.50.1.1.F63BC5.56_ef_eg_r0034.F63BC5.F63BC5.56.2.2.50.50.360.497.620.0_fa2.50.50.60.50.65.56_fb_fh_fc3.34.55.3.34.55.50.61.61.50.50.50_fd1.0.50.F63BC5.56_fe58.61_ff0000000000_fg0.50_pa13.F63BC5.24.0.40.58.100.41.0.0_t00_pb_pc_pd_pe_ga0_gb1_gc9.0_ge0000000000_gh_gf_gg_gd10000000_ha0.0_hb49.1.44.99_hc0.59.39.0.59.39_hd34.1.50.49_ia_if_ib_id_ic_jc_ie_ja_jb_jd_je_jf_jg_ka9.3.59.1.0_kb9.3.59.1_kc_kd_ke_kf_la11.ba2636.55.0.1_lb_oa_os_ob_oc_od_oe_of_lc_m00_n00_s00_og_oh_oo_op_oq_or_om_on_ok_ol_oi_oj_ad0.0.0.0.0.0.0.0.0.0
1-calm=47**aa16.0.0.0.50.16.0.0.0.50_ab_ac_ba50_bb6.1_bc675.500.8.0.1_bd6_be180_ca57.0.42.75.15.27.30.0.20_cb0_da0.0.0.100_db_dd0.0.34.50.52.50_dh0.35.50.50.0_di8_qa_qb_dc28.1.0.0.0_eh_ea32.F63BC5.F63BC5.56.0.0_ec20.36.F63BC5.F63BC5.56.40.65.0_ed41.50.1.1.F63BC5.56_ef_eg_r0034.F63BC5.F63BC5.56.2.2.50.50.360.497.620.0_fa2.50.50.60.50.65.56_fb_fh_fc3.34.55.3.34.55.50.61.61.50.50.50_fd1.0.50.F63BC5.56_fe58.61_ff0000000000_fg0.50_pa13.F63BC5.24.0.40.58.100.41.0.0_t00_pb_pc_pd_pe_ga0_gb1_gc12.0_ge0000000000_gh_gf_gg_gd10000000_ha89.89_hb49.1.44.99_hc0.59.39.0.59.39_hd0.1.49.49_ia_if_ib_id_ic_jc_ie_ja_jb_jd_je_jf_jg_ka9.3.59.1.0_kb9.3.59.1_kc_kd_ke_kf_la11.ba2636.55.0.1_lb_oa_os_ob_oc_od_oe_of_lc_m00_n00_s00_og_oh_oo_op_oq_or_om_on_ok_ol_oi_oj_ad0.0.0.0.0.0.0.0.0.0
1-horny=47**aa1.0.0.0.50.1.0.0.0.50_ab_ac_ba50_bb6.1_bc762.500.8.0.1_bd6_be180_ca57.0.42.75.15.27.30.0.20_cb0_da0.0.0.100_db0.0_dd0.0.34.50.52.50_dh0.35.50.50.0_di8_qa_qb_dc28.1.0.0.0_eh1.F63BC5_ea32.F63BC5.F63BC5.56.0.0_ec20.36.F63BC5.F63BC5.56.40.65.0_ed41.50.1.1.F63BC5.56_ef_eg_r0034.F63BC5.F63BC5.56.2.2.50.50.360.497.620.0_fa2.50.50.60.50.65.56_fb_fh_fc3.34.55.3.34.55.50.61.61.50.50.50_fd1.0.50.F63BC5.56_fe58.61_ff0000000000_fg0.50_pa13.F63BC5.24.0.40.58.100.41.0.0_t00_pb_pc_pd_pe_ga0_gb1_gc19.0_ge0000000000_gh_gf_gg_gd10000000_ha89.89_hb50.1.50.100_hc0.59.39.0.59.39_hd28.1.49.49_ia_if_ib_id_ic_jc_ie_ja_jb_jd_je_jf_jg_ka9.3.59.1.0_kb9.3.59.1_kc_kd_ke_kf_la11.ba2636.55.0.1_lb_oa_os_ob_oc_od_oe_of_lc_m00_n00_s00_og_oh_oo_op_oq_or_om_on_ok_ol_oi_oj_ad0.0.0.0.0.0.0.0.0.0
1-happy=47**aa16.54.1.12.63.16.54.1.12.64_ab_ac_ba50_bb5.1_bc850.500.8.0.1_bd5_be180_ca57.0.42.75.15.27.30.0.20_cb0_da0.0.0.100_db_dd0.0.34.50.52.50_dh0.35.50.50.0_di8_qa_qb_dc28.1.0.0.0_eh_ea32.F63BC5.F63BC5.56.0.0_ec20.36.F63BC5.F63BC5.56.40.65.0_ed41.50.1.1.F63BC5.56_ef_eg_r0034.F63BC5.F63BC5.56.2.2.50.50.360.497.620.0_fa2.50.50.60.50.65.56_fb_fh_fc3.34.55.3.34.55.50.61.61.50.50.50_fd1.0.50.F63BC5.56_fe58.61_ff0000000000_fg0.50_pa13.F63BC5.24.0.40.58.100.41.0.0_t00_pb_pc_pd_pe_ga0_gb1_gc6.0_ge0000000000_gh_gf_gg_gd10000000_ha100.100_hb49.1.44.99_hc0.59.39.0.59.39_hd24.1.49.50_ia_if_ib_id_ic_jc_ie_ja_jb_jd_je_jf_jg_ka9.3.59.1.0_kb9.3.59.1_kc_kd_ke_kf_la11.ba2636.55.0.1_lb_oa_os_ob_oc_od_oe_of_lc_m00_n00_s00_og_oh_oo_op_oq_or_om_on_ok_ol_oi_oj_ad0.0.0.0.0.0.0.0.0.0
1-annoyed=47**aa17.67.1.28.50.17.67.1.28.50_ab_ac_ba50_bb7.1_bc150.500.8.0.1_bd7_be180_ca57.0.42.75.15.27.30.0.20_cb0_da0.0.0.100_db_dd0.0.34.50.52.50_dh0.35.50.50.0_di8_qa_qb_dc28.1.0.0.0_eh_ea32.F63BC5.F63BC5.56.0.0_ec20.36.F63BC5.F63BC5.56.40.65.0_ed41.50.1.1.F63BC5.56_ef_eg_r0034.F63BC5.F63BC5.56.2.2.50.50.360.497.620.0_fa2.50.50.60.50.65.56_fb_fh_fc3.34.55.3.34.55.50.61.61.50.50.50_fd1.0.50.F63BC5.56_fe58.61_ff0000000000_fg0.50_pa13.F63BC5.24.0.40.58.100.41.0.0_t00_pb_pc_pd_pe_ga0_gb1_gc0.0_ge0000000000_gh_gf_gg_gd10000000_ha95.95_hb0.1.100.99_hc2.48.0.2.48.0_hd5.0.49.49_ia_if_ib_id_ic_jc_ie_ja_jb_jd_je_jf_jg_ka9.3.59.1.0_kb9.3.59.1_kc_kd_ke_kf_la11.ba2636.55.0.1_lb_oa_os_ob_oc_od_oe_of_lc_m00_n00_s00_og_oh_oo_op_oq_or_om_on_ok_ol_oi_oj_ad0.0.0.0.0.0.0.0.0.0
1-mad=47**aa33.75.1.16.50.16.44.1.19.50_ab_ac_ba50_bb6.1_bc237.500.8.0.1_bd6_be180_ca57.0.42.75.15.27.30.0.20_cb0_da0.0.0.100_db0.0_dd0.0.34.50.52.50_dh0.35.50.50.0_di8_qa_qb_dc28.1.0.0.0_eh1.F63BC5_ea32.F63BC5.F63BC5.56.0.0_ec20.36.F63BC5.F63BC5.56.40.65.0_ed41.50.1.1.F63BC5.56_ef_eg_r0034.F63BC5.F63BC5.56.2.2.50.50.360.497.620.0_fa2.50.50.60.50.65.56_fb_fh_fc3.34.55.3.34.55.50.61.61.50.50.50_fd1.0.50.F63BC5.56_fe58.61_ff0000000000_fg0.50_pa13.F63BC5.24.0.40.58.100.41.0.0_t00_pb_pc_pd_pe_ga0_gb1_gc0.0_ge0000000000_gh_gf_gg_gd10000000_ha100.100_hb50.1.50.100_hc2.34.7.2.34.7_hd51.1.49.49_ia_if_ib_id_ic_jc_ie_ja_jb_jd_je_jf_jg_ka9.3.59.1.0_kb9.3.59.1_kc_kd_ke_kf_la11.ba2636.55.0.1_lb_oa_os_ob_oc_od_oe_of_lc_m00_n00_s00_og_oh_oo_op_oq_or_om_on_ok_ol_oi_oj_ad0.0.0.0.0.0.0.0.0.0
1-confident=47**aa21.77.1.4.63.21.77.1.4.63_ab_ac_ba50_bb6.1_bc325.500.8.0.1_bd6_be180_ca57.0.42.75.15.27.30.0.20_cb0_da0.0.0.100_db0.0_dd0.0.34.50.52.50_dh0.35.50.50.0_di8_qa_qb_dc28.1.0.0.0_eh1.F63BC5_ea32.F63BC5.F63BC5.56.0.0_ec20.36.F63BC5.F63BC5.56.40.65.0_ed41.50.1.1.F63BC5.56_ef_eg_r0034.F63BC5.F63BC5.56.2.2.50.50.360.497.620.0_fa2.50.50.60.50.65.56_fb_fh_fc3.34.55.3.34.55.50.61.61.50.50.50_fd1.0.50.F63BC5.56_fe58.61_ff0000000000_fg0.50_pa13.F63BC5.24.0.40.58.100.41.0.0_t00_pb_pc_pd_pe_ga0_gb1_gc0.0_ge0000000000_gh_gf_gg_gd10000000_ha0.0_hb50.1.50.100_hc0.59.39.0.59.39_hd35.1.49.49_ia_if_ib_id_ic_jc_ie_ja_jb_jd_je_jf_jg_ka9.3.59.1.0_kb9.3.59.1_kc_kd_ke_kf_la11.ba2636.55.0.1_lb_oa_os_ob_oc_od_oe_of_lc_m00_n00_s00_og_oh_oo_op_oq_or_om_on_ok_ol_oi_oj_ad0.0.0.0.0.0.0.0.0.0
1-embarrassed=47**aa11.83.0.0.50.11.83.0.0.50_ab_ac_ba50_bb6.1_bc412.500.8.0.1_bd6_be180_ca57.0.42.75.15.27.30.0.20_cb0_da0.0.0.100_db0.0_dd0.0.34.50.52.50_dh0.35.50.50.0_di8_qa_qb_dc28.1.0.0.0_eh1.F63BC5_ea32.F63BC5.F63BC5.56.0.0_ec20.36.F63BC5.F63BC5.56.40.65.0_ed41.50.1.1.F63BC5.56_ef_eg_r0034.F63BC5.F63BC5.56.2.2.50.50.360.497.620.0_fa2.50.50.60.50.65.56_fb_fh_fc3.34.55.3.34.55.50.61.61.50.50.50_fd1.0.50.F63BC5.56_fe58.61_ff0000000000_fg0.50_pa13.F63BC5.24.0.40.58.100.41.0.0_t00_pb_pc_pd_pe_ga0_gb1_gc26.0_ge0000000000_gh_gf_gg_gd10000000_ha89.89_hb100.1.100.99_hc0.59.39.0.59.39_hd50.1.49.49_ia_if_ib_id_ic_jc_ie_ja_jb_jd_je_jf_jg_ka9.3.59.1.0_kb9.3.59.1_kc_kd_ke_kf_la11.ba2636.55.0.1_lb_oa_os_ob_oc_od_oe_of_lc_m00_n00_s00_og_oh_oo_op_oq_or_om_on_ok_ol_oi_oj_ad0.0.0.0.0.0.0.0.0.0
1-stripping=47**aa26.53.0.45.35.27.53.0.45.37_ab_ac_ba50_bb6.1_bc500.500.8.0.1_bd6_be180_ca57.0.42.75.15.27.30.0.20_cb0_da0.0.0.100_db_dd0.0.34.50.52.50_dh0.35.50.50.0_di8_qa_qb_dc28.1.0.0.0_eh_ea32.F63BC5.F63BC5.56.0.0_ec20.36.F63BC5.F63BC5.56.40.65.0_ed41.50.1.1.F63BC5.56_ef_eg_r0034.F63BC5.F63BC5.56.2.2.50.50.360.497.620.0_fa2.50.50.60.50.65.56_fb_fh_fc3.34.55.3.34.55.50.61.61.50.50.50_fd1.0.50.F63BC5.56_fe58.61_ff0000000000_fg0.50_pa13.F63BC5.24.0.40.58.100.41.0.0_t00_pb_pc_pd_pe_ga0_gb1_gc17.0_ge0000000000_gh_gf_gg_gd10000000_ha89.89_hb49.1.0.72_hc0.59.39.0.59.39_hd8.1.49.49_ia_if_ib_id_ic_jc_ie_ja_jb_jd_je_jf_jg_ka9.3.59.1.0_kb9.3.59.1_kc_kd_ke_kf_la11.ba2636.55.0.1_lb_oa_os_ob_oc_od_oe_of_lc_m00_n00_s00_og_oh_oo_op_oq_or_om_on_ok_ol_oi_oj_ad0.0.0.0.0.0.0.0.0.0

#lost bra
2-stripped=47**aa11.66.1.28.50.10.67.1.28.50_ab_ac_ba50_bb6.1_bc150.500.8.0.1_bd6_be180_ca57.0.42.75.15.27.30.0.20_cb0_da0.0.0.100_db_dd0.0.34.50.52.50_dh0.35.50.50.0_di8_qa_qb_dc28.1.0.0.0_eh_ea32.F63BC5.F63BC5.56.0.0_ec20.36.F63BC5.F63BC5.56.40.65.0_ed41.50.1.1.F63BC5.56_ef_eg_r0034.F63BC5.F63BC5.56.2.2.50.50.360.497.620.0_fa2.50.50.60.50.65.56_fb_fh_fc3.34.55.3.34.55.50.61.61.50.50.50_fd1.0.50.F63BC5.56_fe58.61_ff0000000000_fg0.50_pa13.F63BC5.24.0.40.58.100.41.0.0_t00_pb_pc_pd_pe_ga0_gb1_gc42.0_ge0000000000_gh_gf_gg_gd10000000_ha89.89_hb0.1.100.99_hc0.59.39.0.59.39_hd51.1.49.49_ia_if_ib_id_ic_jc_ie_ja_jb_jd_je_jf_jg_ka_kb9.3.42.42_kc_kd_ke_kf_la11.ba2636.55.0.1_lb_oa_os_ob_oc_od_oe_of_lc_m00_n00_s00_og_oh_oo_op_oq_or_om_on_ok_ol_oi_oj_ad0.0.0.0.0.0.0.0.0.0
2-loss=47**aa16.80.0.0.50.16.80.0.0.50_ab_ac_ba50_bb6.1_bc237.500.8.0.1_bd6_be180_ca57.0.42.75.15.27.30.0.20_cb0_da0.0.0.100_db0.0_dd0.0.34.50.52.50_dh0.35.50.50.0_di8_qa_qb_dc28.1.0.0.0_eh1.F63BC5_ea32.F63BC5.F63BC5.56.0.0_ec20.36.F63BC5.F63BC5.56.40.65.0_ed41.50.1.1.F63BC5.56_ef_eg_r0034.F63BC5.F63BC5.56.2.2.50.50.360.497.620.0_fa2.50.50.60.50.65.56_fb_fh_fc3.34.55.3.34.55.50.61.61.50.50.50_fd1.0.50.F63BC5.56_fe58.61_ff0000000000_fg0.50_pa13.F63BC5.24.0.40.58.100.41.0.0_t00_pb_pc_pd_pe_ga0_gb1_gc0.15_ge0000000000_gh_gf_gg_gd10000000_ha87.87_hb50.1.50.100_hc3.50.7.3.50.7_hd5.0.49.49_ia_if_ib_id_ic_jc_ie_ja_jb_jd_je_jf_jg_ka_kb9.3.42.42_kc_kd_ke_kf_la11.ba2636.55.0.1_lb_oa_os_ob_oc_od_oe_of_lc_m00_n00_s00_og_oh_oo_op_oq_or_om_on_ok_ol_oi_oj_ad0.0.0.0.0.0.0.0.0.0
2-awkward=47**aa11.59.1.16.50.11.59.1.16.50_ab_ac_ba50_bb6.1_bc325.500.8.0.1_bd6_be180_ca57.0.42.75.15.27.30.0.20_cb0_da0.0.0.100_db0.0_dd0.0.34.50.52.50_dh0.35.50.50.0_di8_qa_qb_dc28.1.0.0.0_eh1.F63BC5_ea32.F63BC5.F63BC5.56.0.0_ec20.36.F63BC5.F63BC5.56.40.65.0_ed41.50.1.1.F63BC5.56_ef_eg_r0034.F63BC5.F63BC5.56.2.2.50.50.360.497.620.0_fa2.50.50.60.50.65.56_fb_fh_fc3.34.55.3.34.55.50.61.61.50.50.50_fd1.0.50.F63BC5.56_fe58.61_ff0000000000_fg0.50_pa13.F63BC5.24.0.40.58.100.41.0.0_t00_pb_pc_pd_pe_ga0_gb1_gc9.5_ge0000000000_gh_gf_gg_gd10000000_ha89.89_hb100.1.100.99_hc0.59.39.0.59.39_hd51.1.49.49_ia_if_ib_id_ic_jc_ie_ja_jb_jd_je_jf_jg_ka_kb9.3.42.42_kc_kd_ke_kf_la11.ba2636.55.0.1_lb_oa_os_ob_oc_od_oe_of_lc_m00_n00_s00_og_oh_oo_op_oq_or_om_on_ok_ol_oi_oj_ad0.0.0.0.0.0.0.0.0.0
2-shocked=47**aa11.59.1.16.50.11.59.1.16.50_ab_ac_ba50_bb6.1_bc412.500.8.0.1_bd6_be180_ca57.0.42.75.15.27.30.0.20_cb0_da0.0.0.100_db0.0_dd0.0.34.50.52.50_dh0.35.50.50.0_di8_qa_qb_dc28.1.0.0.0_eh1.F63BC5_ea32.F63BC5.F63BC5.56.0.0_ec20.36.F63BC5.F63BC5.56.40.65.0_ed41.50.1.1.F63BC5.56_ef_eg_r0034.F63BC5.F63BC5.56.2.2.50.50.360.497.620.0_fa2.50.50.60.50.65.56_fb_fh_fc3.34.55.3.34.55.50.61.61.50.50.50_fd1.0.50.F63BC5.56_fe58.61_ff0000000000_fg0.50_pa13.F63BC5.24.0.40.58.100.41.0.0_t00_pb_pc_pd_pe_ga0_gb1_gc9.5_ge0000000000_gh_gf_gg_gd10000000_ha89.89_hb50.1.65.20_hc0.59.39.0.59.39_hd41.1.49.49_ia_if_ib_id_ic_jc_ie_ja_jb_jd_je_jf_jg_ka_kb9.3.42.42_kc_kd_ke_kf_la11.ba2636.55.0.1_lb_oa_os_ob_oc_od_oe_of_lc_m00_n00_s00_og_oh_oo_op_oq_or_om_on_ok_ol_oi_oj_ad0.0.0.0.0.0.0.0.0.0
2-sad=47**aa1.0.0.0.50.1.0.0.0.50_ab_ac_ba50_bb6.1_bc500.500.8.0.1_bd6_be180_ca57.0.42.75.15.27.30.0.20_cb0_da0.0.0.100_db0.0_dd0.0.34.50.52.50_dh0.35.50.50.0_di8_qa_qb_dc28.1.0.0.0_eh1.F63BC5_ea32.F63BC5.F63BC5.56.0.0_ec20.36.F63BC5.F63BC5.56.40.65.0_ed41.50.1.1.F63BC5.56_ef_eg_r0034.F63BC5.F63BC5.56.2.2.50.50.360.497.620.0_fa2.50.50.60.50.65.56_fb_fh_fc3.34.55.3.34.55.50.61.61.50.50.50_fd1.0.50.F63BC5.56_fe58.61_ff0000000000_fg0.50_pa13.F63BC5.24.0.40.58.100.41.0.0_t00_pb_pc_pd_pe_ga0_gb1_gc19.21_ge0000000000_gh_gf_gg_gd10010000_ha66.66_hb50.1.50.100_hc0.59.39.0.59.39_hd5.1.49.49_ia_if_ib_id_ic_jc_ie_ja_jb_jd_je_jf_jg_ka_kb9.3.42.42_kc_kd_ke_kf_la11.ba2636.55.0.1_lb_oa_os_ob_oc_od_oe_of_lc_m00_n00_s00_og_oh_oo_op_oq_or_om_on_ok_ol_oi_oj_ad0.0.0.0.0.0.0.0.0.0
2-interested=47**aa16.84.0.0.50.16.84.0.0.50_ab_ac_ba50_bb6.1_bc587.500.8.0.1_bd6_be180_ca57.0.42.75.15.27.30.0.20_cb0_da0.0.0.100_db0.0_dd0.0.34.50.52.50_dh0.35.50.50.0_di8_qa_qb_dc28.1.0.0.0_eh1.F63BC5_ea32.F63BC5.F63BC5.56.0.0_ec20.36.F63BC5.F63BC5.56.40.65.0_ed41.50.1.1.F63BC5.56_ef_eg_r0034.F63BC5.F63BC5.56.2.2.50.50.360.497.620.0_fa2.50.50.60.50.65.56_fb_fh_fc3.34.55.3.34.55.50.61.61.50.50.50_fd1.0.50.F63BC5.56_fe58.61_ff0000000000_fg0.50_pa13.F63BC5.24.0.40.58.100.41.0.0_t00_pb_pc_pd_pe_ga0_gb1_gc14.0_ge0000000000_gh_gf_gg_gd10000000_ha0.0_hb49.1.44.99_hc0.59.39.0.59.39_hd34.1.50.49_ia_if_ib_id_ic_jc_ie_ja_jb_jd_je_jf_jg_ka_kb9.3.42.42_kc_kd_ke_kf_la11.ba2636.55.0.1_lb_oa_os_ob_oc_od_oe_of_lc_m00_n00_s00_og_oh_oo_op_oq_or_om_on_ok_ol_oi_oj_ad0.0.0.0.0.0.0.0.0.0
2-calm=47**aa16.0.0.0.50.16.0.0.0.50_ab_ac_ba50_bb6.1_bc675.500.8.0.1_bd6_be180_ca57.0.42.75.15.27.30.0.20_cb0_da0.0.0.100_db_dd0.0.34.50.52.50_dh0.35.50.50.0_di8_qa_qb_dc28.1.0.0.0_eh_ea32.F63BC5.F63BC5.56.0.0_ec20.36.F63BC5.F63BC5.56.40.65.0_ed41.50.1.1.F63BC5.56_ef_eg_r0034.F63BC5.F63BC5.56.2.2.50.50.360.497.620.0_fa2.50.50.60.50.65.56_fb_fh_fc3.34.55.3.34.55.50.61.61.50.50.50_fd1.0.50.F63BC5.56_fe58.61_ff0000000000_fg0.50_pa13.F63BC5.24.0.40.58.100.41.0.0_t00_pb_pc_pd_pe_ga0_gb1_gc12.0_ge0000000000_gh_gf_gg_gd10000000_ha89.89_hb49.1.44.99_hc0.59.39.0.59.39_hd0.1.49.49_ia_if_ib_id_ic_jc_ie_ja_jb_jd_je_jf_jg_ka_kb9.3.42.42_kc_kd_ke_kf_la11.ba2636.55.0.1_lb_oa_os_ob_oc_od_oe_of_lc_m00_n00_s00_og_oh_oo_op_oq_or_om_on_ok_ol_oi_oj_ad0.0.0.0.0.0.0.0.0.0
2-horny=47**aa1.0.0.0.50.1.0.0.0.50_ab_ac_ba50_bb6.1_bc762.500.8.0.1_bd6_be180_ca57.0.42.75.15.27.30.0.20_cb0_da0.0.0.100_db0.0_dd0.0.34.50.52.50_dh0.35.50.50.0_di8_qa_qb_dc28.1.0.0.0_eh1.F63BC5_ea32.F63BC5.F63BC5.56.0.0_ec20.36.F63BC5.F63BC5.56.40.65.0_ed41.50.1.1.F63BC5.56_ef_eg_r0034.F63BC5.F63BC5.56.2.2.50.50.360.497.620.0_fa2.50.50.60.50.65.56_fb_fh_fc3.34.55.3.34.55.50.61.61.50.50.50_fd1.0.50.F63BC5.56_fe58.61_ff0000000000_fg0.50_pa13.F63BC5.24.0.40.58.100.41.0.0_t00_pb_pc_pd_pe_ga0_gb1_gc19.0_ge0000000000_gh_gf_gg_gd10000000_ha89.89_hb50.1.50.100_hc0.59.39.0.59.39_hd28.1.49.49_ia_if_ib_id_ic_jc_ie_ja_jb_jd_je_jf_jg_ka_kb9.3.42.42_kc_kd_ke_kf_la11.ba2636.55.0.1_lb_oa_os_ob_oc_od_oe_of_lc_m00_n00_s00_og_oh_oo_op_oq_or_om_on_ok_ol_oi_oj_ad0.0.0.0.0.0.0.0.0.0
2-happy=47**aa16.54.1.12.63.16.54.1.12.64_ab_ac_ba50_bb5.1_bc850.500.8.0.1_bd5_be180_ca57.0.42.75.15.27.30.0.20_cb0_da0.0.0.100_db_dd0.0.34.50.52.50_dh0.35.50.50.0_di8_qa_qb_dc28.1.0.0.0_eh_ea32.F63BC5.F63BC5.56.0.0_ec20.36.F63BC5.F63BC5.56.40.65.0_ed41.50.1.1.F63BC5.56_ef_eg_r0034.F63BC5.F63BC5.56.2.2.50.50.360.497.620.0_fa2.50.50.60.50.65.56_fb_fh_fc3.34.55.3.34.55.50.61.61.50.50.50_fd1.0.50.F63BC5.56_fe58.61_ff0000000000_fg0.50_pa13.F63BC5.24.0.40.58.100.41.0.0_t00_pb_pc_pd_pe_ga0_gb1_gc6.0_ge0000000000_gh_gf_gg_gd10000000_ha100.100_hb49.1.44.99_hc0.59.39.0.59.39_hd24.1.49.50_ia_if_ib_id_ic_jc_ie_ja_jb_jd_je_jf_jg_ka_kb9.3.42.42_kc_kd_ke_kf_la11.ba2636.55.0.1_lb_oa_os_ob_oc_od_oe_of_lc_m00_n00_s00_og_oh_oo_op_oq_or_om_on_ok_ol_oi_oj_ad0.0.0.0.0.0.0.0.0.0
2-annoyed=47**aa17.67.1.28.50.17.67.1.28.50_ab_ac_ba50_bb7.1_bc150.500.8.0.1_bd7_be180_ca57.0.42.75.15.27.30.0.20_cb0_da0.0.0.100_db_dd0.0.34.50.52.50_dh0.35.50.50.0_di8_qa_qb_dc28.1.0.0.0_eh_ea32.F63BC5.F63BC5.56.0.0_ec20.36.F63BC5.F63BC5.56.40.65.0_ed41.50.1.1.F63BC5.56_ef_eg_r0034.F63BC5.F63BC5.56.2.2.50.50.360.497.620.0_fa2.50.50.60.50.65.56_fb_fh_fc3.34.55.3.34.55.50.61.61.50.50.50_fd1.0.50.F63BC5.56_fe58.61_ff0000000000_fg0.50_pa13.F63BC5.24.0.40.58.100.41.0.0_t00_pb_pc_pd_pe_ga0_gb1_gc0.0_ge0000000000_gh_gf_gg_gd10000000_ha95.95_hb0.1.100.99_hc2.48.0.2.48.0_hd5.0.49.49_ia_if_ib_id_ic_jc_ie_ja_jb_jd_je_jf_jg_ka_kb9.3.42.42_kc_kd_ke_kf_la11.ba2636.55.0.1_lb_oa_os_ob_oc_od_oe_of_lc_m00_n00_s00_og_oh_oo_op_oq_or_om_on_ok_ol_oi_oj_ad0.0.0.0.0.0.0.0.0.0
2-mad=47**aa33.75.1.16.50.16.44.1.19.50_ab_ac_ba50_bb6.1_bc237.500.8.0.1_bd6_be180_ca57.0.42.75.15.27.30.0.20_cb0_da0.0.0.100_db0.0_dd0.0.34.50.52.50_dh0.35.50.50.0_di8_qa_qb_dc28.1.0.0.0_eh1.F63BC5_ea32.F63BC5.F63BC5.56.0.0_ec20.36.F63BC5.F63BC5.56.40.65.0_ed41.50.1.1.F63BC5.56_ef_eg_r0034.F63BC5.F63BC5.56.2.2.50.50.360.497.620.0_fa2.50.50.60.50.65.56_fb_fh_fc3.34.55.3.34.55.50.61.61.50.50.50_fd1.0.50.F63BC5.56_fe58.61_ff0000000000_fg0.50_pa13.F63BC5.24.0.40.58.100.41.0.0_t00_pb_pc_pd_pe_ga0_gb1_gc0.0_ge0000000000_gh_gf_gg_gd10000000_ha100.100_hb50.1.50.100_hc2.34.7.2.34.7_hd51.1.49.49_ia_if_ib_id_ic_jc_ie_ja_jb_jd_je_jf_jg_ka_kb9.3.42.42_kc_kd_ke_kf_la11.ba2636.55.0.1_lb_oa_os_ob_oc_od_oe_of_lc_m00_n00_s00_og_oh_oo_op_oq_or_om_on_ok_ol_oi_oj_ad0.0.0.0.0.0.0.0.0.0
2-confident=47**aa21.77.1.4.63.21.77.1.4.63_ab_ac_ba50_bb6.1_bc325.500.8.0.1_bd6_be180_ca57.0.42.75.15.27.30.0.20_cb0_da0.0.0.100_db0.0_dd0.0.34.50.52.50_dh0.35.50.50.0_di8_qa_qb_dc28.1.0.0.0_eh1.F63BC5_ea32.F63BC5.F63BC5.56.0.0_ec20.36.F63BC5.F63BC5.56.40.65.0_ed41.50.1.1.F63BC5.56_ef_eg_r0034.F63BC5.F63BC5.56.2.2.50.50.360.497.620.0_fa2.50.50.60.50.65.56_fb_fh_fc3.34.55.3.34.55.50.61.61.50.50.50_fd1.0.50.F63BC5.56_fe58.61_ff0000000000_fg0.50_pa13.F63BC5.24.0.40.58.100.41.0.0_t00_pb_pc_pd_pe_ga0_gb1_gc0.0_ge0000000000_gh_gf_gg_gd10000000_ha0.0_hb50.1.50.100_hc0.59.39.0.59.39_hd35.1.49.49_ia_if_ib_id_ic_jc_ie_ja_jb_jd_je_jf_jg_ka_kb9.3.42.42_kc_kd_ke_kf_la11.ba2636.55.0.1_lb_oa_os_ob_oc_od_oe_of_lc_m00_n00_s00_og_oh_oo_op_oq_or_om_on_ok_ol_oi_oj_ad0.0.0.0.0.0.0.0.0.0
2-embarrassed=47**aa11.83.0.0.50.11.83.0.0.50_ab_ac_ba50_bb6.1_bc412.500.8.0.1_bd6_be180_ca57.0.42.75.15.27.30.0.20_cb0_da0.0.0.100_db0.0_dd0.0.34.50.52.50_dh0.35.50.50.0_di8_qa_qb_dc28.1.0.0.0_eh1.F63BC5_ea32.F63BC5.F63BC5.56.0.0_ec20.36.F63BC5.F63BC5.56.40.65.0_ed41.50.1.1.F63BC5.56_ef_eg_r0034.F63BC5.F63BC5.56.2.2.50.50.360.497.620.0_fa2.50.50.60.50.65.56_fb_fh_fc3.34.55.3.34.55.50.61.61.50.50.50_fd1.0.50.F63BC5.56_fe58.61_ff0000000000_fg0.50_pa13.F63BC5.24.0.40.58.100.41.0.0_t00_pb_pc_pd_pe_ga0_gb1_gc26.0_ge0000000000_gh_gf_gg_gd10000000_ha89.89_hb100.1.100.99_hc0.59.39.0.59.39_hd50.1.49.49_ia_if_ib_id_ic_jc_ie_ja_jb_jd_je_jf_jg_ka_kb9.3.42.42_kc_kd_ke_kf_la11.ba2636.55.0.1_lb_oa_os_ob_oc_od_oe_of_lc_m00_n00_s00_og_oh_oo_op_oq_or_om_on_ok_ol_oi_oj_ad0.0.0.0.0.0.0.0.0.0
2-stripping=47**aa20.87.1.45.50.20.87.1.45.50_ab_ac_ba50_bb6.1_bc500.500.8.0.1_bd6_be180_ca57.0.42.75.15.27.30.0.20_cb0_da0.0.0.100_db_dd0.0.34.50.52.50_dh0.35.50.50.0_di8_qa_qb_dc28.1.0.0.0_eh_ea32.F63BC5.F63BC5.56.0.0_ec20.36.F63BC5.F63BC5.56.40.65.0_ed41.50.1.1.F63BC5.56_ef_eg_r0034.F63BC5.F63BC5.56.2.2.50.50.360.497.620.0_fa2.50.50.60.50.65.56_fb_fh_fc3.34.55.3.34.55.50.61.61.50.50.50_fd1.0.50.F63BC5.56_fe58.61_ff0000000000_fg0.50_pa13.F63BC5.24.0.40.58.100.41.0.0_t00_pb_pc_pd_pe_ga0_gb1_gc19.0_ge0000000000_gh_gf_gg_gd10000000_ha89.89_hb49.1.0.30_hc3.59.39.3.59.39_hd47.1.49.49_ia_if_ib_id_ic_jc_ie_ja_jb_jd_je_jf_jg_ka_kb9.3.42.42_kc_kd_ke_kf_la11.ba2636.55.0.1_lb_oa_os_ob_oc_od_oe_of_lc_m00_n00_s00_og_oh_oo_op_oq_or_om_on_ok_ol_oi_oj_ad0.0.0.0.0.0.0.0.0.0

#lost panties
3-stripped=47**aa13.86.1.28.60.12.86.1.28.60_ab_ac_ba50_bb6.1_bc150.500.8.0.1_bd6_be180_ca57.0.42.75.15.27.30.0.20_cb0_da0.0.0.100_db_dd0.0.34.50.52.50_dh0.35.50.50.0_di8_qa_qb_dc28.1.0.0.0_eh1.F63BC5_ea32.F63BC5.F63BC5.56.0.0_ec20.36.F63BC5.F63BC5.56.40.65.0_ed41.50.1.1.F63BC5.56_ef_eg_r0034.F63BC5.F63BC5.56.2.2.50.50.360.497.620.0_fa2.50.50.60.50.65.56_fb_fh_fc3.34.55.3.34.55.50.61.61.50.50.50_fd1.0.50.F63BC5.56_fe58.61_ff0000000000_fg0.50_pa13.F63BC5.24.0.40.58.100.41.0.0_t00_pb_pc_pd_pe_ga0_gb1_gc22.0_ge0000000000_gh_gf_gg_gd10000000_ha85.85_hb2.1.44.99_hc0.59.39.0.59.39_hd9.1.50.50_ia_if_ib_id_ic_jc_ie_ja_jb_jd_je_jf_jg_ka_kb_kc_kd_ke_kf_la11.ba2636.55.0.1_lb_oa_os_ob_oc_od_oe_of_lc_m00_n00_s00_og_oh_oo_op_oq_or_om_on_ok_ol_oi_oj_ad0.0.0.0.0.0.0.0.0.0
3-loss=47**aa16.80.0.0.50.16.80.0.0.50_ab_ac_ba50_bb6.1_bc237.500.8.0.1_bd6_be180_ca57.0.42.75.15.27.30.0.20_cb0_da0.0.0.100_db0.0_dd0.0.34.50.52.50_dh0.35.50.50.0_di8_qa_qb_dc28.1.0.0.0_eh1.F63BC5_ea32.F63BC5.F63BC5.56.0.0_ec20.36.F63BC5.F63BC5.56.40.65.0_ed41.50.1.1.F63BC5.56_ef_eg_r0034.F63BC5.F63BC5.56.2.2.50.50.360.497.620.0_fa2.50.50.60.50.65.56_fb_fh_fc3.34.55.3.34.55.50.61.61.50.50.50_fd1.0.50.F63BC5.56_fe58.61_ff0000000000_fg0.50_pa13.F63BC5.24.0.40.58.100.41.0.0_t00_pb_pc_pd_pe_ga0_gb1_gc0.15_ge0000000000_gh_gf_gg_gd10000000_ha87.87_hb50.1.50.100_hc3.50.7.3.50.7_hd5.0.49.49_ia_if_ib_id_ic_jc_ie_ja_jb_jd_je_jf_jg_ka_kb_kc_kd_ke_kf_la11.ba2636.55.0.1_lb_oa_os_ob_oc_od_oe_of_lc_m00_n00_s00_og_oh_oo_op_oq_or_om_on_ok_ol_oi_oj_ad0.0.0.0.0.0.0.0.0.0
3-awkward=47**aa11.59.1.16.50.11.59.1.16.50_ab_ac_ba50_bb6.1_bc325.500.8.0.1_bd6_be180_ca57.0.42.75.15.27.30.0.20_cb0_da0.0.0.100_db0.0_dd0.0.34.50.52.50_dh0.35.50.50.0_di8_qa_qb_dc28.1.0.0.0_eh1.F63BC5_ea32.F63BC5.F63BC5.56.0.0_ec20.36.F63BC5.F63BC5.56.40.65.0_ed41.50.1.1.F63BC5.56_ef_eg_r0034.F63BC5.F63BC5.56.2.2.50.50.360.497.620.0_fa2.50.50.60.50.65.56_fb_fh_fc3.34.55.3.34.55.50.61.61.50.50.50_fd1.0.50.F63BC5.56_fe58.61_ff0000000000_fg0.50_pa13.F63BC5.24.0.40.58.100.41.0.0_t00_pb_pc_pd_pe_ga0_gb1_gc9.5_ge0000000000_gh_gf_gg_gd10000000_ha89.89_hb100.1.100.99_hc0.59.39.0.59.39_hd51.1.49.49_ia_if_ib_id_ic_jc_ie_ja_jb_jd_je_jf_jg_ka_kb_kc_kd_ke_kf_la11.ba2636.55.0.1_lb_oa_os_ob_oc_od_oe_of_lc_m00_n00_s00_og_oh_oo_op_oq_or_om_on_ok_ol_oi_oj_ad0.0.0.0.0.0.0.0.0.0
3-shocked=47**aa11.59.1.16.50.11.59.1.16.50_ab_ac_ba50_bb6.1_bc412.500.8.0.1_bd6_be180_ca57.0.42.75.15.27.30.0.20_cb0_da0.0.0.100_db0.0_dd0.0.34.50.52.50_dh0.35.50.50.0_di8_qa_qb_dc28.1.0.0.0_eh1.F63BC5_ea32.F63BC5.F63BC5.56.0.0_ec20.36.F63BC5.F63BC5.56.40.65.0_ed41.50.1.1.F63BC5.56_ef_eg_r0034.F63BC5.F63BC5.56.2.2.50.50.360.497.620.0_fa2.50.50.60.50.65.56_fb_fh_fc3.34.55.3.34.55.50.61.61.50.50.50_fd1.0.50.F63BC5.56_fe58.61_ff0000000000_fg0.50_pa13.F63BC5.24.0.40.58.100.41.0.0_t00_pb_pc_pd_pe_ga0_gb1_gc9.5_ge0000000000_gh_gf_gg_gd10000000_ha89.89_hb50.1.65.20_hc0.59.39.0.59.39_hd41.1.49.49_ia_if_ib_id_ic_jc_ie_ja_jb_jd_je_jf_jg_ka_kb_kc_kd_ke_kf_la11.ba2636.55.0.1_lb_oa_os_ob_oc_od_oe_of_lc_m00_n00_s00_og_oh_oo_op_oq_or_om_on_ok_ol_oi_oj_ad0.0.0.0.0.0.0.0.0.0
3-sad=47**aa1.0.0.0.50.1.0.0.0.50_ab_ac_ba50_bb6.1_bc500.500.8.0.1_bd6_be180_ca57.0.42.75.15.27.30.0.20_cb0_da0.0.0.100_db0.0_dd0.0.34.50.52.50_dh0.35.50.50.0_di8_qa_qb_dc28.1.0.0.0_eh1.F63BC5_ea32.F63BC5.F63BC5.56.0.0_ec20.36.F63BC5.F63BC5.56.40.65.0_ed41.50.1.1.F63BC5.56_ef_eg_r0034.F63BC5.F63BC5.56.2.2.50.50.360.497.620.0_fa2.50.50.60.50.65.56_fb_fh_fc3.34.55.3.34.55.50.61.61.50.50.50_fd1.0.50.F63BC5.56_fe58.61_ff0000000000_fg0.50_pa13.F63BC5.24.0.40.58.100.41.0.0_t00_pb_pc_pd_pe_ga0_gb1_gc19.21_ge0000000000_gh_gf_gg_gd10010000_ha66.66_hb50.1.50.100_hc0.59.39.0.59.39_hd5.1.49.49_ia_if_ib_id_ic_jc_ie_ja_jb_jd_je_jf_jg_ka_kb_kc_kd_ke_kf_la11.ba2636.55.0.1_lb_oa_os_ob_oc_od_oe_of_lc_m00_n00_s00_og_oh_oo_op_oq_or_om_on_ok_ol_oi_oj_ad0.0.0.0.0.0.0.0.0.0
3-interested=47**aa16.84.0.0.50.16.84.0.0.50_ab_ac_ba50_bb6.1_bc587.500.8.0.1_bd6_be180_ca57.0.42.75.15.27.30.0.20_cb0_da0.0.0.100_db0.0_dd0.0.34.50.52.50_dh0.35.50.50.0_di8_qa_qb_dc28.1.0.0.0_eh1.F63BC5_ea32.F63BC5.F63BC5.56.0.0_ec20.36.F63BC5.F63BC5.56.40.65.0_ed41.50.1.1.F63BC5.56_ef_eg_r0034.F63BC5.F63BC5.56.2.2.50.50.360.497.620.0_fa2.50.50.60.50.65.56_fb_fh_fc3.34.55.3.34.55.50.61.61.50.50.50_fd1.0.50.F63BC5.56_fe58.61_ff0000000000_fg0.50_pa13.F63BC5.24.0.40.58.100.41.0.0_t00_pb_pc_pd_pe_ga0_gb1_gc14.0_ge0000000000_gh_gf_gg_gd10000000_ha0.0_hb49.1.44.99_hc0.59.39.0.59.39_hd34.1.50.49_ia_if_ib_id_ic_jc_ie_ja_jb_jd_je_jf_jg_ka_kb_kc_kd_ke_kf_la11.ba2636.55.0.1_lb_oa_os_ob_oc_od_oe_of_lc_m00_n00_s00_og_oh_oo_op_oq_or_om_on_ok_ol_oi_oj_ad0.0.0.0.0.0.0.0.0.0
3-calm=47**aa10.66.1.28.50.10.66.1.28.50_ab_ac_ba50_bb6.1_bc675.500.8.0.1_bd6_be180_ca57.0.42.75.15.27.30.0.20_cb0_da0.0.0.100_db_dd0.0.34.50.52.50_dh0.35.50.50.0_di8_qa_qb_dc28.1.0.0.0_eh1.F63BC5_ea32.F63BC5.F63BC5.56.0.0_ec20.36.F63BC5.F63BC5.56.40.65.0_ed41.50.1.1.F63BC5.56_ef_eg_r0034.F63BC5.F63BC5.56.2.2.50.50.360.497.620.0_fa2.50.50.60.50.65.56_fb_fh_fc3.34.55.3.34.55.50.61.61.50.50.50_fd1.0.50.F63BC5.56_fe58.61_ff0000000000_fg0.50_pa13.F63BC5.24.0.40.58.100.41.0.0_t00_pb_pc_pd_pe_ga0_gb1_gc26.0_ge0000000000_gh_gf_gg_gd10000000_ha89.89_hb0.1.44.99_hc0.59.39.0.59.39_hd34.1.50.50_ia_if_ib_id_ic_jc_ie_ja_jb_jd_je_jf_jg_ka_kb_kc_kd_ke_kf_la11.ba2636.55.0.1_lb_oa_os_ob_oc_od_oe_of_lc_m00_n00_s00_og_oh_oo_op_oq_or_om_on_ok_ol_oi_oj_ad0.0.0.0.0.0.0.0.0.0
3-horny=47**aa19.66.1.3.50.12.0.0.0.50_ab_ac_ba50_bb6.1_bc762.500.8.0.1_bd6_be180_ca57.0.42.75.15.27.30.0.20_cb0_da0.0.0.100_db0.0_dd0.0.34.50.52.50_dh0.35.50.50.0_di8_qa_qb_dc28.1.0.0.0_eh1.F63BC5_ea32.F63BC5.F63BC5.56.0.0_ec20.36.F63BC5.F63BC5.56.40.65.0_ed41.50.1.1.F63BC5.56_ef_eg_r0034.F63BC5.F63BC5.56.2.2.50.50.360.497.620.0_fa2.50.50.60.50.65.56_fb_fh_fc3.34.55.3.34.55.50.61.61.50.50.50_fd1.0.50.F63BC5.56_fe58.61_ff0000000000_fg0.50_pa13.F63BC5.24.0.40.58.100.41.0.0_t00_pb_pc_pd_pe_ga0_gb1_gc19.0_ge0000000000_gh_gf_gg_gd10000000_ha89.89_hb50.1.50.100_hc0.59.39.0.59.39_hd35.1.49.49_ia_if_ib_id_ic_jc_ie_ja_jb_jd_je_jf_jg_ka_kb_kc_kd_ke_kf_la11.ba2636.55.0.1_lb_oa_os_ob_oc_od_oe_of_lc_m00_n00_s00_og_oh_oo_op_oq_or_om_on_ok_ol_oi_oj_ad0.0.0.0.0.0.0.0.0.0
3-happy=47**aa16.54.1.12.63.16.54.1.12.64_ab_ac_ba50_bb5.1_bc850.500.8.0.1_bd5_be180_ca57.0.42.75.15.27.30.0.20_cb0_da0.0.0.100_db_dd0.0.34.50.52.50_dh0.35.50.50.0_di8_qa_qb_dc28.1.0.0.0_eh1.F63BC5_ea32.F63BC5.F63BC5.56.0.0_ec20.36.F63BC5.F63BC5.56.40.65.0_ed41.50.1.1.F63BC5.56_ef_eg_r0034.F63BC5.F63BC5.56.2.2.50.50.360.497.620.0_fa2.50.50.60.50.65.56_fb_fh_fc3.34.55.3.34.55.50.61.61.50.50.50_fd1.0.50.F63BC5.56_fe58.61_ff0000000000_fg0.50_pa13.F63BC5.24.0.40.58.100.41.0.0_t00_pb_pc_pd_pe_ga0_gb1_gc6.0_ge0000000000_gh_gf_gg_gd10000000_ha100.100_hb49.1.44.99_hc0.59.39.0.59.39_hd24.1.49.50_ia_if_ib_id_ic_jc_ie_ja_jb_jd_je_jf_jg_ka_kb_kc_kd_ke_kf_la11.ba2636.55.0.1_lb_oa_os_ob_oc_od_oe_of_lc_m00_n00_s00_og_oh_oo_op_oq_or_om_on_ok_ol_oi_oj_ad0.0.0.0.0.0.0.0.0.0
3-annoyed=47**aa17.67.1.28.50.17.67.1.28.50_ab_ac_ba50_bb7.1_bc150.500.8.0.1_bd7_be180_ca57.0.42.75.15.27.30.0.20_cb0_da0.0.0.100_db_dd0.0.34.50.52.50_dh0.35.50.50.0_di8_qa_qb_dc28.1.0.0.0_eh1.F63BC5_ea32.F63BC5.F63BC5.56.0.0_ec20.36.F63BC5.F63BC5.56.40.65.0_ed41.50.1.1.F63BC5.56_ef_eg_r0034.F63BC5.F63BC5.56.2.2.50.50.360.497.620.0_fa2.50.50.60.50.65.56_fb_fh_fc3.34.55.3.34.55.50.61.61.50.50.50_fd1.0.50.F63BC5.56_fe58.61_ff0000000000_fg0.50_pa13.F63BC5.24.0.40.58.100.41.0.0_t00_pb_pc_pd_pe_ga0_gb1_gc16.0_ge0000000000_gh_gf_gg_gd10000000_ha95.95_hb0.1.100.99_hc2.48.0.2.48.0_hd5.0.49.49_ia_if_ib_id_ic_jc_ie_ja_jb_jd_je_jf_jg_ka_kb_kc_kd_ke_kf_la11.ba2636.55.0.1_lb_oa_os_ob_oc_od_oe_of_lc_m00_n00_s00_og_oh_oo_op_oq_or_om_on_ok_ol_oi_oj_ad0.0.0.0.0.0.0.0.0.0
3-mad=47**aa33.75.1.16.50.16.44.1.19.50_ab_ac_ba50_bb6.1_bc237.500.8.0.1_bd6_be180_ca57.0.42.75.15.27.30.0.20_cb0_da0.0.0.100_db0.0_dd0.0.34.50.52.50_dh0.35.50.50.0_di8_qa_qb_dc28.1.0.0.0_eh1.F63BC5_ea32.F63BC5.F63BC5.56.0.0_ec20.36.F63BC5.F63BC5.56.40.65.0_ed41.50.1.1.F63BC5.56_ef_eg_r0034.F63BC5.F63BC5.56.2.2.50.50.360.497.620.0_fa2.50.50.60.50.65.56_fb_fh_fc3.34.55.3.34.55.50.61.61.50.50.50_fd1.0.50.F63BC5.56_fe58.61_ff0000000000_fg0.50_pa13.F63BC5.24.0.40.58.100.41.0.0_t00_pb_pc_pd_pe_ga0_gb1_gc0.0_ge0000000000_gh_gf_gg_gd10000000_ha100.100_hb50.1.50.100_hc2.34.7.2.34.7_hd51.1.49.49_ia_if_ib_id_ic_jc_ie_ja_jb_jd_je_jf_jg_ka_kb_kc_kd_ke_kf_la11.ba2636.55.0.1_lb_oa_os_ob_oc_od_oe_of_lc_m00_n00_s00_og_oh_oo_op_oq_or_om_on_ok_ol_oi_oj_ad0.0.0.0.0.0.0.0.0.0
3-confident=47**aa21.77.1.4.63.21.77.1.4.63_ab_ac_ba50_bb6.1_bc325.500.8.0.1_bd6_be180_ca57.0.42.75.15.27.30.0.20_cb0_da0.0.0.100_db0.0_dd0.0.34.50.52.50_dh0.35.50.50.0_di8_qa_qb_dc28.1.0.0.0_eh1.F63BC5_ea32.F63BC5.F63BC5.56.0.0_ec20.36.F63BC5.F63BC5.56.40.65.0_ed41.50.1.1.F63BC5.56_ef_eg_r0034.F63BC5.F63BC5.56.2.2.50.50.360.497.620.0_fa2.50.50.60.50.65.56_fb_fh_fc3.34.55.3.34.55.50.61.61.50.50.50_fd1.0.50.F63BC5.56_fe58.61_ff0000000000_fg0.50_pa13.F63BC5.24.0.40.58.100.41.0.0_t00_pb_pc_pd_pe_ga0_gb1_gc0.0_ge0000000000_gh_gf_gg_gd10000000_ha0.0_hb50.1.50.100_hc0.59.39.0.59.39_hd35.1.49.49_ia_if_ib_id_ic_jc_ie_ja_jb_jd_je_jf_jg_ka_kb_kc_kd_ke_kf_la11.ba2636.55.0.1_lb_oa_os_ob_oc_od_oe_of_lc_m00_n00_s00_og_oh_oo_op_oq_or_om_on_ok_ol_oi_oj_ad0.0.0.0.0.0.0.0.0.0
3-embarrassed=47**aa11.83.0.0.50.11.83.0.0.50_ab_ac_ba50_bb6.1_bc412.500.8.0.1_bd6_be180_ca57.0.42.75.15.27.30.0.20_cb0_da0.0.0.100_db0.0_dd0.0.34.50.52.50_dh0.35.50.50.0_di8_qa_qb_dc28.1.0.0.0_eh1.F63BC5_ea32.F63BC5.F63BC5.56.0.0_ec20.36.F63BC5.F63BC5.56.40.65.0_ed41.50.1.1.F63BC5.56_ef_eg_r0034.F63BC5.F63BC5.56.2.2.50.50.360.497.620.0_fa2.50.50.60.50.65.56_fb_fh_fc3.34.55.3.34.55.50.61.61.50.50.50_fd1.0.50.F63BC5.56_fe58.61_ff0000000000_fg0.50_pa13.F63BC5.24.0.40.58.100.41.0.0_t00_pb_pc_pd_pe_ga0_gb1_gc26.0_ge0000000000_gh_gf_gg_gd10000000_ha89.89_hb100.1.100.99_hc0.59.39.0.59.39_hd50.1.49.49_ia_if_ib_id_ic_jc_ie_ja_jb_jd_je_jf_jg_ka_kb_kc_kd_ke_kf_la11.ba2636.55.0.1_lb_oa_os_ob_oc_od_oe_of_lc_m00_n00_s00_og_oh_oo_op_oq_or_om_on_ok_ol_oi_oj_ad0.0.0.0.0.0.0.0.0.0
3-starting=47**aa8.89.1.45.75.15.82.1.28.50_ab_ac_ba50_bb6.1_bc500.500.8.0.1_bd6_be180_ca57.0.42.75.15.27.30.0.20_cb0_da0.0.0.100_db_dd0.0.34.50.52.50_dh0.35.50.50.0_di8_qa_qb_dc28.1.0.0.0_eh1.F63BC5_ea32.F63BC5.F63BC5.56.0.0_ec20.36.F63BC5.F63BC5.56.40.65.0_ed41.50.1.1.F63BC5.56_ef_eg_r0034.F63BC5.F63BC5.56.2.2.50.50.360.497.620.0_fa2.50.50.60.50.65.56_fb_fh_fc3.34.55.3.34.55.50.61.61.50.50.50_fd1.0.50.F63BC5.56_fe58.61_ff0000000000_fg0.50_pa13.F63BC5.24.0.40.58.100.41.0.0_t00_pb_pc_pd_pe_ga0_gb1_gc79.0_ge0000000000_gh_gf_gg_gd10000000_ha65.65_hb49.1.0.99_hc0.59.39.0.59.39_hd24.1.49.2_ia_if_ib_id_ic_jc_ie_ja_jb_jd_je_jf_jg_ka_kb_kc_kd_ke_kf_la11.ba2636.55.0.1_lb_oa_os_ob_oc_od_oe_of_lc_m00_n00_s00_og_oh_oo_op_oq_or_om_on_ok_ol_oi_oj_ad0.0.0.0.0.0.0.0.0.0

#masturbating
4-awkward=47**aa8.89.1.45.75.15.82.1.28.50_ab_ac_ba50_bb6.1_bc150.500.8.0.1_bd6_be180_ca57.0.42.75.15.27.30.0.20_cb0_da0.0.0.100_db_dd0.0.34.50.52.50_dh0.35.50.50.0_di8_qa_qb_dc66.1.0.0.0_eh1.F63BC5_ea32.F63BC5.F63BC5.56.0.0_ec20.36.F63BC5.F63BC5.56.40.65.0_ed41.50.1.1.F63BC5.56_ef_eg_r0034.F63BC5.F63BC5.56.2.2.50.50.360.497.620.0_fa2.50.50.60.50.65.56_fb_fh_fc3.34.55.3.34.55.50.61.61.50.50.50_fd1.0.50.F63BC5.56_fe58.61_ff0000000000_fg0.50_pa13.F63BC5.24.0.40.58.100.41.0.0_t00_pb_pc_pd_pe_ga0_gb1_gc77.0_ge0000000000_gh_gf_gg_gd10000000_ha100.100_hb0.1.78.91_hc0.59.39.0.59.39_hd12.1.71.41_ia_if_ib_id_ic_jc_ie_ja_jb_jd_je_jf_jg_ka_kb_kc_kd_ke_kf_la11.ba2636.55.0.1_lb_oa_os_ob_oc_od_oe_of_lc_m00_n00_s00_og_oh_oo_op_oq_or_om_on_ok_ol_oi_oj_ad0.0.0.0.0.0.0.0.0.0
4-calm=47**aa11.89.1.28.50.11.89.1.28.50_ab_ac_ba50_bb6.1_bc237.500.8.0.1_bd6_be180_ca57.0.42.75.15.27.30.0.20_cb0_da0.0.0.100_db_dd0.0.34.50.52.50_dh0.35.50.50.0_di8_qa_qb_dc84.1.0.0.0_eh1.F63BC5_ea32.F63BC5.F63BC5.56.0.0_ec20.36.F63BC5.F63BC5.56.40.65.0_ed41.50.1.1.F63BC5.56_ef_eg_r0034.F63BC5.F63BC5.56.2.2.50.50.360.497.620.0_fa2.50.50.60.50.65.56_fb_fh_fc3.34.55.3.34.55.50.61.61.50.50.50_fd1.0.50.F63BC5.56_fe58.61_ff0000000000_fg0.50_pa13.F63BC5.24.0.40.58.100.41.0.0_t00_pb_pc_pd_pe_ga0_gb1_gc66.0_ge0000000000_gh_gf_gg_gd10000000_ha89.89_hb49.1.44.99_hc0.59.39.0.59.39_hd0.1.49.49_ia_if_ib_id_ic_jc_ie_ja_jb_jd_je_jf_jg_ka_kb_kc_kd_ke_kf_la11.ba2636.55.0.1_lb_oa_os_ob_oc_od_oe_of_lc_m00_n00_s00_og_oh_oo_op_oq_or_om_on_ok_ol_oi_oj_ad0.0.0.0.0.0.0.0.0.0
4-happy=47**aa13.86.1.27.50.84.0.0.30.50_ab_ac_ba50_bb6.1_bc325.500.8.0.1_bd6_be180_ca57.0.42.75.15.27.30.0.20_cb0_da0.0.0.100_db_dd0.0.34.50.52.50_dh0.35.50.50.0_di8_qa_qb_dc91.1.0.0.0_eh1.F63BC5_ea32.F63BC5.F63BC5.56.0.0_ec20.36.F63BC5.F63BC5.56.40.65.0_ed41.50.1.1.F63BC5.56_ef_eg_r0034.F63BC5.F63BC5.56.2.2.50.50.360.497.620.0_fa2.50.50.60.50.65.56_fb_fh_fc3.34.55.3.34.55.50.61.61.50.50.50_fd1.0.50.F63BC5.56_fe58.61_ff0000000000_fg0.50_pa13.F63BC5.24.0.40.58.100.41.0.0_t00_pb_pc_pd_pe_ga0_gb1_gc66.0_ge0000000000_gh_gf_gg_gd10000000_ha0.0_hb49.1.44.99_hc0.59.39.0.59.39_hd24.1.49.49_ia_if_ib_id_ic_jc_ie_ja_jb_jd_je_jf_jg_ka_kb_kc_kd_ke_kf_la11.ba2636.55.0.1_lb_oa_os_ob_oc_od_oe_of_lc_m00_n00_s00_og_oh_oo_op_oq_or_om_on_ok_ol_oi_oj_ad0.0.0.0.0.0.0.0.0.0
4-horny=47**aa11.89.1.28.50.14.67.1.4.40_ab_ac_ba50_bb6.1_bc412.500.8.0.1_bd6_be180_ca57.0.42.75.15.27.30.0.20_cb0_da0.0.0.100_db_dd0.0.34.50.52.50_dh0.35.50.50.0_di8_qa_qb_dc84.1.0.0.0_eh1.F63BC5_ea32.F63BC5.F63BC5.56.0.0_ec20.36.F63BC5.F63BC5.56.40.65.0_ed41.50.1.1.F63BC5.56_ef_eg_r0034.F63BC5.F63BC5.56.2.2.50.50.360.497.620.0_fa2.50.50.60.50.65.56_fb_fh_fc3.34.55.3.34.55.50.61.61.50.50.50_fd1.0.50.F63BC5.56_fe58.61_ff0000000000_fg0.50_pa13.F63BC5.24.0.40.58.100.41.0.0_t00_pb_pc_pd_pe_ga0_gb1_gc80.0_ge0000000000_gh_gf_gg_gd10000000_ha89.89_hb49.1.44.100_hc0.59.39.0.59.39_hd31.1.45.50_ia_if_ib_id_ic_jc_ie_ja_jb_jd_je_jf_jg_ka_kb_kc_kd_ke_kf_la11.ba2636.55.0.1_lb_oa_os_ob_oc_od_oe_of_lc_m00_n00_s00_og_oh_oo_op_oq_or_om_on_ok_ol_oi_oj_ad0.0.0.0.0.0.0.0.0.0
4-interested=47**aa16.84.1.4.50.16.84.1.4.50_ab_ac_ba50_bb6.1_bc500.500.8.0.1_bd6_be180_ca57.0.42.75.15.27.30.0.20_cb0_da0.0.0.100_db0.0_dd0.0.34.50.52.50_dh0.35.50.50.0_di8_qa_qb_dc85.1.0.0.0_eh1.F63BC5_ea32.F63BC5.F63BC5.56.0.0_ec20.36.F63BC5.F63BC5.56.40.65.0_ed41.50.1.1.F63BC5.56_ef_eg_r0034.F63BC5.F63BC5.56.2.2.50.50.360.497.620.0_fa2.50.50.60.50.65.56_fb_fh_fc3.34.55.3.34.55.50.61.61.50.50.50_fd1.0.50.F63BC5.56_fe58.61_ff0000000000_fg0.50_pa13.F63BC5.24.0.40.58.100.41.0.0_t00_pb_pc_pd_pe_ga0_gb1_gc59.0_ge0000000000_gh_gf_gg_gd10000000_ha0.0_hb49.1.44.99_hc0.59.39.0.59.39_hd34.1.50.49_ia_if_ib_id_ic_jc_ie_ja_jb_jd_je_jf_jg_ka_kb_kc_kd_ke_kf_la11.ba2636.55.0.1_lb_oa_os_ob_oc_od_oe_of_lc_m00_n00_s00_og_oh_oo_op_oq_or_om_on_ok_ol_oi_oj_ad0.0.0.0.0.0.0.0.0.0
4-loss=47**aa0.0.0.0.50.12.87.1.28.63_ab_ac_ba50_bb6.1_bc587.500.8.0.1_bd6_be180_ca57.0.42.75.15.27.30.0.20_cb0_da0.0.0.100_db_dd0.0.34.50.52.50_dh0.35.50.50.0_di8_qa_qb_dc84.1.0.0.0_eh1.F63BC5_ea32.F63BC5.F63BC5.56.0.0_ec20.36.F63BC5.F63BC5.56.40.65.0_ed41.50.1.1.F63BC5.56_ef_eg_r0034.F63BC5.F63BC5.56.2.2.50.50.360.497.620.0_fa2.50.50.60.50.65.56_fb_fh_fc3.34.55.3.34.55.50.61.61.50.50.50_fd1.0.50.F63BC5.56_fe58.61_ff0000000000_fg0.50_pa13.F63BC5.24.0.40.58.100.41.0.0_t00_pb_pc_pd_pe_ga0_gb1_gc46.0_ge0000000000_gh_gf_gg_gd10100000_ha91.91_hb49.1.50.100_hc0.59.39.0.59.39_hd5.1.49.49_ia_if_ib_id_ic_jc_ie_ja_jb_jd_je_jf_jg_ka_kb_kc_kd_ke_kf_la11.ba2636.55.0.1_lb_oa_os_ob_oc_od_oe_of_lc_m00_n00_s00_og_oh_oo_op_oq_or_om_on_ok_ol_oi_oj_ad0.0.0.0.0.0.0.0.0.0
4-sad=47**aa0.0.0.0.50.12.87.1.28.63_ab_ac_ba50_bb6.1_bc675.500.8.0.1_bd6_be180_ca57.0.42.75.15.27.30.0.20_cb0_da0.0.0.100_db_dd0.0.34.50.52.50_dh0.35.50.50.0_di8_qa_qb_dc88.1.0.0.0_eh1.F63BC5_ea32.F63BC5.F63BC5.56.0.0_ec20.36.F63BC5.F63BC5.56.40.65.0_ed41.50.1.1.F63BC5.56_ef_eg_r0034.F63BC5.F63BC5.56.2.2.50.50.360.497.620.0_fa2.50.50.60.50.65.56_fb_fh_fc3.34.55.3.34.55.50.61.61.50.50.50_fd1.0.50.F63BC5.56_fe58.61_ff0000000000_fg0.50_pa13.F63BC5.24.0.40.58.100.41.0.0_t00_pb_pc_pd_pe_ga0_gb1_gc46.0_ge0000000000_gh_gf_gg_gd10100000_ha71.71_hb49.1.50.100_hc0.59.39.0.59.39_hd8.1.49.49_ia_if_ib_id_ic_jc_ie_ja_jb_jd_je_jf_jg_ka_kb_kc_kd_ke_kf_la11.ba2636.55.0.1_lb_oa_os_ob_oc_od_oe_of_lc_m00_n00_s00_og_oh_oo_op_oq_or_om_on_ok_ol_oi_oj_ad0.0.0.0.0.0.0.0.0.0
4-shocked=47**aa19.45.0.8.50.9.88.1.16.50_ab_ac_ba50_bb4.1_bc762.500.8.0.1_bd4_be180_ca57.0.42.75.15.27.30.0.20_cb0_da0.0.0.100_db_dd0.0.34.50.52.50_dh0.35.50.50.0_di8_qa_qb_dc87.1.0.0.0_eh1.F63BC5_ea32.F63BC5.F63BC5.56.0.0_ec20.36.F63BC5.F63BC5.56.40.65.0_ed41.50.1.1.F63BC5.56_ef_eg_r0034.F63BC5.F63BC5.56.2.2.50.50.360.497.620.0_fa2.50.50.60.50.65.56_fb_fh_fc3.34.55.3.34.55.50.61.61.50.50.50_fd1.0.50.F63BC5.56_fe58.61_ff0000000000_fg0.50_pa13.F63BC5.24.0.40.58.100.41.0.0_t00_pb_pc_pd_pe_ga0_gb1_gc60.0_ge0000000000_gh_gf_gg_gd10100000_ha89.89_hb49.1.44.41_hc0.59.39.0.59.39_hd31.1.49.49_ia_if_ib_id_ic_jc_ie_ja_jb_jd_je_jf_jg_ka_kb_kc_kd_ke_kf_la11.ba2636.55.0.1_lb_oa_os_ob_oc_od_oe_of_lc_m00_n00_s00_og_oh_oo_op_oq_or_om_on_ok_ol_oi_oj_ad0.0.0.0.0.0.0.0.0.0
4-finishing=47**aa13.86.1.28.61.13.69.1.4.20_ab_ac_ba50_bb4.1_bc850.500.8.0.1_bd4_be180_ca57.0.42.75.15.27.30.0.20_cb0_da0.0.0.100_db_dd2.0.34.50.52.50_dh0.35.50.50.0_di8_qa_qb_dc113.1.0.0.0_eh1.F63BC5_ea32.F63BC5.F63BC5.56.0.0_ec20.36.F63BC5.F63BC5.56.40.65.0_ed41.50.1.1.F63BC5.56_ef_eg_r0034.F63BC5.F63BC5.56.2.2.50.50.360.497.620.0_fa2.50.50.60.50.65.56_fb_fh_fc3.34.55.3.34.55.50.61.61.50.50.50_fd1.0.50.F63BC5.56_fe58.61_ff0000000000_fg0.50_pa13.F63BC5.24.0.40.58.100.41.0.0_t00_pb_pc_pd_pe_ga0_gb1_gc76.0_ge0000000000_gh_gf_gg_gd10100000_ha56.56_hb49.1.0.41_hc0.59.39.0.59.39_hd31.1.49.49_ia_if_ib_id_ic_jc_ie_ja_jb_jd_je_jf_jg_ka_kb_kc_kd_ke_kf_la11.ba2636.55.0.1_lb_oa_os_ob_oc_od_oe_of_lc_m00_n00_s00_og_oh_oo_op_oq_or_om_on_ok_ol_oi_oj_ad0.0.0.0.0.0.0.0.0.0
4-heavy=47**aa13.86.1.28.61.13.69.1.4.20_ab_ac_ba50_bb4.1_bc850.500.8.0.1_bd4_be180_ca57.0.42.75.15.27.30.0.20_cb0_da0.0.0.100_db_dd2.0.34.50.52.50_dh0.35.50.50.0_di8_qa_qb_dc178.1.0.0.0_eh1.F63BC5_ea32.F63BC5.F63BC5.56.0.0_ec20.36.F63BC5.F63BC5.56.40.65.0_ed41.50.1.1.F63BC5.56_ef_eg_r0034.F63BC5.F63BC5.56.2.2.50.50.360.497.620.0_fa2.50.50.60.50.65.56_fb_fh_fc3.34.55.3.34.55.50.61.61.50.50.50_fd1.0.50.F63BC5.56_fe58.61_ff0000000000_fg0.50_pa13.F63BC5.24.0.40.58.100.41.0.0_t00_pb_pc_pd_pe_ga0_gb1_gc76.0_ge0000000000_gh_gf_gg_gd10100000_ha11.11_hb49.1.0.41_hc3.59.39.3.59.39_hd48.1.49.35_ia_if_ib_id_ic_jc_ie_ja_jb_jd_je_jf_jg_ka_kb_kc_kd_ke_kf_la11.ba2636.55.0.1_lb_oa_os_ob_oc_od_oe_of_lc_m00_n00_s00_og_oh_oo_op_oq_or_om_on_ok_ol_oi_oj_ad0.0.0.0.0.0.0.0.0.0

#finished
5-awkward=47**aa8.89.1.45.75.15.82.1.28.50_ab_ac_ba50_bb6.1_bc150.500.8.0.1_bd6_be180_ca57.0.42.75.15.27.30.0.20_cb0_da0.0.0.100_db_dd0.0.34.50.52.50_dh0.35.50.50.0_di8_qa_qb_dc105.1.0.0.0_eh1.F63BC5_ea32.F63BC5.F63BC5.56.0.0_ec20.36.F63BC5.F63BC5.56.40.65.0_ed41.50.1.1.F63BC5.56_ef_eg_r0034.F63BC5.F63BC5.56.2.2.50.50.360.497.620.0_fa2.50.50.60.50.65.56_fb_fh_fc3.34.55.3.34.55.50.61.61.50.50.50_fd1.0.50.F63BC5.56_fe58.61_ff0000000000_fg0.50_pa13.F63BC5.24.0.40.58.100.41.0.0_t00_pb_pc_pd_pe_ga0_gb1_gc77.0_ge0000000000_gh_gf_gg_gd10000000_ha100.100_hb0.1.78.91_hc0.59.39.0.59.39_hd12.1.71.41_ia_if_ib_id_ic_jc_ie_ja_jb_jd_je_jf_jg_ka_kb_kc_kd_ke_kf_la11.ba2636.55.0.1_lb_oa_os_ob_oc_od_oe_of_lc_m00_n00_s00_og_oh_oo_op_oq_or_om_on_ok_ol_oi_oj_ad0.0.0.0.0.0.0.0.0.0
5-calm=47**aa11.89.1.28.50.11.89.1.28.50_ab_ac_ba50_bb6.1_bc237.500.8.0.1_bd6_be180_ca57.0.42.75.15.27.30.0.20_cb0_da0.0.0.100_db_dd0.0.34.50.52.50_dh0.35.50.50.0_di8_qa_qb_dc98.1.0.0.0_eh1.F63BC5_ea32.F63BC5.F63BC5.56.0.0_ec20.36.F63BC5.F63BC5.56.40.65.0_ed41.50.1.1.F63BC5.56_ef_eg_r0034.F63BC5.F63BC5.56.2.2.50.50.360.497.620.0_fa2.50.50.60.50.65.56_fb_fh_fc3.34.55.3.34.55.50.61.61.50.50.50_fd1.0.50.F63BC5.56_fe58.61_ff0000000000_fg0.50_pa13.F63BC5.24.0.40.58.100.41.0.0_t00_pb_pc_pd_pe_ga0_gb1_gc66.0_ge0000000000_gh_gf_gg_gd10000000_ha74.74_hb49.1.44.99_hc0.59.39.0.59.39_hd16.1.59.81_ia_if_ib_id_ic_jc_ie_ja_jb_jd_je_jf_jg_ka_kb_kc_kd_ke_kf_la11.ba2636.55.0.1_lb_oa_os_ob_oc_od_oe_of_lc_m00_n00_s00_og_oh_oo_op_oq_or_om_on_ok_ol_oi_oj_ad0.0.0.0.0.0.0.0.0.0
5-happy=47**aa13.86.1.27.50.84.0.0.30.50_ab_ac_ba50_bb6.1_bc325.500.8.0.1_bd6_be180_ca57.0.42.75.15.27.30.0.20_cb0_da0.0.0.100_db_dd0.0.34.50.52.50_dh0.35.50.50.0_di8_qa_qb_dc153.1.0.0.0_eh1.F63BC5_ea32.F63BC5.F63BC5.56.0.0_ec20.36.F63BC5.F63BC5.56.40.65.0_ed41.50.1.1.F63BC5.56_ef_eg_r0034.F63BC5.F63BC5.56.2.2.50.50.360.497.620.0_fa2.50.50.60.50.65.56_fb_fh_fc3.34.55.3.34.55.50.61.61.50.50.50_fd1.0.50.F63BC5.56_fe58.61_ff0000000000_fg0.50_pa13.F63BC5.24.0.40.58.100.41.0.0_t00_pb_pc_pd_pe_ga0_gb1_gc66.0_ge0000000000_gh_gf_gg_gd10000000_ha90.90_hb49.1.44.99_hc0.59.39.0.59.39_hd24.1.49.49_ia_if_ib_id_ic_jc_ie_ja_jb_jd_je_jf_jg_ka_kb_kc_kd_ke_kf_la11.ba2636.55.0.1_lb_oa_os_ob_oc_od_oe_of_lc_m00_n00_s00_og_oh_oo_op_oq_or_om_on_ok_ol_oi_oj_ad0.0.0.0.0.0.0.0.0.0
5-horny=47**aa11.89.1.28.50.14.67.1.4.40_ab_ac_ba50_bb6.1_bc412.500.8.0.1_bd6_be180_ca57.0.42.75.15.27.30.0.20_cb0_da0.0.0.100_db_dd0.0.34.50.52.50_dh0.35.50.50.0_di8_qa_qb_dc131.1.0.0.0_eh1.F63BC5_ea32.F63BC5.F63BC5.56.0.0_ec20.36.F63BC5.F63BC5.56.40.65.0_ed41.50.1.1.F63BC5.56_ef_eg_r0034.F63BC5.F63BC5.56.2.2.50.50.360.497.620.0_fa2.50.50.60.50.65.56_fb_fh_fc3.34.55.3.34.55.50.61.61.50.50.50_fd1.0.50.F63BC5.56_fe58.61_ff0000000000_fg0.50_pa13.F63BC5.24.0.40.58.100.41.0.0_t00_pb_pc_pd_pe_ga0_gb1_gc80.0_ge0000000000_gh_gf_gg_gd10000000_ha89.89_hb49.1.44.100_hc0.59.39.0.59.39_hd31.1.45.50_ia_if_ib_id_ic_jc_ie_ja_jb_jd_je_jf_jg_ka_kb_kc_kd_ke_kf_la11.ba2636.55.0.1_lb_oa_os_ob_oc_od_oe_of_lc_m00_n00_s00_og_oh_oo_op_oq_or_om_on_ok_ol_oi_oj_ad0.0.0.0.0.0.0.0.0.0
5-interested=47**aa16.84.1.4.50.16.84.1.4.50_ab_ac_ba50_bb6.1_bc500.500.8.0.1_bd6_be180_ca57.0.42.75.15.27.30.0.20_cb0_da0.0.0.100_db0.0_dd0.0.34.50.52.50_dh0.35.50.50.0_di8_qa_qb_dc138.1.0.0.0_eh1.F63BC5_ea32.F63BC5.F63BC5.56.0.0_ec20.36.F63BC5.F63BC5.56.40.65.0_ed41.50.1.1.F63BC5.56_ef_eg_r0034.F63BC5.F63BC5.56.2.2.50.50.360.497.620.0_fa2.50.50.60.50.65.56_fb_fh_fc3.34.55.3.34.55.50.61.61.50.50.50_fd1.0.50.F63BC5.56_fe58.61_ff0000000000_fg0.50_pa13.F63BC5.24.0.40.58.100.41.0.0_t00_pb_pc_pd_pe_ga0_gb1_gc59.0_ge0000000000_gh_gf_gg_gd10000000_ha0.0_hb49.1.44.99_hc0.59.39.0.59.39_hd34.1.50.49_ia_if_ib_id_ic_jc_ie_ja_jb_jd_je_jf_jg_ka_kb_kc_kd_ke_kf_la11.ba2636.55.0.1_lb_oa_os_ob_oc_od_oe_of_lc_m00_n00_s00_og_oh_oo_op_oq_or_om_on_ok_ol_oi_oj_ad0.0.0.0.0.0.0.0.0.0
5-loss=47**aa0.0.0.0.50.12.87.1.28.63_ab_ac_ba50_bb6.1_bc587.500.8.0.1_bd6_be180_ca57.0.42.75.15.27.30.0.20_cb0_da0.0.0.100_db_dd0.0.34.50.52.50_dh0.35.50.50.0_di8_qa_qb_dc158.1.0.0.0_eh1.F63BC5_ea32.F63BC5.F63BC5.56.0.0_ec20.36.F63BC5.F63BC5.56.40.65.0_ed41.50.1.1.F63BC5.56_ef_eg_r0034.F63BC5.F63BC5.56.2.2.50.50.360.497.620.0_fa2.50.50.60.50.65.56_fb_fh_fc3.34.55.3.34.55.50.61.61.50.50.50_fd1.0.50.F63BC5.56_fe58.61_ff0000000000_fg0.50_pa13.F63BC5.24.0.40.58.100.41.0.0_t00_pb_pc_pd_pe_ga0_gb1_gc46.0_ge0000000000_gh_gf_gg_gd10100000_ha91.91_hb49.1.50.100_hc0.59.39.0.59.39_hd5.1.49.49_ia_if_ib_id_ic_jc_ie_ja_jb_jd_je_jf_jg_ka_kb_kc_kd_ke_kf_la11.ba2636.55.0.1_lb_oa_os_ob_oc_od_oe_of_lc_m00_n00_s00_og_oh_oo_op_oq_or_om_on_ok_ol_oi_oj_ad0.0.0.0.0.0.0.0.0.0
5-sad=47**aa0.0.0.0.50.12.87.1.28.63_ab_ac_ba50_bb6.1_bc675.500.8.0.1_bd6_be180_ca57.0.42.75.15.27.30.0.20_cb0_da0.0.0.100_db_dd0.0.34.50.52.50_dh0.35.50.50.0_di8_qa_qb_dc157.1.0.0.0_eh1.F63BC5_ea32.F63BC5.F63BC5.56.0.0_ec20.36.F63BC5.F63BC5.56.40.65.0_ed41.50.1.1.F63BC5.56_ef_eg_r0034.F63BC5.F63BC5.56.2.2.50.50.360.497.620.0_fa2.50.50.60.50.65.56_fb_fh_fc3.34.55.3.34.55.50.61.61.50.50.50_fd1.0.50.F63BC5.56_fe58.61_ff0000000000_fg0.50_pa13.F63BC5.24.0.40.58.100.41.0.0_t00_pb_pc_pd_pe_ga0_gb1_gc46.0_ge0000000000_gh_gf_gg_gd10100000_ha71.71_hb49.1.50.100_hc0.59.39.0.59.39_hd8.1.49.49_ia_if_ib_id_ic_jc_ie_ja_jb_jd_je_jf_jg_ka_kb_kc_kd_ke_kf_la11.ba2636.55.0.1_lb_oa_os_ob_oc_od_oe_of_lc_m00_n00_s00_og_oh_oo_op_oq_or_om_on_ok_ol_oi_oj_ad0.0.0.0.0.0.0.0.0.0
5-shocked=47**aa19.45.0.8.50.9.88.1.16.50_ab_ac_ba50_bb4.1_bc762.500.8.0.1_bd4_be180_ca57.0.42.75.15.27.30.0.20_cb0_da0.0.0.100_db_dd0.0.34.50.52.50_dh0.35.50.50.0_di8_qa_qb_dc131.1.0.0.0_eh1.F63BC5_ea32.F63BC5.F63BC5.56.0.0_ec20.36.F63BC5.F63BC5.56.40.65.0_ed41.50.1.1.F63BC5.56_ef_eg_r0034.F63BC5.F63BC5.56.2.2.50.50.360.497.620.0_fa2.50.50.60.50.65.56_fb_fh_fc3.34.55.3.34.55.50.61.61.50.50.50_fd1.0.50.F63BC5.56_fe58.61_ff0000000000_fg0.50_pa13.F63BC5.24.0.40.58.100.41.0.0_t00_pb_pc_pd_pe_ga0_gb1_gc60.0_ge0000000000_gh_gf_gg_gd10100000_ha89.89_hb49.1.44.41_hc0.59.39.0.59.39_hd31.1.49.49_ia_if_ib_id_ic_jc_ie_ja_jb_jd_je_jf_jg_ka_kb_kc_kd_ke_kf_la11.ba2636.55.0.1_lb_oa_os_ob_oc_od_oe_of_lc_m00_n00_s00_og_oh_oo_op_oq_or_om_on_ok_ol_oi_oj_ad0.0.0.0.0.0.0.0.0.0
5-finished=47**aa11.89.1.28.50.11.89.1.28.50_ab_ac_ba50_bb51.1_bc850.500.8.0.1_bd51_be180_ca57.0.42.75.15.27.30.0.20_cb0_da0.0.0.100_db_dd0.0.34.50.52.50_dh0.35.50.50.0_di8_qa_qb_dc98.1.0.0.0_eh1.F63BC5_ea32.F63BC5.F63BC5.56.0.0_ec20.36.F63BC5.F63BC5.56.40.65.0_ed41.50.1.1.F63BC5.56_ef_eg_r0034.F63BC5.F63BC5.56.2.2.50.50.360.497.620.0_fa2.50.50.60.50.65.56_fb_fh_fc3.34.55.3.34.55.50.61.61.50.50.50_fd1.0.50.F63BC5.56_fe58.61_ff0000000000_fg0.50_pa13.F63BC5.24.0.40.58.100.41.0.0_t00_pb_pc_pd_pe_ga0_gb1_gc74.0_ge0000000000_gh_gf_gg_gd10000000_ha24.24_hb49.1.44.99_hc0.59.39.0.59.39_hd29.1.59.81_ia_if_ib_id_ic_jc_ie_ja_jb_jd_je_jf_jg_ka_kb_kc_kd_ke_kf_la11.ba2636.55.0.1_lb_oa_os_ob_oc_od_oe_of_lc_m00_n00_s00_og_oh_oo_op_oq_or_om_on_ok_ol_oi_oj_ad0.0.0.0.0.0.0.0.0.0
5-cocky=47**aa11.90.1.28.50.11.52.1.34.50_ab_ac_ba50_bb6.1_bc850.500.8.0.1_bd6_be180_ca57.0.42.75.15.27.30.0.20_cb0_da0.0.0.100_db_dd0.0.34.50.52.50_dh0.35.50.50.0_di8_qa_qb_dc98.1.0.0.0_eh1.F63BC5_ea32.F63BC5.F63BC5.56.0.0_ec20.36.F63BC5.F63BC5.56.40.65.0_ed41.50.1.1.F63BC5.56_ef_eg_r0034.F63BC5.F63BC5.56.2.2.50.50.360.497.620.0_fa2.50.50.60.50.65.56_fb_fh_fc3.34.55.3.34.55.50.61.61.50.50.50_fd1.0.50.F63BC5.56_fe58.61_ff0000000000_fg0.50_pa13.F63BC5.24.0.40.58.100.41.0.0_t00_pb_pc_pd_pe_ga0_gb1_gc66.0_ge0000000000_gh_gf_gg_gd10000000_ha100.0_hb49.1.44.99_hc0.59.39.0.59.39_hd24.1.59.81_ia_if_ib_id_ic_jc_ie_ja_jb_jd_je_jf_jg_ka_kb_kc_kd_ke_kf_la11.ba2636.55.0.1_lb_oa_os_ob_oc_od_oe_of_lc_m00_n00_s00_og_oh_oo_op_oq_or_om_on_ok_ol_oi_oj_ad0.0.0.0.0.0.0.0.0.0

0-stripping=47***aa17.81.0.0.50.39.78.0.0.50_ab_ac_ba50_bb98.1_bc185.200.0.0.1_bd77_be180_ca57.0.42.75.15.27.30.0.20_cb0_da0.0.0.100_db_dd0.0.34.50.52.50_dh0.35.50.50.0_di8_qa_qb_dc28.1.0.0.0_eh_ea32.F63BC5.F63BC5.56.0.0_ec20.36.F63BC5.F63BC5.56.40.65.0_ed41.50.1.1.F63BC5.56_ef_eg_r0034.F63BC5.F63BC5.56.2.2.50.50.360.497.620.0_fa2.50.50.60.50.65.56_fb_fh_fc3.34.55.3.34.55.50.61.61.50.50.50_fd1.0.50.F63BC5.56_fe58.61_ff0000000000_fg0.50_pa13.F63BC5.24.0.40.58.100.41.0.0_t00_pb_pc_pd_pe_ga0_gb1_gc8.0_ge0000000000_gh_gf_gg_gd10000000_ha85.85_hb100.1.0.99_hc0.59.39.0.59.39_hd12.1.49.49_ia_if_ib_id0.3.3.55.0.0.1.0.0.0.0.0.0.11_ic_jc_ie_ja_jb_jd_je11.3.55.FFFFFF_jf_jg_ka4.55.55.55.0_kb4.55.55.55_kc_kd_ke_kf_la11.ba2636.55.0.1_lb_oa_os_ob_oc_od_oe_of_lc_m00_n00_s00_og16.F9FE01.56.0_oh16.F9FE01.56.0_oo_op_oq_or_om_on_ok_ol_oi3.55.55.EEF3EE.0_oj3.55.55.EEF3EE.0_ad0.0.0.0.0.0.0.0.0.0*0*0*0*0*0*0*0*0#/]a00_b00_c00_d00_w00_x00_e00_y00_z00_ua1.0.0.0.100_uf0.3.0.0_ue_ub_u0_v0_uc7.0.30_ud7.8
0-stripping=47**aa17.81.0.0.50.39.78.0.0.50_ab_ac_ba50_bb98.1_bc185.0.0.0.1_bd77_be180_ca57.0.42.75.15.27.30.0.20_cb0_da0.0.0.100_db_dd0.0.34.50.52.50_dh0.35.50.50.0_di8_qa_qb_dc28.1.0.0.0_eh_ea32.F63BC5.F63BC5.56.0.0_ec20.36.F63BC5.F63BC5.56.40.65.0_ed41.50.1.1.F63BC5.56_ef_eg_r0034.F63BC5.F63BC5.56.2.2.50.50.360.497.620.0_fa2.50.50.60.50.65.56_fb_fh_fc3.34.55.3.34.55.50.61.61.50.50.50_fd1.0.50.F63BC5.56_fe58.61_ff0000000000_fg0.50_pa13.F63BC5.24.0.40.58.100.41.0.0_t00_pb_pc_pd_pe_ga0_gb1_gc8.0_ge0000000000_gh_gf_gg_gd10000000_ha85.85_hb100.1.0.99_hc0.59.39.0.59.39_hd12.1.49.49_ia_if_ib_id_ic_jc_ie_ja_jb_jd_je2.3.3.FFFFFF_jf_jg_ka9.3.55.55.0_kb9.3.55.55_kc_kd_ke_kf_la11.ba2636.55.0.1_lb_oa_os_ob_oc_od_oe_of_lc_m00_n00_s00_og_oh_oo_op_oq_or_om_on_ok_ol_oi_oj_ad0.0.0.0.0.0.0.0.0.0


